{
  "folder": "TyYruoWurwpkxeA6",
  "name": "4 Círculo",
  "sorting": "a",
  "type": "Item",
  "_id": "cP4cDmrvW4PUtZVU",
  "sort": 0,
  "flags": {},
  "_stats": {
    "systemId": null,
    "systemVersion": null,
    "coreVersion": null,
    "createdTime": null,
    "modifiedTime": null,
    "lastModifiedBy": null
  },
  "_key": "!folders!cP4cDmrvW4PUtZVU"
}
