{
  "folder": "RBZAuchWiAVeyFjL",
  "name": "A1 Convocação",
  "sorting": "a",
  "type": "Item",
  "_id": "XbLDNKDB9maFAhzw",
  "sort": 0,
  "flags": {},
  "_stats": {
    "systemId": null,
    "systemVersion": null,
    "coreVersion": null,
    "createdTime": null,
    "modifiedTime": null,
    "lastModifiedBy": null
  },
  "_key": "!folders!XbLDNKDB9maFAhzw"
}
