{
  "folder": "AoAHv0ZA4Zxi4wFN",
  "name": "A2 Ilusão",
  "sorting": "a",
  "type": "Item",
  "_id": "JF3PQ5Q84KVTjyxv",
  "sort": 0,
  "flags": {},
  "_stats": {
    "systemId": null,
    "systemVersion": null,
    "coreVersion": null,
    "createdTime": null,
    "modifiedTime": null,
    "lastModifiedBy": null
  },
  "_key": "!folders!JF3PQ5Q84KVTjyxv"
}
