{
  "folder": "3vLGG9iTfdcoZaTn",
  "name": "A4 Ilusão",
  "sorting": "a",
  "type": "Item",
  "_id": "eWqsKdfBBmt8h42b",
  "sort": 0,
  "flags": {},
  "_stats": {
    "systemId": null,
    "systemVersion": null,
    "coreVersion": null,
    "createdTime": null,
    "modifiedTime": null,
    "lastModifiedBy": null
  },
  "_key": "!folders!eWqsKdfBBmt8h42b"
}
