{
  "folder": "QDn7esOh9g6RxjtZ",
  "name": "A5 Convocação",
  "sorting": "a",
  "type": "Item",
  "_id": "qpQwhvyiq8EJgExj",
  "sort": 0,
  "flags": {},
  "_stats": {
    "systemId": null,
    "systemVersion": null,
    "coreVersion": null,
    "createdTime": null,
    "modifiedTime": null,
    "lastModifiedBy": null
  },
  "_key": "!folders!qpQwhvyiq8EJgExj"
}
