{
  "_id": "5ZjS4bVvSxWNpBL9",
  "name": "Conjurar Mortos-Vivos",
  "type": "magia",
  "img": "systems/tormenta20/icons/magias/conjurar-mortos-vivos.webp",
  "effects": [
    {
      "_id": "4qjvv6kmamN4fee7",
      "flags": {
        "t20": null,
        "tormenta20": {
          "onuse": true,
          "self": true,
          "custo": "2",
          "aumenta": true
        }
      },
      "changes": [],
      "disabled": true,
      "duration": {
        "startTime": null,
        "seconds": null,
        "combat": null,
        "rounds": null,
        "turns": null,
        "startRound": null,
        "startTurn": null
      },
      "icon": "icons/svg/upgrade.svg",
      "label": "aumenta o número de mortos-vivos conjurados em +1.",
      "origin": "Compendium.tormenta20.magias.5ZjS4bVvSxWNpBL9",
      "transfer": false,
      "tint": null,
      "_key": "!items.effects!5ZjS4bVvSxWNpBL9.4qjvv6kmamN4fee7"
    },
    {
      "_id": "NgMgwIWCx2QWJ9yq",
      "flags": {
        "t20": null,
        "tormenta20": {
          "onuse": true,
          "self": true,
          "custo": "3",
          "aumenta": false,
          "attack": false,
          "skill": false,
          "ability": false,
          "power": false,
          "spell": false,
          "consumable": false,
          "durationScene": false,
          "items": ""
        }
      },
      "changes": [
        {
          "key": "dano",
          "mode": 5,
          "value": "1d8+3",
          "priority": 0
        }
      ],
      "disabled": true,
      "duration": {
        "startTime": null,
        "seconds": null,
        "combat": null,
        "rounds": null,
        "turns": null,
        "startRound": null,
        "startTurn": null
      },
      "icon": "icons/svg/upgrade.svg",
      "label": "em vez de esqueletos, conjura carniçais. Requer 3º círculo.",
      "origin": "Compendium.tormenta20.magias.5ZjS4bVvSxWNpBL9",
      "transfer": false,
      "tint": null,
      "_key": "!items.effects!5ZjS4bVvSxWNpBL9.NgMgwIWCx2QWJ9yq"
    },
    {
      "_id": "4O6MhQ318Rz4ggO0",
      "flags": {
        "t20": null,
        "tormenta20": {
          "onuse": true,
          "self": true,
          "custo": "7",
          "aumenta": false,
          "attack": false,
          "skill": false,
          "ability": false,
          "power": false,
          "spell": false,
          "consumable": false,
          "durationScene": false,
          "items": ""
        }
      },
      "changes": [
        {
          "key": "dano",
          "mode": 5,
          "value": "2d10",
          "priority": 0
        }
      ],
      "disabled": true,
      "duration": {
        "startTime": null,
        "seconds": null,
        "combat": null,
        "rounds": null,
        "turns": null,
        "startRound": null,
        "startTurn": null
      },
      "icon": "icons/svg/upgrade.svg",
      "label": "em vez de esqueletos, conjura sombras. Requer 4º círculo.",
      "origin": "Compendium.tormenta20.magias.5ZjS4bVvSxWNpBL9",
      "transfer": false,
      "tint": null,
      "_key": "!items.effects!5ZjS4bVvSxWNpBL9.4O6MhQ318Rz4ggO0"
    }
  ],
  "folder": "7yssqJBhDFrqS4PK",
  "sort": 0,
  "flags": {
    "core": {
      "sourceId": "Item.FfIZiBV2pHK3ddJG"
    }
  },
  "system": {
    "description": {
      "value": "<p class=\"MsoNormal\" style=\"text-align: justify;\">Voc&ecirc; conjura seis esqueletos capangas de tamanho M&eacute;dio feitos de energia negativa em espa&ccedil;os desocupados dentro do alcance. Voc&ecirc; pode gastar uma a&ccedil;&atilde;o de movimento para fazer os mortos-vivos andarem (eles t&ecirc;m deslocamento 9m) ou uma a&ccedil;&atilde;o padr&atilde;o para faz&ecirc;-los causar dano a criaturas adjacentes (1d6+2 pontos de dano de trevas cada). Os esqueletos t&ecirc;m For 2, Des 2, Defesa 18 e todos os outros atributos nulos; eles t&ecirc;m 1 PV e falham automaticamente em qualquer teste de resist&ecirc;ncia ou oposto, mas s&atilde;o imunes a atordoamento, dano n&atilde;o letal, doen&ccedil;a, encantamento, fadiga, frio, ilus&atilde;o, paralisia, sono e veneno. Eles desaparecem quando s&atilde;o reduzidos a 0 PV ou no fim da cena. Os mortos- -vivos n&atilde;o agem sem receber uma ordem. Usos criativos para capangas fora de combate ficam a crit&eacute;rio do mestre.</p>\n<p style=\"text-align: justify;\"><span style=\"font-family: var(--font-primary); font-size: var(--font-size-14);\">&nbsp;</span></p>\n<p class=\"MsoNormal\" style=\"text-align: justify;\"><em>Carni&ccedil;al:</em> como esqueletos, mas t&ecirc;m For 3, Des 3, Defesa 27 e causam 1d8+3 pontos de dano de trevas mais perda de 1d8 PV por veneno. Al&eacute;m disso, criaturas atingidas por um carni&ccedil;al devem passar num teste de Fortitude ou ficam @UUID[JournalEntry.s15J5SOYixL3Ajzr.JournalEntryPage.3dcJKe2SGu8mnafU]{Paralisado} por 1 rodada. Uma criatura que passe no teste de resist&ecirc;ncia fica imune &agrave; paralisia dos carni&ccedil;ais por um dia.</p>\n<p style=\"text-align: justify;\"><span style=\"font-family: var(--font-primary); font-size: var(--font-size-14);\">&nbsp;</span></p>\n<p style=\"text-align: justify;\"><span style=\"font-family: var(--font-primary); font-size: var(--font-size-14);\"><em>Sombra:</em> </span>como esqueletos, mas t&ecirc;m Des 4, Defesa 35, a habilidade incorp&oacute;reo e causam 2d10 pontos de dano de trevas. Al&eacute;m disso, criaturas vivas atingidas por uma sombra devem passar num teste de Fortitude ou perdem 1d4 PM. Sombras perdem a habilidade incorp&oacute;reo quando expostas &agrave; luz do sol.</p>",
      "chat": "",
      "unidentified": ""
    },
    "source": "T20, pg. 186 (JdA)",
    "ativacao": {
      "execucao": "full",
      "custo": 3,
      "qtd": "",
      "condicao": "",
      "special": ""
    },
    "duracao": {
      "value": 0,
      "units": "sust",
      "special": ""
    },
    "target": {
      "value": null,
      "width": null,
      "units": "",
      "type": ""
    },
    "range": {
      "value": null,
      "units": ""
    },
    "consume": {
      "type": "",
      "target": "",
      "amount": null,
      "mpMultiplier": false
    },
    "efeito": "6 mortos-vivos",
    "alcance": "short",
    "alvo": "",
    "area": "",
    "resistencia": {
      "pericia": "",
      "atributo": "sab",
      "bonus": 0,
      "txt": ""
    },
    "rolls": [
      {
        "name": "Dano",
        "key": "dano0",
        "type": "dano",
        "parts": [
          [
            "1d6+2",
            "trevas",
            ""
          ]
        ],
        "versatil": ""
      }
    ],
    "tipo": "uni",
    "circulo": "2",
    "preparada": false,
    "escola": "nec",
    "chatFlavor": "",
    "origin": "",
    "tags": [],
    "chatGif": ""
  },
  "ownership": {
    "default": 0
  },
  "_stats": {
    "systemId": "tormenta20",
    "systemVersion": "1.4.116",
    "coreVersion": "11.298",
    "createdTime": 1664310461760,
    "modifiedTime": 1684622830660,
    "lastModifiedBy": "ZWR5Tn3AhSIFqwp6"
  },
  "_key": "!items!5ZjS4bVvSxWNpBL9"
}
