{
  "folder": "dsLi9u9ytNSYWd13",
  "name": "D4 Transmutação",
  "sorting": "a",
  "type": "Item",
  "_id": "aJEhZBVN6YfokZ7w",
  "sort": 0,
  "flags": {},
  "_stats": {
    "systemId": null,
    "systemVersion": null,
    "coreVersion": null,
    "createdTime": null,
    "modifiedTime": null,
    "lastModifiedBy": null
  },
  "_key": "!folders!aJEhZBVN6YfokZ7w"
}
