{
  "_id": "PXR8dRhDk8Z0mtck",
  "name": "Explosão de Chamas",
  "type": "magia",
  "img": "systems/tormenta20/icons/magias/explosao-de-chamas.webp",
  "effects": [
    {
      "_id": "TXHO0XUKJkSZGDqf",
      "flags": {
        "t20": null,
        "tormenta20": {
          "onuse": true,
          "self": true,
          "custo": "",
          "aumenta": false
        }
      },
      "changes": [
        {
          "key": "alcance",
          "value": "curto",
          "mode": 5,
          "priority": null
        },
        {
          "key": "area",
          "value": "alvo de 1 objeto",
          "mode": 5,
          "priority": null
        },
        {
          "key": "resistencia",
          "value": "Reflexos anula",
          "mode": 5,
          "priority": null
        },
        {
          "key": "condicao",
          "value": "em chamas",
          "mode": 0,
          "priority": null
        }
      ],
      "disabled": true,
      "duration": {
        "startTime": null,
        "seconds": null,
        "combat": null,
        "rounds": null,
        "turns": null,
        "startRound": null,
        "startTurn": null
      },
      "icon": "icons/svg/upgrade.svg",
      "label": "muda o alcance para curto, a área para alvo de 1 objeto e a resistência para Reflexos anula. Você gera uma pequena explosão que não causa dano mas pode acender uma vela, tocha ou fogueira. Também pode fazer um objeto inflamável com RD 0 (como uma corda ou pergaminho) ficar em chamas. Uma criatura em posse de um objeto pode evitar esse efeito se passar no teste de resistência.",
      "origin": "Compendium.tormenta20.magias.PXR8dRhDk8Z0mtck",
      "transfer": false,
      "tint": null,
      "_key": "!items.effects!PXR8dRhDk8Z0mtck.TXHO0XUKJkSZGDqf"
    },
    {
      "_id": "vKShkoCm4FMcYevu",
      "flags": {
        "t20": null,
        "tormenta20": {
          "onuse": true,
          "self": true,
          "custo": "1",
          "aumenta": true
        }
      },
      "changes": [
        {
          "key": "dano",
          "value": "1d6",
          "mode": 0,
          "priority": null
        }
      ],
      "disabled": true,
      "duration": {
        "startTime": null,
        "seconds": null,
        "combat": null,
        "rounds": null,
        "turns": null,
        "startRound": null,
        "startTurn": null
      },
      "icon": "icons/svg/upgrade.svg",
      "label": "aumenta o dano em +1d6.",
      "origin": "Compendium.tormenta20.magias.PXR8dRhDk8Z0mtck",
      "transfer": false,
      "tint": null,
      "_key": "!items.effects!PXR8dRhDk8Z0mtck.vKShkoCm4FMcYevu"
    },
    {
      "_id": "FTGTkuiyuKw6Bzyz",
      "flags": {
        "t20": null,
        "tormenta20": {
          "onuse": true,
          "self": true,
          "custo": "1",
          "aumenta": false
        }
      },
      "changes": [
        {
          "key": "resistencia",
          "value": "Reflexos parcial",
          "mode": 5,
          "priority": null
        },
        {
          "key": "condicao",
          "value": "em chamas",
          "mode": 0,
          "priority": null
        }
      ],
      "disabled": true,
      "duration": {
        "startTime": null,
        "seconds": null,
        "combat": null,
        "rounds": null,
        "turns": null,
        "startRound": null,
        "startTurn": null
      },
      "icon": "icons/svg/upgrade.svg",
      "label": "muda a resistência para Reflexos parcial. Se passar, a criatura reduz o dano à metade; se falhar, fica em chamas (veja Condições, no Apêndice).",
      "origin": "Compendium.tormenta20.magias.PXR8dRhDk8Z0mtck",
      "transfer": false,
      "tint": null,
      "_key": "!items.effects!PXR8dRhDk8Z0mtck.FTGTkuiyuKw6Bzyz"
    }
  ],
  "folder": "KOlUvn9hRr5MhzaH",
  "sort": 0,
  "flags": {
    "core": {
      "sourceId": "Item.dmZrFf0OW2mDIVUM"
    },
    "cf": null
  },
  "system": {
    "description": {
      "value": "<p style=\"text-align:justify;\">Um leque de chamas irrompe de suas mãos, causando 2d6 pontos de dano de fogo às criaturas na área.</p>",
      "chat": "",
      "unidentified": ""
    },
    "source": "T20, pg. 193 (JdA)",
    "ativacao": {
      "execucao": "action",
      "custo": 1,
      "qtd": "",
      "condicao": "",
      "special": ""
    },
    "duracao": {
      "value": 0,
      "units": "inst",
      "special": ""
    },
    "target": {
      "value": null,
      "width": null,
      "units": "",
      "type": ""
    },
    "range": {
      "value": null,
      "units": ""
    },
    "consume": {
      "type": "",
      "target": "",
      "amount": null,
      "mpMultiplier": false
    },
    "efeito": "",
    "alcance": "self",
    "alvo": "",
    "area": "Cone de 6m",
    "resistencia": {
      "pericia": "",
      "atributo": "int",
      "bonus": 0,
      "txt": "Reflexos reduz à metade"
    },
    "rolls": [
      {
        "name": "Dano",
        "key": "dano0",
        "type": "dano",
        "parts": [
          [
            "2d6",
            "fogo",
            ""
          ]
        ],
        "versatil": ""
      }
    ],
    "tipo": "arc",
    "circulo": "1",
    "preparada": false,
    "escola": "evo",
    "chatFlavor": "",
    "origin": "",
    "tags": [],
    "chatGif": ""
  },
  "ownership": {
    "default": 0
  },
  "_stats": {
    "systemId": "tormenta20",
    "systemVersion": "1.4.116",
    "coreVersion": "11.298",
    "createdTime": 1664310461907,
    "modifiedTime": 1684622830660,
    "lastModifiedBy": "ZWR5Tn3AhSIFqwp6"
  },
  "_key": "!items!PXR8dRhDk8Z0mtck"
}
