{
  "_id": "N1xVfw9A8TiYeLae",
  "name": "Hipnotismo",
  "type": "magia",
  "img": "systems/tormenta20/icons/magias/hipnotismo.webp",
  "effects": [
    {
      "_id": "0qnDVKlJ4Y6vIqzN",
      "flags": {
        "t20": null,
        "tormenta20": {
          "onuse": true,
          "self": true,
          "custo": "",
          "aumenta": false,
          "attack": false,
          "skill": false,
          "ability": false,
          "power": false,
          "spell": false,
          "consumable": false,
          "items": "",
          "durationScene": false,
          "equipment": false
        }
      },
      "changes": [
        {
          "key": "alvo",
          "mode": 5,
          "value": "1 criatura",
          "priority": 0
        },
        {
          "key": "duracao",
          "mode": 5,
          "value": "1 rodada",
          "priority": 0
        },
        {
          "key": "condicao",
          "mode": 0,
          "value": "fascinado",
          "priority": 0
        },
        {
          "key": "condicao",
          "mode": 0,
          "value": "pasmo",
          "priority": 0
        }
      ],
      "disabled": true,
      "duration": {
        "startTime": null,
        "seconds": null,
        "combat": null,
        "rounds": null,
        "turns": null,
        "startRound": null,
        "startTurn": null
      },
      "icon": "icons/svg/upgrade.svg",
      "label": "muda a duração para 1 rodada. Em vez de fascinado, o alvo fica pasmo. (apenas uma vez por cena)",
      "origin": "Compendium.tormenta20.magias.N1xVfw9A8TiYeLae",
      "transfer": false,
      "tint": null,
      "_key": "!items.effects!N1xVfw9A8TiYeLae.0qnDVKlJ4Y6vIqzN"
    },
    {
      "_id": "jN9vw5EXuCc5hmMq",
      "flags": {
        "t20": null,
        "tormenta20": {
          "onuse": true,
          "self": true,
          "custo": "1",
          "aumenta": false,
          "attack": false,
          "skill": false,
          "ability": false,
          "power": false,
          "spell": false,
          "consumable": false,
          "items": "",
          "durationScene": false
        }
      },
      "changes": [],
      "disabled": true,
      "duration": {
        "startTime": null,
        "seconds": null,
        "combat": null,
        "rounds": null,
        "turns": null,
        "startRound": null,
        "startTurn": null
      },
      "icon": "icons/svg/upgrade.svg",
      "label": "como o normal, mas alvos que passarem na resistência não sabem que foram vítimas de uma magia.",
      "origin": "Compendium.tormenta20.magias.N1xVfw9A8TiYeLae",
      "transfer": false,
      "tint": null,
      "_key": "!items.effects!N1xVfw9A8TiYeLae.jN9vw5EXuCc5hmMq"
    },
    {
      "_id": "n2XIwlHRUXWsyWoe",
      "flags": {
        "t20": null,
        "tormenta20": {
          "onuse": true,
          "self": true,
          "custo": "2",
          "aumenta": false,
          "attack": false,
          "skill": false,
          "ability": false,
          "power": false,
          "spell": false,
          "consumable": false,
          "items": "",
          "durationScene": false
        }
      },
      "changes": [
        {
          "key": "duracao",
          "mode": 5,
          "value": "Cena",
          "priority": 0
        }
      ],
      "disabled": true,
      "duration": {
        "startTime": null,
        "seconds": null,
        "combat": null,
        "rounds": null,
        "turns": null,
        "startRound": null,
        "startTurn": null
      },
      "icon": "icons/svg/upgrade.svg",
      "label": "muda o alvo para animais ou humanoides escolhidos.",
      "origin": "Compendium.tormenta20.magias.N1xVfw9A8TiYeLae",
      "transfer": false,
      "tint": null,
      "_key": "!items.effects!N1xVfw9A8TiYeLae.n2XIwlHRUXWsyWoe"
    },
    {
      "_id": "yU9cKxRGtCBztsFj",
      "flags": {
        "t20": null,
        "tormenta20": {
          "onuse": true,
          "self": true,
          "custo": "2",
          "aumenta": false,
          "attack": false,
          "skill": false,
          "ability": false,
          "power": false,
          "spell": false,
          "consumable": false,
          "items": "",
          "durationScene": false
        }
      },
      "changes": [
        {
          "key": "alcance",
          "mode": 5,
          "value": "médio",
          "priority": 0
        }
      ],
      "disabled": true,
      "duration": {
        "startTime": null,
        "seconds": null,
        "combat": null,
        "rounds": null,
        "turns": null,
        "startRound": null,
        "startTurn": null
      },
      "icon": "icons/svg/upgrade.svg",
      "label": "muda a duração para sustentada.",
      "origin": "Compendium.tormenta20.magias.N1xVfw9A8TiYeLae",
      "transfer": false,
      "tint": null,
      "_key": "!items.effects!N1xVfw9A8TiYeLae.yU9cKxRGtCBztsFj"
    },
    {
      "_id": "9h8Bd2cCqHTlY8pk",
      "flags": {
        "t20": null,
        "tormenta20": {
          "onuse": true,
          "self": true,
          "custo": "2",
          "aumenta": false,
          "attack": false,
          "skill": false,
          "ability": false,
          "power": false,
          "spell": false,
          "consumable": false,
          "items": "",
          "durationScene": false
        }
      },
      "changes": [],
      "disabled": true,
      "duration": {
        "startTime": null,
        "seconds": null,
        "combat": null,
        "rounds": null,
        "turns": null,
        "startRound": null,
        "startTurn": null
      },
      "icon": "icons/svg/upgrade.svg",
      "label": "também afeta espíritos e monstros na área. Requer 2º círculo.",
      "origin": "Compendium.tormenta20.magias.N1xVfw9A8TiYeLae",
      "transfer": false,
      "tint": null,
      "_key": "!items.effects!N1xVfw9A8TiYeLae.9h8Bd2cCqHTlY8pk"
    },
    {
      "_id": "SeBpexrQ8zNDV7tm",
      "changes": [
        {
          "key": "system.pericias.vont.bonus",
          "mode": 2,
          "value": "5",
          "priority": null
        }
      ],
      "disabled": false,
      "duration": {
        "rounds": 1,
        "startTime": null,
        "seconds": null,
        "combat": null,
        "turns": null,
        "startRound": null,
        "startTurn": null
      },
      "icon": "systems/tormenta20/icons/magias/hipnotismo.webp",
      "label": "Alvo Hostil",
      "origin": "Item.7QpJwWrO3AakONv7",
      "transfer": false,
      "flags": {
        "tormenta20": {
          "onuse": false,
          "durationScene": false
        }
      },
      "tint": null,
      "_key": "!items.effects!N1xVfw9A8TiYeLae.SeBpexrQ8zNDV7tm"
    },
    {
      "label": "Alvo (s) Hipnotizado(s)",
      "icon": "systems/tormenta20/icons/magias/hipnotismo.webp",
      "origin": "Item.N1xVfw9A8TiYeLae",
      "tint": "#FFFFFF",
      "flags": {
        "tormenta20": {
          "onuse": false,
          "durationScene": false
        }
      },
      "duration": {
        "rounds": 1,
        "startTime": null,
        "seconds": null,
        "combat": null,
        "turns": null,
        "startRound": null,
        "startTurn": null
      },
      "disabled": false,
      "_id": "9mAowMAjosn37SjU",
      "changes": [],
      "transfer": false,
      "_key": "!items.effects!N1xVfw9A8TiYeLae.9mAowMAjosn37SjU"
    },
    {
      "label": "também afeta construtos, espíritos, monstros e mortos-vivos na área. Requer 3º círculo.",
      "icon": "icons/svg/upgrade.svg",
      "origin": "Item.N1xVfw9A8TiYeLae",
      "tint": "#FFFFFF",
      "flags": {
        "tormenta20": {
          "onuse": true,
          "durationScene": false,
          "self": true,
          "attack": false,
          "skill": false,
          "ability": false,
          "power": false,
          "spell": false,
          "consumable": false,
          "items": "",
          "aumenta": false,
          "custo": "5"
        }
      },
      "duration": {
        "startTime": null,
        "seconds": null,
        "combat": null,
        "rounds": null,
        "turns": null,
        "startRound": null,
        "startTurn": null
      },
      "disabled": true,
      "_id": "vH6NxRKODI5fhBH7",
      "changes": [],
      "transfer": false,
      "_key": "!items.effects!N1xVfw9A8TiYeLae.vH6NxRKODI5fhBH7"
    }
  ],
  "folder": "wqRfH0bDNPgI8ZTq",
  "sort": 0,
  "flags": {
    "core": {
      "sourceId": "Item.JGfGGFDkpUiiIkvg"
    }
  },
  "system": {
    "description": {
      "value": "<p style=\"text-align: justify;\">Suas palavras e movimentos ritmados deixam o alvo fascinado. Esta magia s&oacute; afeta criaturas que possam perceber voc&ecirc;. Se usar esta magia em combate, o alvo recebe +5 em seu teste de resist&ecirc;ncia. Se a criatura passar, fica imune a este efeito por um dia.</p>",
      "chat": "",
      "unidentified": ""
    },
    "source": "T20, pg. 194 (JdA)",
    "ativacao": {
      "execucao": "action",
      "custo": 1,
      "qtd": "",
      "condicao": "",
      "special": ""
    },
    "duracao": {
      "value": 0,
      "units": "special",
      "special": "1d4 Rodadas"
    },
    "target": {
      "value": null,
      "width": null,
      "units": "",
      "type": ""
    },
    "range": {
      "value": null,
      "units": ""
    },
    "consume": {
      "type": "",
      "target": "",
      "amount": null,
      "mpMultiplier": false
    },
    "efeito": "",
    "alcance": "short",
    "alvo": "1 animal ou humanoide",
    "area": "",
    "resistencia": {
      "pericia": "",
      "atributo": "int",
      "bonus": 0,
      "txt": "Vontade anula"
    },
    "rolls": [],
    "tipo": "arc",
    "circulo": "1",
    "preparada": false,
    "escola": "enc",
    "chatFlavor": "",
    "origin": "",
    "tags": [],
    "chatGif": ""
  },
  "ownership": {
    "default": 0
  },
  "_stats": {
    "systemId": "tormenta20",
    "systemVersion": "1.4.116",
    "coreVersion": "11.298",
    "createdTime": 1664310461905,
    "modifiedTime": 1684622830660,
    "lastModifiedBy": "ZWR5Tn3AhSIFqwp6"
  },
  "_key": "!items!N1xVfw9A8TiYeLae"
}
