{
  "_id": "vyc0fQ9bSefwjZ0H",
  "name": "Mata-Dragão",
  "type": "magia",
  "img": "systems/tormenta20/icons/magias/mata-dragao.webp",
  "effects": [
    {
      "_id": "urJP9nlZMdgYd00A",
      "flags": {
        "t20": null,
        "tormenta20": {
          "onuse": true,
          "self": true,
          "custo": "1",
          "aumenta": true
        }
      },
      "changes": [
        {
          "key": "dano",
          "value": "1d12",
          "mode": 0,
          "priority": null
        }
      ],
      "disabled": true,
      "duration": {
        "startTime": null,
        "seconds": null,
        "combat": null,
        "rounds": null,
        "turns": null,
        "startRound": null,
        "startTurn": null
      },
      "icon": "icons/svg/upgrade.svg",
      "label": "aumenta o dano em 1d12.",
      "origin": "Compendium.tormenta20.magias.vyc0fQ9bSefwjZ0H",
      "transfer": false,
      "tint": null,
      "_key": "!items.effects!vyc0fQ9bSefwjZ0H.urJP9nlZMdgYd00A"
    }
  ],
  "folder": "S9r2zpzj6Mm6KnQl",
  "sort": 0,
  "flags": {
    "core": {
      "sourceId": "Item.T1PiqtZfJU2FoLAr"
    }
  },
  "system": {
    "description": {
      "value": "<p style=\"text-align: justify;\">Esta &eacute; uma das mais poderosas magias de destrui&ccedil;&atilde;o existentes. Ap&oacute;s entoar longos c&acirc;nticos, o conjurador dispara uma carga de energia que varre uma enorme &aacute;rea &agrave; sua frente, causando 20d12 pontos de dano de ess&ecirc;ncia em todas as criaturas, constru&ccedil;&otilde;es e objetos livres atingidos. &nbsp;Sempre que rola um resultado 12 em um dado de dano, a magia causa +1d12 pontos de dano. Apesar de seu poder destrutivo, esta magia &eacute; lenta, tornando seu uso dif&iacute;cil em combate.</p>",
      "chat": "",
      "unidentified": ""
    },
    "source": "T20, pg. 198 (JdA)",
    "ativacao": {
      "execucao": "special",
      "custo": 15,
      "qtd": "",
      "condicao": "",
      "special": "2 Rodadas"
    },
    "duracao": {
      "value": 0,
      "units": "inst",
      "special": ""
    },
    "target": {
      "value": null,
      "width": null,
      "units": "",
      "type": ""
    },
    "range": {
      "value": null,
      "units": ""
    },
    "consume": {
      "type": "",
      "target": "",
      "amount": null,
      "mpMultiplier": false
    },
    "efeito": "",
    "alcance": "self",
    "alvo": "",
    "area": "cone de 30m",
    "resistencia": {
      "pericia": "",
      "atributo": "int",
      "bonus": 0,
      "txt": "Reflexos reduz à metade"
    },
    "rolls": [
      {
        "name": "Dano",
        "key": "dano0",
        "type": "dano",
        "parts": [
          [
            "20d12",
            "essencia",
            ""
          ]
        ],
        "versatil": ""
      }
    ],
    "tipo": "arc",
    "circulo": "5",
    "preparada": false,
    "escola": "evo",
    "chatFlavor": "",
    "origin": "",
    "tags": [],
    "chatGif": ""
  },
  "ownership": {
    "default": 0
  },
  "_stats": {
    "systemId": "tormenta20",
    "systemVersion": "1.4.116",
    "coreVersion": "11.298",
    "createdTime": 1664310462900,
    "modifiedTime": 1684622830660,
    "lastModifiedBy": "ZWR5Tn3AhSIFqwp6"
  },
  "_key": "!items!vyc0fQ9bSefwjZ0H"
}
