{
  "_id": "5APvTaz3tKZPdNda",
  "name": "Santuário",
  "type": "magia",
  "img": "systems/tormenta20/icons/magias/santuario.webp",
  "effects": [
    {
      "_id": "IVYf0lPVYKYEddI6",
      "flags": {
        "t20": null,
        "tormenta20": {
          "onuse": true,
          "self": true,
          "custo": "1",
          "aumenta": false,
          "attack": false,
          "skill": false,
          "ability": false,
          "power": false,
          "spell": false,
          "consumable": false,
          "items": "",
          "durationScene": false,
          "equipment": false
        }
      },
      "changes": [],
      "disabled": true,
      "duration": {
        "startTime": null,
        "seconds": null,
        "combat": null,
        "rounds": null,
        "turns": null,
        "startRound": null,
        "startTurn": null
      },
      "icon": "icons/svg/upgrade.svg",
      "label": "além do normal, escolha um tipo de criatura entre animal, construto ou morto-vivo. Você não pode ser percebido por criaturas não inteligentes (Int –4 ou menor) do tipo escolhido.",
      "origin": "Compendium.tormenta20.magias.5APvTaz3tKZPdNda",
      "transfer": false,
      "tint": null,
      "_key": "!items.effects!5APvTaz3tKZPdNda.IVYf0lPVYKYEddI6"
    },
    {
      "_id": "gonNhXsSYB73MEJm",
      "flags": {
        "t20": null,
        "tormenta20": {
          "onuse": true,
          "self": true,
          "custo": "9",
          "aumenta": false
        }
      },
      "changes": [],
      "disabled": true,
      "duration": {
        "startTime": null,
        "seconds": null,
        "combat": null,
        "rounds": null,
        "turns": null,
        "startRound": null,
        "startTurn": null
      },
      "icon": "icons/svg/upgrade.svg",
      "label": "também protege o alvo contra efeitos de área. Uma criatura que tente atacar uma área que inclua o alvo deve fazer o teste de Vontade; se falhar, não consegue e perde a ação. Ela só pode tentar novamente se o alvo sair da área.",
      "origin": "Compendium.tormenta20.magias.5APvTaz3tKZPdNda",
      "transfer": false,
      "tint": null,
      "_key": "!items.effects!5APvTaz3tKZPdNda.gonNhXsSYB73MEJm"
    },
    {
      "_id": "d3CsEmxNzPtHFTKs",
      "changes": [],
      "disabled": false,
      "duration": {
        "rounds": 1,
        "startTime": null,
        "seconds": null,
        "combat": null,
        "turns": null,
        "startRound": null,
        "startTurn": null
      },
      "icon": "systems/tormenta20/icons/magias/santuario.webp",
      "label": "Santuário",
      "origin": "Item.YXHLGgu3kZHXiJ7c",
      "transfer": false,
      "flags": {
        "tormenta20": {
          "onuse": false,
          "durationScene": true
        }
      },
      "tint": null,
      "_key": "!items.effects!5APvTaz3tKZPdNda.d3CsEmxNzPtHFTKs"
    }
  ],
  "folder": "XbfWNZNCUbSVLyRp",
  "sort": 0,
  "flags": {
    "core": {
      "sourceId": "Item.lZd94fuTOE2omLoe"
    },
    "cf": null
  },
  "system": {
    "description": {
      "value": "<p style=\"text-align: justify;\">Qualquer criatura que tente fazer uma a&ccedil;&atilde;o hostil contra o alvo deve fazer um teste de Vontade. Se falhar, n&atilde;o consegue, perde a a&ccedil;&atilde;o e n&atilde;o pode tentar novamente at&eacute; o fim da cena. <em>Santu&aacute;rio</em> n&atilde;o protege o alvo de efeitos de &aacute;rea. Al&eacute;m disso, o pr&oacute;prio alvo tamb&eacute;m n&atilde;o pode fazer a&ccedil;&otilde;es hostis (incluindo for&ccedil;ar outras criaturas a atac&aacute;-lo), ou a magia &eacute; dissipada &mdash; mas pode usar&nbsp; habilidades e magias de cura e suporte como @UUID[Item.soVAGPRWQmKxOrPm]{Curar Ferimentos} e @UUID[Item.OTsBw84Ci2IKPStn]{B&ecirc;n&ccedil;&atilde;o}.</p>\n<p style=\"text-align: justify;\">&nbsp;</p>",
      "chat": "",
      "unidentified": ""
    },
    "source": "T20, pg. 205 (JdA)",
    "ativacao": {
      "execucao": "action",
      "custo": 1,
      "qtd": "",
      "condicao": "",
      "special": ""
    },
    "duracao": {
      "value": 0,
      "units": "scene",
      "special": ""
    },
    "target": {
      "value": null,
      "width": null,
      "units": "",
      "type": ""
    },
    "range": {
      "value": null,
      "units": ""
    },
    "consume": {
      "type": "",
      "target": "",
      "amount": null,
      "mpMultiplier": false
    },
    "efeito": "",
    "alcance": "touch",
    "alvo": "1 criatura",
    "area": "",
    "resistencia": {
      "pericia": "",
      "atributo": "int",
      "bonus": 0,
      "txt": "Vontade anula"
    },
    "rolls": [],
    "tipo": "div",
    "circulo": "1",
    "preparada": false,
    "escola": "abj",
    "chatFlavor": "",
    "origin": "",
    "tags": [],
    "chatGif": ""
  },
  "ownership": {
    "default": 0
  },
  "_stats": {
    "systemId": "tormenta20",
    "systemVersion": "1.4.116",
    "coreVersion": "11.298",
    "createdTime": 1664310461759,
    "modifiedTime": 1684622830660,
    "lastModifiedBy": "ZWR5Tn3AhSIFqwp6"
  },
  "_key": "!items!5APvTaz3tKZPdNda"
}
