{
  "_id": "ZUQneRqpDjJKRO5n",
  "name": "Teletransporte",
  "type": "magia",
  "img": "systems/tormenta20/icons/magias/teletransporte.webp",
  "effects": [
    {
      "_id": "NFLLVMBUfN5gexid",
      "flags": {
        "t20": null,
        "tormenta20": {
          "onuse": true,
          "self": true,
          "custo": "2",
          "aumenta": true
        }
      },
      "changes": [],
      "disabled": true,
      "duration": {
        "startTime": null,
        "seconds": null,
        "combat": null,
        "rounds": null,
        "turns": null,
        "startRound": null,
        "startTurn": null
      },
      "icon": "icons/svg/upgrade.svg",
      "label": "aumenta o número de alvos em +5.",
      "origin": "Compendium.tormenta20.magias.ZUQneRqpDjJKRO5n",
      "transfer": false,
      "tint": null,
      "_key": "!items.effects!ZUQneRqpDjJKRO5n.NFLLVMBUfN5gexid"
    },
    {
      "_id": "aQKgLT90Ts8sNMGg",
      "flags": {
        "t20": null,
        "tormenta20": {
          "onuse": true,
          "self": true,
          "custo": "2",
          "aumenta": false
        }
      },
      "changes": [],
      "disabled": true,
      "duration": {
        "startTime": null,
        "seconds": null,
        "combat": null,
        "rounds": null,
        "turns": null,
        "startRound": null,
        "startTurn": null
      },
      "icon": "icons/svg/upgrade.svg",
      "label": "em vez do normal, a magia teletransporta os alvos para seu santuário — um local familiar e previamente preparado. A magia pode ser usada sem limite de distância ou necessidade de testes, mas apenas dentro do mesmo plano. Preparar um local como seu santuário exige um ritual de um dia e o gasto de T$ 1.000. Você só pode ter um santuário por vez.",
      "origin": "Compendium.tormenta20.magias.ZUQneRqpDjJKRO5n",
      "transfer": false,
      "tint": null,
      "_key": "!items.effects!ZUQneRqpDjJKRO5n.aQKgLT90Ts8sNMGg"
    },
    {
      "_id": "OZP9mnniQOQrxkIL",
      "flags": {
        "t20": null,
        "tormenta20": {
          "onuse": true,
          "self": true,
          "custo": "9",
          "aumenta": false
        }
      },
      "changes": [
        {
          "key": "execucao",
          "value": "Completa",
          "mode": 5,
          "priority": null
        },
        {
          "key": "duracao",
          "value": "Cena",
          "mode": 5,
          "priority": null
        }
      ],
      "disabled": true,
      "duration": {
        "startTime": null,
        "seconds": null,
        "combat": null,
        "rounds": null,
        "turns": null,
        "startRound": null,
        "startTurn": null
      },
      "icon": "icons/svg/upgrade.svg",
      "label": "muda a execução para ação completa, a duração para cena e adiciona sacrifício de 1 PM. Em vez do normal, você cria um círculo de 1,5m de diâmetro no chão, que transporta qualquer criatura que pisar nele. O destino é escolhido quando a magia é lançada e pode ser qualquer lugar, em qualquer mundo, sem a necessidade de testes, desde que seja conhecido por você. O círculo é tênue e praticamente invisível. Você pode marcá-lo de alguma forma (por exemplo, lançando-o sobre uma plataforma elevada). Se não fizer isso, alguém pode pisar nele por acidente. Junte isso a um destino hostil e você terá uma armadilha bastante eficaz! Requer 5º círculo.",
      "origin": "Compendium.tormenta20.magias.ZUQneRqpDjJKRO5n",
      "transfer": false,
      "tint": null,
      "_key": "!items.effects!ZUQneRqpDjJKRO5n.OZP9mnniQOQrxkIL"
    }
  ],
  "folder": "q3HWop0SV641gJ2W",
  "sort": 0,
  "flags": {
    "core": {
      "sourceId": "Item.qGGSbADpRE22w35f"
    }
  },
  "system": {
    "description": {
      "value": "<p style=\"text-align: justify;\">Esta magia transporta os alvos para um lugar a sua escolha a at&eacute; 1.000km. Voc&ecirc; precisa fazer um teste de Misticismo, com dificuldade que depende de seu conhecimento sobre o local de destino.</p>\n<p style=\"text-align: justify;\"><em>CD 20.</em> Um lugar familiar, que voc&ecirc; visita com frequ&ecirc;ncia.</p>\n<p style=\"text-align: justify;\"><em>CD 30.</em> Um lugar conhecido, que voc&ecirc; j&aacute; visitou pelo menos uma vez.</p>\n<p style=\"text-align: justify;\"><em>CD 40.</em> Um que voc&ecirc; nunca visitou e s&oacute; conhece a partir da descri&ccedil;&atilde;o de outra pessoa que esteve l&aacute;.</p>\n<p style=\"text-align: justify;\">Voc&ecirc; n&atilde;o pode se teletransportar para um lugar que nunca visitou sem a descri&ccedil;&atilde;o de algu&eacute;m. Ou seja, n&atilde;o pode se transportar para a &ldquo;sala de tesouro do rei&rdquo; se nunca esteve nela nem falou com algu&eacute;m que esteve.</p>\n<p style=\"text-align: justify;\">Se passar no teste, os alvos chegam ao lugar desejado. Se falhar, os alvos surgem 1d10 x 10km afastados em qualquer dire&ccedil;&atilde;o (se o destino &eacute; uma cidade costeira, voc&ecirc; pode surgir em alto-mar). Se falhar por 5 ou mais, voc&ecirc; chega em um lugar parecido, mas errado. E se voc&ecirc; rolar 1 natural no teste a magia falha (mas voc&ecirc; gasta os PM) e fica atordoado por 1d4 rodadas.</p>",
      "chat": "",
      "unidentified": ""
    },
    "source": "T20, pg. 208 (JdA)",
    "ativacao": {
      "execucao": "action",
      "custo": 6,
      "qtd": "",
      "condicao": "",
      "special": ""
    },
    "duracao": {
      "value": 0,
      "units": "inst",
      "special": ""
    },
    "target": {
      "value": null,
      "width": null,
      "units": "",
      "type": ""
    },
    "range": {
      "value": null,
      "units": ""
    },
    "consume": {
      "type": "",
      "target": "",
      "amount": null,
      "mpMultiplier": false
    },
    "efeito": "",
    "alcance": "touch",
    "alvo": "até 5 criaturas voluntárias",
    "area": "",
    "resistencia": {
      "pericia": "",
      "atributo": "int",
      "bonus": 0,
      "txt": ""
    },
    "rolls": [],
    "tipo": "arc",
    "circulo": "3",
    "preparada": false,
    "escola": "con",
    "chatFlavor": "",
    "origin": "",
    "tags": [],
    "chatGif": ""
  },
  "ownership": {
    "default": 0
  },
  "_stats": {
    "systemId": "tormenta20",
    "systemVersion": "1.4.116",
    "coreVersion": "11.298",
    "createdTime": 1664310462762,
    "modifiedTime": 1684622830660,
    "lastModifiedBy": "ZWR5Tn3AhSIFqwp6"
  },
  "_key": "!items!ZUQneRqpDjJKRO5n"
}
