{
  "folder": "bqJPqUN7JkJ6M8UE",
  "name": "U1 Necromancia",
  "sorting": "a",
  "type": "Item",
  "_id": "JYkPCpeuzCN0Fc4I",
  "sort": 0,
  "flags": {},
  "_stats": {
    "systemId": null,
    "systemVersion": null,
    "coreVersion": null,
    "createdTime": null,
    "modifiedTime": null,
    "lastModifiedBy": null
  },
  "_key": "!folders!JYkPCpeuzCN0Fc4I"
}
