{
  "id": "tormenta20",
  "name": "tormenta20",
  "title": "Tormenta20",
  "description": "Sistema NÃO OFICIAL de Tormenta20 para FoundryVTT!",
  "version": "1.4.211",
  "minimumCoreVersion": "11.313",
  "compatibleCoreVersion": "11",
  "compatibility": {
    "minimum": "11.313",
    "verified": "12",
    "maximum": "12"
  },
  "authors": [{"name": "Vizael"}],
  "esmodules": ["tormenta20.mjs"],
  "styles": ["tormenta20.css"],
  "scripts": [],
  "packs": [
    {
      "name": "classes",
      "label": "Classes",
      "system": "tormenta20",
      "path": "./packs/classes.db",
      "type": "Item"
    },
    {
      "name": "poderes",
      "label": "Poderes",
      "system": "tormenta20",
      "path": "./packs/poderes.db",
      "type": "Item"
    },
    {
      "name": "poderes-distincao",
      "label": "Poderes de Distinção",
      "system": "tormenta20",
      "path": "./packs/poderes-distincao.db",
      "type": "Item"
    },
    {
      "name": "equipamentos",
      "label": "Equipamentos",
      "system": "tormenta20",
      "path": "./packs/equipamentos.db",
      "type": "Item"
    },
    {
      "name": "equipamentos-magicos",
      "label": "Itens Mágicos",
      "system": "tormenta20",
      "path": "./packs/equipamentos-magicos.db",
      "type": "Item"
    },
    {
      "name": "magias",
      "label": "Magias",
      "system": "tormenta20",
      "path": "./packs/magias.db",
      "type": "Item"
    },
    {
      "name": "habilidades-de-criaturas",
      "label": "Habilidades de Criaturas",
      "system": "tormenta20",
      "path": "./packs/habilidades-de-criaturas.db",
      "type": "Item"
    },
    {
      "name": "pocoes",
      "label": "Poções",
      "system": "tormenta20",
      "path": "./packs/pocoes.db",
      "type": "Item"
    },
    {
      "name": "parceiros",
      "label": "Parceiros",
      "system": "tormenta20",
      "path": "./packs/parceiros.db",
      "type": "Item"
    },
    {
      "name": "ameacas",
      "label": "Ameaças",
      "system": "tormenta20",
      "path": "./packs/ameacas.db",
      "type": "Actor"
    },
    {
      "name": "convocacoes",
      "label": "Convocações",
      "system": "tormenta20",
      "path": "./packs/convocacoes.db",
      "type": "Actor"
    },
    {
      "name": "basico",
      "label": "Livro Básico",
      "system": "tormenta20",
      "path": "./packs/basico.db",
      "type": "JournalEntry"
    },
    {
      "name": "tabelas-de-tesouro",
      "label": "Tabelas de Tesouro",
      "system": "tormenta20",
      "path": "./packs/tabelas-de-tesouro.db",
      "type": "RollTable"
    },
    {
      "name": "macros",
      "label": "Macros",
      "system": "tormenta20",
      "path": "./packs/macros.db",
      "type": "Macro"
    }
  ],
  "packFolders": [
    {
      "name": "Actors", "sorting": "m", "color": "#000000",
      "packs": ["ameacas","convocacoes"]
    },
    {
      "name": "Items", "sorting": "m", "color": "#000000",
      "packs": ["classes", "poderes", "poderes-distincao", "equipamentos", "equipamentos-magicos", "magias", "habilidades-de-criaturas", "pocoes", "parceiros"]
    },
    {
      "name": "Journals", "sorting": "m", "color": "#000000",
      "packs": ["basico"]
    },
    {
      "name": "RollTables", "sorting": "m", "color": "#000000",
      "packs": ["tabelas-de-tesouro"]
    },
    {
      "name": "Macros", "sorting": "m", "color": "#000000",
      "packs": ["macros"]
    }
  ],
  "languages": [
    {
      "lang": "en",
      "name": "English",
      "path": "lang/pt-BR.json"
    },
    {
      "lang": "pt-BR",
      "name": "Português",
      "path": "lang/pt-BR.json"
    }
  ],
  "flags": {
    "hotReload": false
  },
  "gridDistance": 1.5,
  "gridUnits": "m",
  "grid": {
    "distance": 1.5,
    "units": "m",
    "diagonals": 3
  },
  "primaryTokenAttribute": "attributes.pv",
  "secondaryTokenAttribute": "attributes.pm",
  "url": "https://gitlab.com/vizael/Tormenta20",
  "manifest": "https://gitlab.com/vizael/Tormenta20/-/raw/1.4.211/system.json",
  "download": "https://gitlab.com/vizael/Tormenta20/-/archive/1.4.211/Tormenta20-1.4.211.zip",
  "changelog": "https://gitlab.com/vizael/Tormenta20/-/releases/1.4.211",
  "license": "LICENSE.txt",
  "bugs": "https://gitlab.com/vizael/Tormenta20/-/issues",
  "allowBugReporter": true
}
