{
  "_id": "VBjVXrxkC1a7P2t3",
  "name": "Braceletes de Bronze",
  "type": "equipamento",
  "img": "systems/tormenta20/icons/itens/itens-magicos/bracelete-bronze.webp",
  "effects": [],
  "folder": "BgJUCrqjG6EVBIfP",
  "sort": 1300000,
  "flags": {
    "core": {
      "sourceId": "Compendium.tormenta20.equipamentos-magicos.VBjVXrxkC1a7P2t3"
    }
  },
  "system": {
    "description": {
      "value": "<p style=\"text-align:justify;\">Estes braceletes protegem seu usuário com um campo de força invisível, porém tangível. Você recebe +4 em Defesa, cumulativo com outros itens mágicos, mas não com armaduras.</p>",
      "chat": "",
      "unidentified": ""
    },
    "source": "T20, pg. 342 (JdA)",
    "equipado": false,
    "equipado2": {
      "slot": 0,
      "type": ""
    },
    "carregado": true,
    "peso": 0,
    "espacos": 1,
    "qtd": 1,
    "preco": 16500,
    "pv": {
      "value": 0,
      "min": 0,
      "max": 0
    },
    "rd": 0,
    "tipo": "acessorio",
    "armadura": {
      "value": 4,
      "penalidade": 0,
      "maxAtr": 0
    },
    "rolls": [],
    "melhorias": {
      "enhanced": null,
      "golden": null,
      "gems": null,
      "discreet": null,
      "macabre": null
    },
    "origin": "",
    "tags": [],
    "chatFlavor": "",
    "chatGif": "",
    "ativacao": {
      "custo": 0,
      "condicao": "",
      "execucao": "",
      "qtd": "",
      "special": ""
    },
    "upgrades": {
      "melhoria1": "",
      "melhoria2": "",
      "melhoria3": "",
      "melhoria4": "",
      "material": "",
      "encanto1": "",
      "encanto2": "",
      "encanto3": ""
    },
    "encantos": {}
  },
  "ownership": {
    "default": 0
  },
  "_stats": {
    "systemId": "tormenta20",
    "systemVersion": "1.4.116",
    "coreVersion": "11.298",
    "createdTime": 1664314000105,
    "modifiedTime": 1684622966500,
    "lastModifiedBy": "ZWR5Tn3AhSIFqwp6"
  },
  "_key": "!items!VBjVXrxkC1a7P2t3"
}
