{
  "_id": "gwR3rksYtoGjOu6g",
  "name": "Corda da Escalada",
  "type": "equipamento",
  "img": "systems/tormenta20/icons/itens/itens-magicos/corda-da-escalada.webp",
  "effects": [],
  "folder": "BgJUCrqjG6EVBIfP",
  "sort": 2100000,
  "flags": {},
  "system": {
    "description": {
      "value": "<p>Esta corda de 15m &eacute;&nbsp; bastante fina, mas forte o suficiente para suportar at&eacute; seis criaturas M&eacute;dias (ou 120 espa&ccedil;os). Com um comando (uma a&ccedil;&atilde;o de movimento), a corda se move em qualquer dire&ccedil;&atilde;o (incluindo para cima) a 3m por rodada, fixando-se firmemente onde voc&ecirc; quiser. Ela pode se desamarrar e voltar da mesma forma</p>",
      "chat": "",
      "unidentified": ""
    },
    "source": "T20, pg. 343 (JdA)",
    "equipado": false,
    "equipado2": {
      "slot": 0,
      "type": ""
    },
    "carregado": true,
    "peso": 0,
    "espacos": 1,
    "qtd": 1,
    "preco": 3000,
    "pv": {
      "value": 0,
      "min": 0,
      "max": 0
    },
    "rd": 0,
    "tipo": "acessorio",
    "armadura": {
      "value": 0,
      "penalidade": 0,
      "maxAtr": 0
    },
    "origin": "",
    "tags": [],
    "chatFlavor": "",
    "ativacao": {
      "custo": null,
      "condicao": "",
      "execucao": "",
      "qtd": "",
      "special": ""
    },
    "rolls": [],
    "melhorias": {
      "enhanced": null,
      "golden": null,
      "gems": null,
      "discreet": null,
      "macabre": null
    },
    "chatGif": "",
    "upgrades": {
      "melhoria1": "",
      "melhoria2": "",
      "melhoria3": "",
      "melhoria4": "",
      "material": "",
      "encanto1": "",
      "encanto2": "",
      "encanto3": ""
    },
    "encantos": {}
  },
  "ownership": {
    "default": 0
  },
  "_stats": {
    "systemId": "tormenta20",
    "systemVersion": "1.4.116",
    "coreVersion": "11.298",
    "createdTime": 1666279219627,
    "modifiedTime": 1684623039339,
    "lastModifiedBy": "ZWR5Tn3AhSIFqwp6"
  },
  "_key": "!items!gwR3rksYtoGjOu6g"
}
