{
  "_id": "PymQTrvR91CIsUlW",
  "name": "Símbolo Abençoado",
  "type": "equipamento",
  "img": "systems/tormenta20/icons/itens/itens-magicos/simbolo-abencoado.webp",
  "effects": [
    {
      "label": "Símbolo Abençoado",
      "icon": "icons/svg/upgrade.svg",
      "origin": "Item.PymQTrvR91CIsUlW",
      "tint": "#FFFFFF",
      "flags": {
        "tormenta20": {
          "onuse": true,
          "durationScene": false,
          "self": false,
          "attack": false,
          "skill": false,
          "ability": false,
          "power": false,
          "equipment": false,
          "spell": true,
          "consumable": false,
          "items": "",
          "aumenta": false,
          "custo": "-1"
        }
      },
      "duration": {
        "startTime": null,
        "seconds": null,
        "combat": null,
        "rounds": null,
        "turns": null,
        "startRound": null,
        "startTurn": null
      },
      "disabled": true,
      "_id": "CciQ564nGhsYXDId",
      "changes": [],
      "transfer": true,
      "_key": "!items.effects!PymQTrvR91CIsUlW.CciQ564nGhsYXDId"
    }
  ],
  "folder": "BgJUCrqjG6EVBIfP",
  "sort": 4237500,
  "flags": {
    "core": {
      "sourceId": "Compendium.tormenta20.equipamentos-magicos.PymQTrvR91CIsUlW"
    }
  },
  "system": {
    "description": {
      "value": "<p>Conta como um s&iacute;mbolo sagrado. Se voc&ecirc; for devoto do deus, o custo de suas magias divinas diminui em &ndash;1 PM (cumulativo com o poder S&iacute;mbolo Sagrado Energizado). Apenas devotos desse deus podem fabricar um s&iacute;mbolo aben&ccedil;oado.</p>",
      "chat": "",
      "unidentified": ""
    },
    "source": "T20, pg. 345 (JdA)",
    "equipado": false,
    "equipado2": {
      "slot": 0,
      "type": ""
    },
    "carregado": true,
    "peso": 0,
    "espacos": 1,
    "qtd": 1,
    "preco": 21000,
    "pv": {
      "value": 0,
      "min": 0,
      "max": 0
    },
    "rd": 0,
    "tipo": "acessorio",
    "armadura": {
      "value": 0,
      "penalidade": 0,
      "maxAtr": 0
    },
    "rolls": [],
    "melhorias": {
      "enhanced": null,
      "golden": null,
      "gems": null,
      "discreet": null,
      "macabre": null
    },
    "origin": "",
    "tags": [],
    "chatFlavor": "",
    "chatGif": "",
    "ativacao": {
      "custo": 0,
      "condicao": "",
      "execucao": "",
      "qtd": "",
      "special": ""
    },
    "upgrades": {
      "melhoria1": "",
      "melhoria2": "",
      "melhoria3": "",
      "melhoria4": "",
      "material": "",
      "encanto1": "",
      "encanto2": "",
      "encanto3": ""
    },
    "encantos": {}
  },
  "ownership": {
    "default": 0
  },
  "_stats": {
    "systemId": "tormenta20",
    "systemVersion": "1.4.116",
    "coreVersion": "11.298",
    "createdTime": 1664314000101,
    "modifiedTime": 1684623045969,
    "lastModifiedBy": "ZWR5Tn3AhSIFqwp6"
  },
  "_key": "!items!PymQTrvR91CIsUlW"
}
