{
  "_id": "6olGswsHYsq8aiGw",
  "name": "Óleo de Arma Mágica (+3)",
  "type": "consumivel",
  "img": "systems/tormenta20/icons/itens/itens-magicos/pocao-oleo.webp",
  "effects": [
    {
      "label": "Arma Mágica",
      "icon": "icons/svg/upgrade.svg",
      "origin": "Item.lUvXanXBUKxGOd2M",
      "tint": "#FFFFFF",
      "flags": {
        "tormenta20": {
          "onuse": true,
          "durationScene": true,
          "self": false,
          "attack": true,
          "skill": false,
          "ability": false,
          "power": false,
          "equipment": false,
          "spell": false,
          "consumable": false,
          "items": "",
          "aumenta": false,
          "custo": ""
        }
      },
      "duration": {
        "rounds": 1,
        "startTime": null,
        "seconds": null,
        "combat": null,
        "turns": null,
        "startRound": null,
        "startTurn": null
      },
      "disabled": false,
      "_id": "OagxBZ7Y1s9Q87Na",
      "changes": [
        {
          "key": "ataque",
          "mode": 2,
          "value": "3",
          "priority": 0
        },
        {
          "key": "dano",
          "mode": 2,
          "value": "3",
          "priority": 0
        },
        {
          "key": "?.items.arma",
          "mode": 0,
          "value": "items.name",
          "priority": 0
        }
      ],
      "transfer": false,
      "_key": "!items.effects!6olGswsHYsq8aiGw.OagxBZ7Y1s9Q87Na"
    }
  ],
  "folder": null,
  "sort": 0,
  "flags": {
    "importid": "rg3IVDXFfQ21aY5e",
    "core": {
      "sourceId": "Compendium.tormenta20.pocoes.lUvXanXBUKxGOd2M"
    }
  },
  "system": {
    "description": {
      "value": "<p style=\"text-align: justify;\">A arma fornece +3 nos testes de ataque e rolagens de dano e &eacute; considerada m&aacute;gica (n&atilde;o cumulativo com b&ocirc;nus de encantos). Caso voc&ecirc; esteja empunhando a arma, pode usar seu atributo-chave de magias em vez do atributo original nos testes de ataque (n&atilde;o cumulativo com efeitos que somam este atributo).</p>",
      "unidentified": ""
    },
    "source": "T20, pg. 181 (JdA)",
    "carregado": true,
    "peso": 0.5,
    "espacos": 0.5,
    "qtd": 1,
    "preco": 750,
    "pv": {
      "value": 0,
      "min": 0,
      "max": 0
    },
    "rd": 0,
    "ativacao": {
      "execucao": "action",
      "custo": 0,
      "qtd": "",
      "condicao": "",
      "special": ""
    },
    "duracao": {
      "value": 0,
      "units": "scene",
      "special": ""
    },
    "target": {
      "value": null,
      "width": null,
      "type": ""
    },
    "range": {
      "value": null,
      "units": ""
    },
    "consume": {
      "type": "",
      "target": "",
      "amount": null,
      "mpMultiplier": false
    },
    "efeito": "",
    "alcance": "touch",
    "alvo": "1 arma",
    "area": "",
    "resistencia": {
      "pericia": "",
      "atributo": "sab",
      "bonus": 0,
      "txt": ""
    },
    "rolls": [],
    "tipo": "potion",
    "chatFlavor": "",
    "melhorias": {
      "accurate": null,
      "pungent": null,
      "cruel": null,
      "atrocious": null,
      "balanced": null,
      "harmonized": null,
      "injection": null,
      "massive": null,
      "specialmaterial": null,
      "scope": null,
      "precise": null,
      "golden": null,
      "gems": null,
      "discreet": null,
      "macabre": null
    },
    "encantos": {
      "keen": null,
      "bane": null,
      "throwable": null,
      "assassin": null,
      "seeking": null,
      "frost": null,
      "caster": null,
      "corrosive": null,
      "dancing": null,
      "defending": null,
      "destructive": null,
      "lacerating": null,
      "draining": null,
      "shock": null,
      "energy": null,
      "excruciating": null,
      "flaming": null,
      "formidable": null,
      "lancinating": null,
      "magnificent": null,
      "merciful": null,
      "unholy": null,
      "holy": null,
      "bloodthirsty": null,
      "thundering": null,
      "sepulchral": null,
      "speed": null,
      "poisonous": null
    },
    "origin": "",
    "tags": [],
    "chatGif": "",
    "upgrades": {
      "melhoria1": "",
      "melhoria2": "",
      "melhoria3": "",
      "melhoria4": "",
      "material": "",
      "encanto1": "",
      "encanto2": "",
      "encanto3": ""
    },
    "subtipo": ""
  },
  "ownership": {
    "default": 0
  },
  "_stats": {
    "systemId": "tormenta20",
    "systemVersion": "1.4.1008",
    "coreVersion": "10.288",
    "createdTime": 1664314007041,
    "modifiedTime": 1667351628036,
    "lastModifiedBy": "tIn9sSkrT3mDWirx"
  },
  "_key": "!items!6olGswsHYsq8aiGw"
}
