{
  "_id": "DsJr9ypEbr6LPJHY",
  "name": "Antenas",
  "type": "poder",
  "img": "systems/tormenta20/icons/poderes/tormenta.webp",
  "effects": [
    {
      "_id": "sU6XKz6GtRPjCURF",
      "changes": [
        {
          "key": "system.pericias.inic.bonus",
          "mode": 2,
          "value": "1+(@Tormenta2*1)",
          "priority": null
        },
        {
          "key": "system.pericias.perc.bonus",
          "mode": 2,
          "value": "1+(@Tormenta2*1)",
          "priority": null
        },
        {
          "key": "system.pericias.vont.bonus",
          "mode": 2,
          "value": "1+(@Tormenta2*1)",
          "priority": null
        }
      ],
      "disabled": false,
      "duration": {
        "startTime": null,
        "seconds": null,
        "combat": null,
        "rounds": null,
        "turns": null,
        "startRound": null,
        "startTurn": null
      },
      "icon": "systems/tormenta20/icons/poderes/tormenta.webp",
      "label": "Antenas",
      "origin": "Item.75fvTkSVGZFWvKQ2",
      "transfer": true,
      "flags": {
        "tormenta20": {
          "onuse": false,
          "durationScene": false
        }
      },
      "tint": null,
      "_key": "!items.effects!DsJr9ypEbr6LPJHY.sU6XKz6GtRPjCURF"
    }
  ],
  "folder": "m6ny7g3VciUkKZ3t",
  "sort": 0,
  "flags": {
    "core": {
      "sourceId": "Compendium.tormenta20.poderes.DsJr9ypEbr6LPJHY"
    }
  },
  "system": {
    "description": {
      "value": "<p style=\"text-align:justify;\">Você recebe +1 em Iniciativa, Percepção e Vontade. Este bônus aumenta em +1 para cada dois outros poderes da Tormenta que você possui.</p>",
      "chat": "",
      "unidentified": ""
    },
    "source": "T20, pg. 136 (JdA)",
    "ativacao": {
      "execucao": "",
      "custo": 0,
      "qtd": "",
      "condicao": "",
      "special": ""
    },
    "duracao": {
      "value": 0,
      "units": "",
      "special": ""
    },
    "target": {
      "value": null,
      "width": null,
      "units": "",
      "type": ""
    },
    "range": {
      "value": null,
      "units": ""
    },
    "consume": {
      "type": "",
      "target": "",
      "amount": null,
      "mpMultiplier": false
    },
    "efeito": "",
    "alcance": "none",
    "alvo": "",
    "area": "",
    "resistencia": {
      "pericia": "",
      "atributo": "sab",
      "bonus": 0,
      "txt": ""
    },
    "rolls": [],
    "tipo": "geral",
    "subtipo": "Tormenta",
    "chatFlavor": "",
    "tags": [
      "Tormenta"
    ],
    "origin": "",
    "chatGif": "",
    "rolltags": [
      "Tormenta"
    ]
  },
  "ownership": {
    "default": 0
  },
  "_stats": {
    "systemId": "tormenta20",
    "systemVersion": "1.4.116",
    "coreVersion": "11.298",
    "createdTime": 1664306183825,
    "modifiedTime": 1684803217266,
    "lastModifiedBy": "ZWR5Tn3AhSIFqwp6"
  },
  "_key": "!items!DsJr9ypEbr6LPJHY"
}
