{
  "_id": "5OwzZq1hHYmyZRbu",
  "name": "Armadilha: Laço",
  "type": "poder",
  "img": "systems/tormenta20/icons/classes/cacador.webp",
  "effects": [],
  "folder": "iT3rUBmGhu5hbNic",
  "sort": 500000,
  "flags": {
    "core": {
      "sourceId": "Compendium.tormenta20.poderes.5OwzZq1hHYmyZRbu"
    }
  },
  "system": {
    "description": {
      "value": "<p style=\"text-align: justify;\">A v&iacute;tima deve fazer um teste de Reflexos (CD Sab). Se passar, fica ca&iacute;da. Se falhar, fica agarrada. Uma criatura agarrada pode se soltar com uma a&ccedil;&atilde;o padr&atilde;o e um teste de For&ccedil;a ou Acrobacia (CD Sab).</p>\n<p style=\"text-align: justify;\">&nbsp;</p>\n<p style=\"text-align: justify;\"><strong>Armadilhas</strong><br>Esses poderes compartilham as seguintes regras.</p>\n<p style=\"text-align: justify;\">&bull; Preparar uma armadilha gasta uma a&ccedil;&atilde;o completa e 3 PM.</p>\n<p style=\"text-align: justify;\">&bull; Uma armadilha afeta uma &aacute;rea de 3m de lado adjacente a voc&ecirc; e &eacute; acionada pela primeira criatura que entrar na &aacute;rea.</p>\n<p style=\"text-align: justify;\">&bull; Uma criatura que o veja preparando a armadilha saber&aacute; que ela est&aacute; l&aacute;.</p>\n<p style=\"text-align: justify;\">&bull; &Eacute; poss&iacute;vel aplicar veneno a uma armadilha, como se ela fosse uma arma.</p>\n<p style=\"text-align: justify;\">Uma criatura que n&atilde;o o veja preparando a armadilha pode encontr&aacute;-la se gastar uma a&ccedil;&atilde;o padr&atilde;o procurando e passar em um teste de Investiga&ccedil;&atilde;o (CD Sab).</p>\n<p style=\"text-align: justify;\">Voc&ecirc; n&atilde;o precisa de nenhum item para criar a armadilha, pois usa materiais naturais, como galhos e cip&oacute;s. Por&eacute;m, precisa estar em um ambiente prop&iacute;cio, como uma floresta, um beco repleto de entulhos etc.</p>",
      "chat": "",
      "unidentified": ""
    },
    "source": "T20, pg. 50 (JdA)",
    "ativacao": {
      "execucao": "full",
      "custo": 3,
      "qtd": "",
      "condicao": "criatura entra na área",
      "special": ""
    },
    "duracao": {
      "value": 0,
      "units": "",
      "special": ""
    },
    "target": {
      "value": null,
      "width": null,
      "units": "",
      "type": ""
    },
    "range": {
      "value": null,
      "units": ""
    },
    "consume": {
      "type": "",
      "target": "",
      "amount": null,
      "mpMultiplier": false
    },
    "efeito": "",
    "alcance": "none",
    "alvo": "",
    "area": "quadrado 3m",
    "resistencia": {
      "pericia": "",
      "atributo": "sab",
      "bonus": 0,
      "txt": "Reflexos"
    },
    "rolls": [],
    "tipo": "classe",
    "subtipo": "Caçador",
    "chatFlavor": "",
    "origin": "",
    "tags": [],
    "chatGif": ""
  },
  "ownership": {
    "default": 0
  },
  "_stats": {
    "systemId": "tormenta20",
    "systemVersion": "1.4.116",
    "coreVersion": "11.298",
    "createdTime": 1658361716792,
    "modifiedTime": 1684630426990,
    "lastModifiedBy": "ZWR5Tn3AhSIFqwp6"
  },
  "_key": "!items!5OwzZq1hHYmyZRbu"
}
