{
  "name": "Ataque com Escudo",
  "type": "poder",
  "img": "systems/tormenta20/icons/poderes/combate.webp",
  "effects": [],
  "flags": {
    "core": {
      "sourceId": "Compendium.tormenta20.poderes.EZXppKxpmpemOlbT"
    }
  },
  "system": {
    "description": {
      "value": "<p style=\"text-align: justify;\">Uma vez por rodada, se estiver empunhando um escudo e fizer a a&ccedil;&atilde;o de agredir, voc&ecirc; pode gastar 1PM para fazer um ataque corpo a corpo extra com o escudo. Este ataque n&atilde;o faz voc&ecirc; perder o b&ocirc;nus do escudo na Defesa.</p>\n<p style=\"text-align: justify;\"><em>Pr&eacute;-requisito:</em> Estilo de Arma e Escudo.</p>",
      "chat": "",
      "unidentified": ""
    },
    "source": "T20, pg. 124 (JdA)",
    "ativacao": {
      "execucao": "",
      "custo": 1,
      "qtd": "",
      "condicao": "",
      "special": ""
    },
    "duracao": {
      "value": 0,
      "units": "",
      "special": ""
    },
    "target": {
      "value": null,
      "width": null,
      "units": "",
      "type": ""
    },
    "range": {
      "value": null,
      "units": ""
    },
    "consume": {
      "type": "",
      "target": "",
      "amount": null,
      "mpMultiplier": false
    },
    "efeito": "",
    "alcance": "none",
    "alvo": "",
    "area": "",
    "resistencia": {
      "pericia": "",
      "atributo": "sab",
      "bonus": 0,
      "txt": ""
    },
    "rolls": [],
    "tipo": "geral",
    "subtipo": "Combate",
    "chatFlavor": "",
    "origin": "",
    "tags": [],
    "chatGif": ""
  },
  "_stats": {
    "systemId": "tormenta20",
    "systemVersion": "1.4.116",
    "coreVersion": "11.298",
    "createdTime": 1664306183830,
    "modifiedTime": 1684630371462,
    "lastModifiedBy": "ZWR5Tn3AhSIFqwp6"
  },
  "_id": "B6p4S3J65bFuq91w",
  "folder": "Rgbah8U70jOKi5DF",
  "sort": 0,
  "ownership": {
    "default": 0,
    "tIn9sSkrT3mDWirx": 3
  },
  "_key": "!items!B6p4S3J65bFuq91w"
}
