{
  "_id": "QrsQzzdGDWjgXNF5",
  "name": "Aumento de Atributo",
  "type": "poder",
  "img": "systems/tormenta20/icons/poderes/destino.webp",
  "effects": [],
  "folder": "8epgcaCOcfgSspZf",
  "sort": 100000,
  "flags": {
    "core": {
      "sourceId": "Compendium.tormenta20.poderes.QrsQzzdGDWjgXNF5"
    }
  },
  "system": {
    "description": {
      "value": "<p>Voc&ecirc; recebe +1 em um atributo. Voc&ecirc; pode escolher este poder v&aacute;rias vezes, mas apenas uma vez por patamar para um mesmo atributo.</p>",
      "chat": "",
      "unidentified": ""
    },
    "source": "",
    "ativacao": {
      "execucao": "",
      "custo": 0,
      "qtd": "",
      "condicao": "",
      "special": ""
    },
    "duracao": {
      "value": 0,
      "units": "",
      "special": ""
    },
    "target": {
      "value": null,
      "width": null,
      "units": "",
      "type": ""
    },
    "range": {
      "value": null,
      "units": ""
    },
    "consume": {
      "type": "",
      "target": "",
      "amount": null,
      "mpMultiplier": false
    },
    "efeito": "",
    "alcance": "none",
    "alvo": "",
    "area": "",
    "resistencia": {
      "pericia": "",
      "atributo": "sab",
      "bonus": 0,
      "txt": ""
    },
    "rolls": [],
    "tipo": "classe",
    "subtipo": "Geral",
    "chatFlavor": "",
    "origin": "",
    "tags": [],
    "chatGif": ""
  },
  "ownership": {
    "default": 0
  },
  "_stats": {
    "systemId": "tormenta20",
    "systemVersion": "1.4.116",
    "coreVersion": "11.298",
    "createdTime": 1664306184299,
    "modifiedTime": 1684630477802,
    "lastModifiedBy": "ZWR5Tn3AhSIFqwp6"
  },
  "_key": "!items!QrsQzzdGDWjgXNF5"
}
