{
  "_id": "6F61e1LUHJx0uenc",
  "name": "Autoridade Feudal (Cavaleiro)",
  "type": "poder",
  "img": "systems/tormenta20/icons/classes/cavaleiro.webp",
  "effects": [],
  "folder": "FOdOQA7oDXTWqj5Z",
  "sort": 0,
  "flags": {
    "core": {
      "sourceId": "Compendium.tormenta20.poderes.6F61e1LUHJx0uenc"
    }
  },
  "system": {
    "description": {
      "value": "<p style=\"text-align: justify;\">Voc&ecirc; pode gastar uma hora e 2 PM para conclamar o povo a ajud&aacute;-lo (qualquer pessoa sem um t&iacute;tulo de nobreza ou uma posi&ccedil;&atilde;o numa igreja reconhecida pelo seu reino). Em termos de jogo, essas pessoas contam como um parceiro iniciante de um tipo a sua escolha (aprovado pelo mestre) que lhe acompanha at&eacute; o fim da aventura. Esta habilidade s&oacute; pode ser usada em locais onde sua posi&ccedil;&atilde;o carregue alguma influ&ecirc;ncia (a crit&eacute;rio do mestre). Pr&eacute;-requisito: 6&ordm; n&iacute;vel de Cavaleiro.</p>",
      "chat": "",
      "unidentified": ""
    },
    "source": "T20, pg. 54 (JdA)",
    "ativacao": {
      "execucao": "hour",
      "custo": 2,
      "qtd": "1",
      "condicao": "",
      "special": ""
    },
    "duracao": {
      "value": 0,
      "units": "",
      "special": ""
    },
    "target": {
      "value": null,
      "width": null,
      "units": "",
      "type": ""
    },
    "range": {
      "value": null,
      "units": ""
    },
    "consume": {
      "type": "",
      "target": "",
      "amount": null,
      "mpMultiplier": false
    },
    "efeito": "",
    "alcance": "none",
    "alvo": "",
    "area": "",
    "resistencia": {
      "pericia": "",
      "atributo": "sab",
      "bonus": 0,
      "txt": ""
    },
    "rolls": [],
    "tipo": "classe",
    "subtipo": "Cavaleiro",
    "chatFlavor": "",
    "origin": "",
    "tags": [],
    "chatGif": ""
  },
  "ownership": {
    "default": 0
  },
  "_stats": {
    "systemId": "tormenta20",
    "systemVersion": "1.4.116",
    "coreVersion": "11.298",
    "createdTime": 1664306183318,
    "modifiedTime": 1684630371462,
    "lastModifiedBy": "ZWR5Tn3AhSIFqwp6"
  },
  "_key": "!items!6F61e1LUHJx0uenc"
}
