{
  "_id": "AdSrW4Y9GnJqOPMm",
  "name": "Autoridade Eclesiástica",
  "type": "poder",
  "img": "systems/tormenta20/icons/classes/clerigo.webp",
  "effects": [
    {
      "label": "Autoridade Eclesiástica",
      "icon": "icons/svg/upgrade.svg",
      "origin": "Item.AdSrW4Y9GnJqOPMm",
      "tint": "#FFFFFF",
      "flags": {
        "tormenta20": {
          "onuse": true,
          "durationScene": false,
          "self": false,
          "attack": false,
          "skill": true,
          "ability": false,
          "power": false,
          "spell": false,
          "consumable": false,
          "items": "diplomacia;intimidacao",
          "aumenta": false,
          "custo": ""
        }
      },
      "duration": {
        "startTime": null,
        "seconds": null,
        "combat": null,
        "rounds": null,
        "turns": null,
        "startRound": null,
        "startTurn": null
      },
      "disabled": true,
      "_id": "z75ejaGWyQkiep2V",
      "changes": [
        {
          "key": "roll",
          "mode": 2,
          "value": "5",
          "priority": 0
        }
      ],
      "transfer": true,
      "_key": "!items.effects!AdSrW4Y9GnJqOPMm.z75ejaGWyQkiep2V"
    }
  ],
  "folder": "RDLTxoI4mIyfR6dr",
  "sort": 0,
  "flags": {
    "core": {
      "sourceId": "Compendium.tormenta20.poderes.AdSrW4Y9GnJqOPMm"
    }
  },
  "system": {
    "description": {
      "value": "<p style=\"text-align: justify;\">Voc&ecirc; possui uma posi&ccedil;&atilde;o formal em uma igreja reconhecida pelos outros membros da f&eacute;. Os efeitos deste poder variam de acordo com a igreja e o deus - Cl&eacute;rigos de Khalmyr, por exemplo, possuem autoridade como ju&iacute;zes no Reinado &mdash; e ficam a cargo do mestre. Como regra geral, voc&ecirc; recebe +5 em testes de Diplomacia ou Intimida&ccedil;&atilde;o ao lidar com devotos de sua divindade e paga metade do pre&ccedil;o de itens alqu&iacute;micos, po&ccedil;&otilde;es e servi&ccedil;os em templos de sua divindade.</p>\n<p style=\"text-align: justify;\"><em>Pr&eacute;-requisitos: </em>5&ordm; n&iacute;vel de cl&eacute;rigo, devoto de um deus maior.</p>",
      "chat": "",
      "unidentified": ""
    },
    "source": "T20, pg. 57 (JdA)",
    "ativacao": {
      "execucao": "",
      "custo": 0,
      "qtd": "",
      "condicao": "",
      "special": ""
    },
    "duracao": {
      "value": 0,
      "units": "",
      "special": ""
    },
    "target": {
      "value": null,
      "width": null,
      "units": "",
      "type": ""
    },
    "range": {
      "value": null,
      "units": ""
    },
    "consume": {
      "type": "",
      "target": "",
      "amount": null,
      "mpMultiplier": false
    },
    "efeito": "",
    "alcance": "none",
    "alvo": "",
    "area": "",
    "resistencia": {
      "pericia": "",
      "atributo": "sab",
      "bonus": 0,
      "txt": ""
    },
    "rolls": [],
    "tipo": "classe",
    "subtipo": "Clérigo",
    "chatFlavor": "",
    "origin": "",
    "tags": [],
    "chatGif": ""
  },
  "ownership": {
    "default": 0
  },
  "_stats": {
    "systemId": "tormenta20",
    "systemVersion": "1.4.116",
    "coreVersion": "11.298",
    "createdTime": 1664306183806,
    "modifiedTime": 1684630371462,
    "lastModifiedBy": "ZWR5Tn3AhSIFqwp6"
  },
  "_key": "!items!AdSrW4Y9GnJqOPMm"
}
