{
  "_id": "lItROoF5BIshKjat",
  "name": "Caminho dos Ermos",
  "type": "poder",
  "img": "systems/tormenta20/icons/poderes/classes/conjuradores/caminhos-ermos.webp",
  "effects": [],
  "folder": "8LraP5E2KHsZTAz8",
  "sort": 0,
  "flags": {
    "core": {
      "sourceId": "Compendium.tormenta20.poderes.lItROoF5BIshKjat"
    }
  },
  "system": {
    "description": {
      "value": "<p style=\"text-align:justify;\">No 2º nível, você pode atravessar terrenos difíceis sem sofrer redução em seu deslocamento e a CD para rastreá-lo aumenta em +10. Esta habilidade só funciona em terrenos naturais.</p>",
      "chat": "",
      "unidentified": ""
    },
    "source": "T20, pg. 63 (JdA)",
    "ativacao": {
      "execucao": "",
      "custo": 0,
      "qtd": "",
      "condicao": "",
      "special": ""
    },
    "duracao": {
      "value": 0,
      "units": "",
      "special": ""
    },
    "target": {
      "value": null,
      "width": null,
      "units": "",
      "type": ""
    },
    "range": {
      "value": null,
      "units": ""
    },
    "consume": {
      "type": "",
      "target": "",
      "amount": null,
      "mpMultiplier": false
    },
    "efeito": "",
    "alcance": "none",
    "alvo": "",
    "area": "",
    "resistencia": {
      "pericia": "",
      "atributo": "sab",
      "bonus": 0,
      "txt": ""
    },
    "rolls": [],
    "tipo": "ability",
    "subtipo": "Druida",
    "chatFlavor": "",
    "origin": "",
    "tags": [],
    "chatGif": ""
  },
  "ownership": {
    "default": 0
  },
  "_stats": {
    "systemId": "tormenta20",
    "systemVersion": "1.4.116",
    "coreVersion": "11.298",
    "createdTime": 1664306185140,
    "modifiedTime": 1684630371462,
    "lastModifiedBy": "ZWR5Tn3AhSIFqwp6"
  },
  "_key": "!items!lItROoF5BIshKjat"
}
