{
  "_id": "OfBZl1NhiMQ4oYN3",
  "name": "Carícia Sombria",
  "type": "poder",
  "img": "systems/tormenta20/icons/poderes/concedidos-trevas.webp",
  "effects": [
    {
      "label": "Carícia Sombria",
      "icon": "icons/svg/upgrade.svg",
      "origin": "Item.OfBZl1NhiMQ4oYN3",
      "tint": "#FFFFFF",
      "flags": {
        "tormenta20": {
          "onuse": true,
          "durationScene": false,
          "self": false,
          "attack": false,
          "skill": false,
          "ability": false,
          "power": false,
          "spell": false,
          "consumable": false,
          "items": "",
          "aumenta": false,
          "custo": "-1"
        }
      },
      "duration": {
        "startTime": null,
        "seconds": null,
        "combat": null,
        "rounds": null,
        "turns": null,
        "startRound": null,
        "startTurn": null
      },
      "disabled": true,
      "_id": "Mr06HmEvQRsNya2c",
      "changes": [],
      "transfer": false,
      "_key": "!items.effects!OfBZl1NhiMQ4oYN3.Mr06HmEvQRsNya2c"
    }
  ],
  "folder": "vjNvA2uCSyNhVjrU",
  "sort": 0,
  "flags": {
    "core": {
      "sourceId": "Compendium.tormenta20.poderes.OfBZl1NhiMQ4oYN3"
    }
  },
  "system": {
    "description": {
      "value": "<p style=\"text-align: justify;\">Voc&ecirc; pode gastar 1 PM e uma a&ccedil;&atilde;o padr&atilde;o para cobrir sua m&atilde;o com energia negativa e tocar uma criatura em alcance corpo a corpo. A criatura sofre 2d6 pontos de dano de trevas (Fortitude CD Sab reduz &agrave; metade) e voc&ecirc; recupera PV iguais &agrave; metade do dano causado. Voc&ecirc; pode aprender <em>Toque Vamp&iacute;rico</em> como uma magia divina. Se fizer isso, o custo dela diminui em &ndash;1 PM.</p>",
      "chat": "",
      "unidentified": ""
    },
    "source": "T20, pg. 132 (JdA)",
    "ativacao": {
      "execucao": "action",
      "custo": 1,
      "qtd": "",
      "condicao": "",
      "special": ""
    },
    "duracao": {
      "value": 0,
      "units": "",
      "special": ""
    },
    "target": {
      "value": null,
      "width": null,
      "units": "",
      "type": ""
    },
    "range": {
      "value": null,
      "units": ""
    },
    "consume": {
      "type": "",
      "target": "",
      "amount": null,
      "mpMultiplier": false
    },
    "efeito": "",
    "alcance": "touch",
    "alvo": "",
    "area": "",
    "resistencia": {
      "pericia": "",
      "atributo": "sab",
      "bonus": 0,
      "txt": "Fortitude reduz à metade"
    },
    "rolls": [
      {
        "name": "Dano",
        "key": "dano0",
        "type": "dano",
        "parts": [
          [
            "2d6",
            "trevas",
            ""
          ]
        ],
        "versatil": ""
      }
    ],
    "tipo": "concedido",
    "subtipo": "Trevas",
    "chatFlavor": "",
    "origin": "",
    "tags": [],
    "chatGif": ""
  },
  "ownership": {
    "default": 0
  },
  "_stats": {
    "systemId": "tormenta20",
    "systemVersion": "1.4.116",
    "coreVersion": "11.298",
    "createdTime": 1664306184256,
    "modifiedTime": 1684630371462,
    "lastModifiedBy": "ZWR5Tn3AhSIFqwp6"
  },
  "_key": "!items!OfBZl1NhiMQ4oYN3"
}
