{
  "_id": "DZsqNyevug2cslNj",
  "name": "Carga de Cavalaria",
  "type": "poder",
  "img": "systems/tormenta20/icons/poderes/combate.webp",
  "effects": [
    {
      "_id": "JY8ZZAoL56zFWPeU",
      "flags": {
        "t20": null,
        "tormenta20": {
          "onuse": true,
          "self": false,
          "attack": true,
          "skill": false,
          "ability": false,
          "power": false,
          "spell": false,
          "consumable": false,
          "aumenta": false,
          "custo": "",
          "durationScene": false
        }
      },
      "changes": [
        {
          "key": "dano",
          "value": "2d8",
          "mode": 2,
          "priority": null
        }
      ],
      "disabled": true,
      "duration": {
        "startTime": null,
        "seconds": null,
        "combat": null,
        "rounds": null,
        "turns": null,
        "startRound": null,
        "startTurn": null
      },
      "icon": "icons/svg/upgrade.svg",
      "label": "Carga de Cavalaria",
      "origin": "Item.kHfBGoEjWkgj9kwZ",
      "tint": null,
      "transfer": true,
      "_key": "!items.effects!DZsqNyevug2cslNj.JY8ZZAoL56zFWPeU"
    }
  ],
  "folder": "Rgbah8U70jOKi5DF",
  "sort": 0,
  "flags": {
    "core": {
      "sourceId": "Compendium.tormenta20.poderes.DZsqNyevug2cslNj"
    },
    "tormenta20": {
      "version": "1.3.0.0"
    },
    "importid": "FLAT1FT0cww9B04Q",
    "cf": null
  },
  "system": {
    "description": {
      "value": "<p style=\"text-align: justify;\">Quando faz uma investida montada, voc&ecirc; causa +2d8 pontos de dano. Al&eacute;m disso, pode continuar se movendo depois do ataque. Voc&ecirc; deve se mover em linha reta e seu movimento m&aacute;ximo ainda &eacute; o dobro do seu deslocamento.</p>\n<p style=\"text-align: justify;\"><em>Pr&eacute;-requisito:</em> Ginete.</p>",
      "chat": "",
      "unidentified": ""
    },
    "source": "T20, pg. 124 (JdA)",
    "ativacao": {
      "execucao": "",
      "custo": 0,
      "qtd": "",
      "condicao": "",
      "special": ""
    },
    "duracao": {
      "value": 0,
      "units": "",
      "special": ""
    },
    "target": {
      "value": null,
      "width": null,
      "units": "",
      "type": ""
    },
    "range": {
      "value": null,
      "units": ""
    },
    "consume": {
      "type": "",
      "target": "",
      "amount": null,
      "mpMultiplier": false
    },
    "efeito": "",
    "alcance": "none",
    "alvo": "",
    "area": "",
    "resistencia": {
      "pericia": "",
      "atributo": "for",
      "bonus": 0,
      "txt": ""
    },
    "rolls": [],
    "tipo": "geral",
    "subtipo": "Combate",
    "chatFlavor": "",
    "origin": "",
    "tags": [],
    "chatGif": ""
  },
  "ownership": {
    "default": 0
  },
  "_stats": {
    "systemId": "tormenta20",
    "systemVersion": "1.4.116",
    "coreVersion": "11.298",
    "createdTime": 1664306183824,
    "modifiedTime": 1684630371462,
    "lastModifiedBy": "ZWR5Tn3AhSIFqwp6"
  },
  "_key": "!items!DZsqNyevug2cslNj"
}
