{
  "_id": "RVcn4COzkbMzDcTp",
  "name": "Centelha Mágica",
  "type": "poder",
  "img": "systems/tormenta20/icons/poderes/concedidos-magia.webp",
  "effects": [
    {
      "label": "Centelha Mágica",
      "icon": "icons/svg/upgrade.svg",
      "origin": "Item.RVcn4COzkbMzDcTp",
      "tint": "#FFFFFF",
      "flags": {
        "tormenta20": {
          "onuse": true,
          "durationScene": false,
          "self": false,
          "attack": false,
          "skill": false,
          "ability": false,
          "power": false,
          "spell": true,
          "consumable": false,
          "items": "",
          "aumenta": false,
          "custo": "-1"
        }
      },
      "duration": {
        "startTime": null,
        "seconds": null,
        "combat": null,
        "rounds": null,
        "turns": null,
        "startRound": null,
        "startTurn": null
      },
      "disabled": true,
      "_id": "bsPrdm2JMhe8M0dW",
      "changes": [],
      "transfer": true,
      "_key": "!items.effects!RVcn4COzkbMzDcTp.bsPrdm2JMhe8M0dW"
    }
  ],
  "folder": "Kye2KzNfCgJW92Kb",
  "sort": 0,
  "flags": {
    "core": {
      "sourceId": "Compendium.tormenta20.poderes.RVcn4COzkbMzDcTp"
    }
  },
  "system": {
    "description": {
      "value": "<p style=\"text-align: justify;\">Escolha uma magia arcana ou divina de 1&ordm; c&iacute;rculo. Voc&ecirc; aprende e pode lan&ccedil;ar essa magia.</p>",
      "chat": "",
      "unidentified": ""
    },
    "source": "T20, pg. 132 (JdA)",
    "ativacao": {
      "execucao": "",
      "custo": 0,
      "qtd": "",
      "condicao": "",
      "special": ""
    },
    "duracao": {
      "value": 0,
      "units": "",
      "special": ""
    },
    "target": {
      "value": null,
      "width": null,
      "units": "",
      "type": ""
    },
    "range": {
      "value": null,
      "units": ""
    },
    "consume": {
      "type": "",
      "target": "",
      "amount": null,
      "mpMultiplier": false
    },
    "efeito": "",
    "alcance": "none",
    "alvo": "",
    "area": "",
    "resistencia": {
      "pericia": "",
      "atributo": "sab",
      "bonus": 0,
      "txt": ""
    },
    "rolls": [],
    "tipo": "concedido",
    "subtipo": "Magia",
    "chatFlavor": "",
    "origin": "",
    "tags": [],
    "chatGif": ""
  },
  "ownership": {
    "default": 0
  },
  "_stats": {
    "systemId": "tormenta20",
    "systemVersion": "1.4.116",
    "coreVersion": "11.298",
    "createdTime": 1664306184301,
    "modifiedTime": 1684630371462,
    "lastModifiedBy": "ZWR5Tn3AhSIFqwp6"
  },
  "_key": "!items!RVcn4COzkbMzDcTp"
}
