{
  "_id": "NXxYBFilt7FbyZ2q",
  "name": "Chassi",
  "type": "poder",
  "img": "systems/tormenta20/icons/racas/golem.webp",
  "effects": [
    {
      "_id": "HJ7YBMhISOpPnXIC",
      "flags": {
        "t20": null,
        "tormenta20": {
          "onuse": false,
          "durationScene": false
        }
      },
      "changes": [
        {
          "key": "system.attributes.defesa.bonus",
          "mode": 2,
          "value": "2"
        },
        {
          "key": "system.attributes.defesa.pda",
          "mode": 2,
          "value": "2"
        },
        {
          "key": "system.equipamentos.limiteVestido",
          "mode": 2,
          "value": "1"
        }
      ],
      "disabled": false,
      "duration": {
        "startTime": null,
        "seconds": null,
        "combat": null,
        "rounds": null,
        "turns": null,
        "startRound": null,
        "startTurn": null
      },
      "icon": "systems/tormenta20/icons/racas/golem.webp",
      "label": "Chassi",
      "origin": "Item.d0iJrjrphvuiQkER",
      "tint": null,
      "transfer": true,
      "_key": "!items.effects!NXxYBFilt7FbyZ2q.HJ7YBMhISOpPnXIC"
    }
  ],
  "folder": "JbWoTw5WRQStJu6M",
  "sort": 0,
  "flags": {
    "core": {
      "sourceId": "Compendium.tormenta20.poderes.NXxYBFilt7FbyZ2q"
    }
  },
  "system": {
    "description": {
      "value": "<p style=\"text-align: justify;\">Seu corpo artificial &eacute; resistente, mas r&iacute;gido. Seu deslocamento &eacute; 6m, mas n&atilde;o &eacute; reduzido por uso de armadura ou excesso de carga. Voc&ecirc; recebe +2 na Defesa, mas possui penalidade de armadura -2. Voc&ecirc; leva um dia para vestir ou remover uma armadura (pois precisa acoplar as pe&ccedil;as ao seu chassi). Por ser acoplada, sua armadura n&atilde;o conta no limite de itens que voc&ecirc; pode usar (mas voc&ecirc; continua podendo usar apenas uma armadura).</p>",
      "chat": "",
      "unidentified": ""
    },
    "source": "T20, pg. 27 (JdA)",
    "ativacao": {
      "execucao": "",
      "custo": 0,
      "qtd": "",
      "condicao": "",
      "special": ""
    },
    "duracao": {
      "value": 0,
      "units": "",
      "special": ""
    },
    "target": {
      "value": null,
      "width": null,
      "units": "",
      "type": ""
    },
    "range": {
      "value": null,
      "units": ""
    },
    "consume": {
      "type": "",
      "target": "",
      "amount": null,
      "mpMultiplier": false
    },
    "efeito": "",
    "alcance": "none",
    "alvo": "",
    "area": "",
    "resistencia": {
      "pericia": "",
      "atributo": "sab",
      "bonus": 0,
      "txt": ""
    },
    "rolls": [],
    "tipo": "racial",
    "subtipo": "Golem",
    "chatFlavor": "",
    "origin": "",
    "tags": [],
    "chatGif": ""
  },
  "ownership": {
    "default": 0
  },
  "_stats": {
    "systemId": "tormenta20",
    "systemVersion": "1.4.116",
    "coreVersion": "11.298",
    "createdTime": 1664306184254,
    "modifiedTime": 1684630371462,
    "lastModifiedBy": "ZWR5Tn3AhSIFqwp6"
  },
  "_key": "!items!NXxYBFilt7FbyZ2q"
}
