{
  "name": "Chutes e Palavrões",
  "type": "poder",
  "img": "icons/commodities/tech/cog-brass.webp",
  "effects": [],
  "flags": {
    "scene-packer": {
      "sourceId": "Item.bn6INBi7HvW9bs8f",
      "defaultPermission": 3,
      "hash": "cf8a7456715548926c02fa9971e160af5612257d"
    },
    "cf": null,
    "core": {
      "sourceId": "Compendium.world.world-arielton-1663050699947.dFL0U3uAjy2LmROZ"
    }
  },
  "system": {
    "description": {
      "value": "<p style=\"text-align: justify;\">Uma vez por rodada, voc&ecirc; pode pagar 1 PM para repetir um teste de Of&iacute;cio (engenhoqueiro) rec&eacute;m realizado para ativar uma engenhoca.</p>\n<p style=\"text-align: justify;\"><em>Pr&eacute;-requisito:</em> Engenhoqueiro.</p>",
      "chat": "",
      "unidentified": ""
    },
    "source": "T20, pg. 69 (JdA)",
    "ativacao": {
      "execucao": "reaction",
      "custo": 1,
      "qtd": "",
      "condicao": "",
      "special": ""
    },
    "duracao": {
      "value": 0,
      "units": "",
      "special": ""
    },
    "target": {
      "value": null,
      "width": null,
      "units": "",
      "type": ""
    },
    "range": {
      "value": null,
      "units": ""
    },
    "consume": {
      "type": "",
      "target": "",
      "amount": null,
      "mpMultiplier": false
    },
    "efeito": "",
    "alcance": "none",
    "alvo": "",
    "area": "",
    "resistencia": {
      "pericia": "",
      "atributo": "",
      "bonus": 0,
      "txt": ""
    },
    "rolls": [],
    "tipo": "classe",
    "subtipo": "inventor",
    "chatFlavor": "",
    "origin": "",
    "tags": [],
    "chatGif": ""
  },
  "_stats": {
    "systemId": "tormenta20",
    "systemVersion": "1.4.116",
    "coreVersion": "11.298",
    "createdTime": 1663051643551,
    "modifiedTime": 1684630371462,
    "lastModifiedBy": "ZWR5Tn3AhSIFqwp6"
  },
  "_id": "NXOAFVhHVEI7VqVg",
  "folder": "iHjbUWZ9cRzIVZ3E",
  "sort": 0,
  "ownership": {
    "default": 0,
    "tIn9sSkrT3mDWirx": 3
  },
  "_key": "!items!NXOAFVhHVEI7VqVg"
}
