{
  "_id": "ke8sDLo2AVzmq7kT",
  "name": "Companheiro Animal Aprimorado",
  "type": "poder",
  "img": "systems/tormenta20/icons/classes/druida.webp",
  "effects": [],
  "folder": "8LraP5E2KHsZTAz8",
  "sort": 0,
  "flags": {
    "core": {
      "sourceId": "Compendium.tormenta20.poderes.ke8sDLo2AVzmq7kT"
    }
  },
  "system": {
    "description": {
      "value": "<p style=\"text-align: justify;\">Escolha um de seus companheiros animais. Ele recebe um segundo tipo, ganhando os b&ocirc;nus de seu n&iacute;vel. Por exemplo, se voc&ecirc; tiver um companheiro guardi&atilde;o veterano, pode adicionar o tipo fort&atilde;o a ele, tornando-o um guardi&atilde;o fort&atilde;o veterano que concede +3 na Defesa e +1d12 nas rolagens de dano corpo a corpo.</p>\n<p style=\"text-align: justify;\"><em>Pr&eacute;-requisitos: </em>Companheiro Animal, 6&ordm; n&iacute;vel de druida.</p>",
      "chat": "",
      "unidentified": ""
    },
    "source": "T20, pg. 62 (JdA)",
    "ativacao": {
      "execucao": "",
      "custo": 0,
      "qtd": "",
      "condicao": "",
      "special": ""
    },
    "duracao": {
      "value": 0,
      "units": "",
      "special": ""
    },
    "target": {
      "value": null,
      "width": null,
      "units": "",
      "type": ""
    },
    "range": {
      "value": null,
      "units": ""
    },
    "consume": {
      "type": "",
      "target": "",
      "amount": null,
      "mpMultiplier": false
    },
    "efeito": "",
    "alcance": "none",
    "alvo": "",
    "area": "",
    "resistencia": {
      "pericia": "",
      "atributo": "sab",
      "bonus": 0,
      "txt": ""
    },
    "rolls": [],
    "tipo": "classe",
    "subtipo": "Druida",
    "chatFlavor": "",
    "origin": "",
    "tags": [],
    "chatGif": ""
  },
  "ownership": {
    "default": 0
  },
  "_stats": {
    "systemId": "tormenta20",
    "systemVersion": "1.4.116",
    "coreVersion": "11.298",
    "createdTime": 1664306185137,
    "modifiedTime": 1684630371462,
    "lastModifiedBy": "ZWR5Tn3AhSIFqwp6"
  },
  "_key": "!items!ke8sDLo2AVzmq7kT"
}
