{
  "folder": "VzNpCz1wSE1Ln6lH",
  "name": "Dragões",
  "sorting": "a",
  "type": "Item",
  "_id": "t8DbsNWc3FwYHBH9",
  "sort": 0,
  "flags": {},
  "_stats": {
    "systemId": null,
    "systemVersion": null,
    "coreVersion": null,
    "createdTime": null,
    "modifiedTime": null,
    "lastModifiedBy": null
  },
  "_key": "!folders!t8DbsNWc3FwYHBH9"
}
