{
  "_id": "5W1KPafxjV4C7EmB",
  "name": "Engenhosidade (Kliren)",
  "type": "poder",
  "img": "systems/tormenta20/icons/racas/kliren.webp",
  "effects": [
    {
      "label": "Engenhosidade",
      "icon": "icons/svg/upgrade.svg",
      "origin": "Compendium.tormenta20.poderes.5W1KPafxjV4C7EmB",
      "tint": "#FFFFFF",
      "flags": {
        "tormenta20": {
          "onuse": true,
          "durationScene": false,
          "self": false,
          "attack": false,
          "skill": true,
          "ability": false,
          "power": false,
          "equipment": false,
          "spell": false,
          "consumable": false,
          "items": "",
          "aumenta": false,
          "custo": "2"
        }
      },
      "duration": {
        "startTime": null,
        "seconds": null,
        "combat": null,
        "rounds": null,
        "turns": null,
        "startRound": null,
        "startTurn": null
      },
      "disabled": true,
      "_id": "cOh1rvSpJ9xd5Jdd",
      "changes": [
        {
          "key": "roll",
          "mode": 2,
          "value": "@int",
          "priority": 0
        }
      ],
      "transfer": true,
      "_key": "!items.effects!5W1KPafxjV4C7EmB.cOh1rvSpJ9xd5Jdd"
    }
  ],
  "folder": "6zI7CiCTyZW5lI4F",
  "sort": 0,
  "flags": {
    "core": {
      "sourceId": "Compendium.tormenta20.poderes.5W1KPafxjV4C7EmB"
    }
  },
  "system": {
    "description": {
      "value": "<p style=\"text-align: justify;\">Quando faz um teste de per&iacute;cia, voc&ecirc; pode gastar 2 PM para somar sua Intelig&ecirc;ncia no teste. Voc&ecirc; n&atilde;o pode usar esta habilidade em testes de ataque. Caso receba esta habilidade novamente, seu custo &eacute; reduzido em -1 PM.&nbsp;</p>",
      "chat": "",
      "unidentified": ""
    },
    "source": "T20, pg. 28 (JdA)",
    "ativacao": {
      "execucao": "",
      "custo": 2,
      "qtd": "",
      "condicao": "",
      "special": ""
    },
    "duracao": {
      "value": 0,
      "units": "",
      "special": ""
    },
    "target": {
      "value": null,
      "width": null,
      "units": "",
      "type": ""
    },
    "range": {
      "value": null,
      "units": ""
    },
    "consume": {
      "type": "",
      "target": "",
      "amount": null,
      "mpMultiplier": false
    },
    "efeito": "",
    "alcance": "none",
    "alvo": "",
    "area": "",
    "resistencia": {
      "pericia": "",
      "atributo": "sab",
      "bonus": 0,
      "txt": ""
    },
    "rolls": [],
    "tipo": "racial",
    "subtipo": "Kliren",
    "origin": "",
    "tags": [],
    "chatFlavor": "",
    "chatGif": ""
  },
  "ownership": {
    "default": 0
  },
  "_stats": {
    "systemId": "tormenta20",
    "systemVersion": "1.4.116",
    "coreVersion": "11.298",
    "createdTime": 1664306183315,
    "modifiedTime": 1684630371462,
    "lastModifiedBy": "ZWR5Tn3AhSIFqwp6"
  },
  "_key": "!items!5W1KPafxjV4C7EmB"
}
