{
  "_id": "756GKQn2ux8mAugb",
  "name": "Explorador",
  "type": "poder",
  "img": "systems/tormenta20/icons/poderes/classes/especialistas/explorador.webp",
  "effects": [
    {
      "label": "Explorador",
      "icon": "systems/tormenta20/icons/classes/cacador.webp",
      "origin": "Item.756GKQn2ux8mAugb",
      "tint": "#FFFFFF",
      "flags": {
        "tormenta20": {
          "onuse": false,
          "durationScene": true
        }
      },
      "duration": {
        "rounds": 1,
        "startTime": null,
        "seconds": null,
        "combat": null,
        "turns": null,
        "startRound": null,
        "startTurn": null
      },
      "disabled": false,
      "_id": "9BrjamcjgaHgGFjC",
      "changes": [
        {
          "key": "system.attributes.defesa.bonus",
          "mode": 2,
          "value": "@sab",
          "priority": null
        },
        {
          "key": "system.pericias.acro.bonus",
          "mode": 2,
          "value": "@sab",
          "priority": null
        },
        {
          "key": "system.pericias.atle.bonus",
          "mode": 2,
          "value": "@sab",
          "priority": null
        },
        {
          "key": "system.pericias.furt.bonus",
          "mode": 2,
          "value": "@sab",
          "priority": null
        },
        {
          "key": "system.pericias.perc.bonus",
          "mode": 2,
          "value": "@sab",
          "priority": null
        },
        {
          "key": "system.pericias.sobr.bonus",
          "mode": 2,
          "value": "@sab",
          "priority": null
        }
      ],
      "transfer": false,
      "_key": "!items.effects!756GKQn2ux8mAugb.9BrjamcjgaHgGFjC"
    }
  ],
  "folder": "iT3rUBmGhu5hbNic",
  "sort": 700000,
  "flags": {
    "core": {
      "sourceId": "Compendium.tormenta20.poderes.756GKQn2ux8mAugb"
    }
  },
  "system": {
    "description": {
      "value": "<p style=\"text-align: justify;\">No 3&ordm; n&iacute;vel, escolha um tipo de terreno entre aqu&aacute;tico, &aacute;rtico, colina, deserto, floresta, montanha, p&acirc;ntano, plan&iacute;cie, subterr&acirc;neo ou urbano. A partir do 11&ordm; n&iacute;vel, voc&ecirc; tamb&eacute;m pode escolher &aacute;rea de Tormenta. Quando estiver no tipo de terreno escolhido, voc&ecirc; soma sua Sabedoria (m&iacute;nimo +1) na Defesa e nos testes de Acrobacia, Atletismo, Furtividade, Percep&ccedil;&atilde;o e Sobreviv&ecirc;ncia. A cada quatro n&iacute;veis, escolha outro tipo de terreno para receber o b&ocirc;nus ou aumente o b&ocirc;nus em um tipo de terreno j&aacute; escolhido em +2.</p>",
      "chat": "",
      "unidentified": ""
    },
    "source": "T20, pg. 51 (JdA)",
    "ativacao": {
      "execucao": "",
      "custo": 0,
      "qtd": "",
      "condicao": "",
      "special": ""
    },
    "duracao": {
      "value": 0,
      "units": "",
      "special": ""
    },
    "target": {
      "value": null,
      "width": null,
      "units": "",
      "type": ""
    },
    "range": {
      "value": null,
      "units": ""
    },
    "consume": {
      "type": "",
      "target": "",
      "amount": null,
      "mpMultiplier": false
    },
    "efeito": "",
    "alcance": "none",
    "alvo": "",
    "area": "",
    "resistencia": {
      "pericia": "",
      "atributo": "sab",
      "bonus": 0,
      "txt": ""
    },
    "rolls": [],
    "tipo": "ability",
    "subtipo": "Caçador",
    "chatFlavor": "",
    "origin": "",
    "tags": [],
    "chatGif": ""
  },
  "ownership": {
    "default": 0
  },
  "_stats": {
    "systemId": "tormenta20",
    "systemVersion": "1.4.116",
    "coreVersion": "11.298",
    "createdTime": 1658361716798,
    "modifiedTime": 1684630426990,
    "lastModifiedBy": "ZWR5Tn3AhSIFqwp6"
  },
  "_key": "!items!756GKQn2ux8mAugb"
}
