{
  "name": "Familiar Ofídico",
  "type": "poder",
  "img": "systems/tormenta20/icons/poderes/concedidos-traicao.webp",
  "effects": [],
  "flags": {
    "core": {
      "sourceId": "Compendium.tormenta20.poderes.RDZ4Iieg7ffqmjLE"
    }
  },
  "system": {
    "description": {
      "value": "<p>Voc&ecirc; recebe um familiar cobra (veja a p&aacute;gina 38) que n&atilde;o conta em seu limite de parceiros.</p>",
      "chat": "",
      "unidentified": ""
    },
    "source": "T20, pg. 133 (JdA)",
    "ativacao": {
      "execucao": "passive",
      "custo": 0,
      "qtd": "",
      "condicao": "",
      "special": ""
    },
    "duracao": {
      "value": 0,
      "units": "",
      "special": ""
    },
    "target": {
      "value": null,
      "width": null,
      "units": "",
      "type": ""
    },
    "range": {
      "value": null,
      "units": ""
    },
    "consume": {
      "type": "",
      "target": "",
      "amount": null,
      "mpMultiplier": false
    },
    "efeito": "",
    "alcance": "none",
    "alvo": "",
    "area": "",
    "resistencia": {
      "pericia": "",
      "atributo": "sab",
      "bonus": 0,
      "txt": ""
    },
    "rolls": [],
    "tipo": "concedido",
    "subtipo": "Traição",
    "chatFlavor": "",
    "origin": "",
    "tags": [],
    "chatGif": ""
  },
  "_stats": {
    "systemId": "tormenta20",
    "systemVersion": "1.4.116",
    "coreVersion": "11.298",
    "createdTime": 1664306184300,
    "modifiedTime": 1684630371462,
    "lastModifiedBy": "ZWR5Tn3AhSIFqwp6"
  },
  "_id": "ZlgkzfCdGZKlhFsJ",
  "folder": "s8308RXiyAhaEjoG",
  "sort": 0,
  "ownership": {
    "default": 0,
    "tIn9sSkrT3mDWirx": 3
  },
  "_key": "!items!ZlgkzfCdGZKlhFsJ"
}
