{
  "name": "Farmacêutico",
  "type": "poder",
  "img": "icons/commodities/tech/cog-brass.webp",
  "effects": [
    {
      "_id": "UNVkmpne0Jbm4FZR",
      "changes": [
        {
          "key": "dano",
          "mode": 2,
          "value": "1d4",
          "priority": 0
        }
      ],
      "disabled": true,
      "duration": {
        "startTime": null,
        "seconds": null,
        "combat": null,
        "rounds": null,
        "turns": null,
        "startRound": null,
        "startTurn": null
      },
      "icon": "icons/svg/upgrade.svg",
      "label": "Farmacêutico (1d4).",
      "origin": "Item.L0sMSD8LyhiwSnFU",
      "transfer": true,
      "flags": {
        "tormenta20": {
          "onuse": true,
          "consumable": true,
          "self": false,
          "attack": false,
          "skill": false,
          "ability": false,
          "power": false,
          "spell": false,
          "aumenta": true,
          "custo": "1",
          "durationScene": false,
          "items": ""
        }
      },
      "tint": null,
      "_key": "!items.effects!nmKozCiHGK9cTPga.UNVkmpne0Jbm4FZR"
    },
    {
      "label": "Farmacêutico (1d6).",
      "icon": "icons/svg/upgrade.svg",
      "origin": "Item.nmKozCiHGK9cTPga",
      "tint": "#FFFFFF",
      "flags": {
        "tormenta20": {
          "onuse": true,
          "durationScene": false,
          "self": false,
          "attack": false,
          "skill": false,
          "ability": false,
          "power": false,
          "spell": false,
          "consumable": true,
          "items": "",
          "aumenta": true,
          "custo": "1"
        }
      },
      "duration": {
        "startTime": null,
        "seconds": null,
        "combat": null,
        "rounds": null,
        "turns": null,
        "startRound": null,
        "startTurn": null
      },
      "disabled": true,
      "_id": "wRXI7EfHXdxGR0zz",
      "changes": [
        {
          "key": "dano",
          "mode": 2,
          "value": "1d6",
          "priority": 0
        }
      ],
      "transfer": true,
      "_key": "!items.effects!nmKozCiHGK9cTPga.wRXI7EfHXdxGR0zz"
    },
    {
      "label": "Farmacêutico (1d8).",
      "icon": "icons/svg/upgrade.svg",
      "origin": "Item.nmKozCiHGK9cTPga",
      "tint": "#FFFFFF",
      "flags": {
        "tormenta20": {
          "onuse": true,
          "durationScene": false,
          "self": false,
          "attack": false,
          "skill": false,
          "ability": false,
          "power": false,
          "spell": false,
          "consumable": true,
          "items": "",
          "aumenta": true,
          "custo": "1"
        }
      },
      "duration": {
        "startTime": null,
        "seconds": null,
        "combat": null,
        "rounds": null,
        "turns": null,
        "startRound": null,
        "startTurn": null
      },
      "disabled": true,
      "_id": "whOfN0MBG8zmgZ6b",
      "changes": [
        {
          "key": "dano",
          "mode": 2,
          "value": "1d8",
          "priority": 0
        }
      ],
      "transfer": true,
      "_key": "!items.effects!nmKozCiHGK9cTPga.whOfN0MBG8zmgZ6b"
    }
  ],
  "flags": {
    "scene-packer": {
      "sourceId": "Item.L0sMSD8LyhiwSnFU",
      "defaultPermission": 3,
      "hash": "5663b5b32115297fc6e9b16c0314784fe6f74c03"
    },
    "cf": null,
    "core": {
      "sourceId": "Compendium.world.world-arielton-1663050699947.fxWWeJk7o0ru7r3i"
    }
  },
  "system": {
    "description": {
      "value": "<p style=\"text-align: justify;\">Quando usa um item alqu&iacute;mico que cure pontos de vida, voc&ecirc; pode gastar uma quantidade de PM a sua escolha (limitado por sua Intelig&ecirc;ncia). Para cada PM que gastar, o item cura um dado extra do mesmo tipo.</p>\n<p style=\"text-align: justify;\"><em>Pr&eacute;-requisitos:</em> Sab 1, treinado em Of&iacute;cio (alquimista).</p>\n<p style=\"text-align: justify;\">&nbsp;</p>",
      "chat": "",
      "unidentified": ""
    },
    "source": "T20, pg. 69 (JdA)",
    "ativacao": {
      "execucao": "",
      "custo": 0,
      "qtd": "",
      "condicao": "",
      "special": ""
    },
    "duracao": {
      "value": 0,
      "units": "",
      "special": ""
    },
    "target": {
      "value": null,
      "width": null,
      "units": "",
      "type": ""
    },
    "range": {
      "value": null,
      "units": ""
    },
    "consume": {
      "type": "",
      "target": "",
      "amount": null,
      "mpMultiplier": false
    },
    "efeito": "",
    "alcance": "none",
    "alvo": "",
    "area": "",
    "resistencia": {
      "pericia": "",
      "atributo": "",
      "bonus": 0,
      "txt": ""
    },
    "rolls": [],
    "tipo": "classe",
    "subtipo": "inventor",
    "chatFlavor": "",
    "origin": "",
    "tags": [],
    "chatGif": ""
  },
  "_stats": {
    "systemId": "tormenta20",
    "systemVersion": "1.4.116",
    "coreVersion": "11.298",
    "createdTime": 1663051644690,
    "modifiedTime": 1684630371462,
    "lastModifiedBy": "ZWR5Tn3AhSIFqwp6"
  },
  "_id": "nmKozCiHGK9cTPga",
  "folder": "iHjbUWZ9cRzIVZ3E",
  "sort": 0,
  "ownership": {
    "default": 0,
    "tIn9sSkrT3mDWirx": 3
  },
  "_key": "!items!nmKozCiHGK9cTPga"
}
