{
  "folder": null,
  "name": "Geral",
  "sorting": "a",
  "type": "Item",
  "_id": "tKVyoHS7abjxuJhg",
  "sort": 0,
  "flags": {},
  "_stats": {
    "systemId": null,
    "systemVersion": null,
    "coreVersion": null,
    "createdTime": null,
    "modifiedTime": null,
    "lastModifiedBy": null
  },
  "_key": "!folders!tKVyoHS7abjxuJhg"
}
