{
  "_id": "98JZ0I9y2YrRQB7e",
  "name": "Golpe Imprudente",
  "type": "poder",
  "img": "systems/tormenta20/icons/classes/lutador.webp",
  "effects": [],
  "folder": "csRpG81AedPycko0",
  "sort": 0,
  "flags": {
    "core": {
      "sourceId": "Compendium.tormenta20.poderes.98JZ0I9y2YrRQB7e"
    }
  },
  "system": {
    "description": {
      "value": "<p style=\"text-align: justify;\">Quando usa Golpe Rel&acirc;mpago, voc&ecirc; pode atacar de forma impulsiva. Se fizer isso, seus ataques desarmados recebem um dado de dano extra do mesmo tipo (por exemplo, se o seu dano &eacute; 2d6, voc&ecirc; causa 3d6), mas voc&ecirc; sofre &ndash;5 na Defesa at&eacute; o in&iacute;cio de seu pr&oacute;ximo turno.</p>",
      "chat": "",
      "unidentified": ""
    },
    "source": "T20, pg. 77 (JdA)",
    "ativacao": {
      "execucao": "passive",
      "custo": 0,
      "qtd": "",
      "condicao": "",
      "special": ""
    },
    "duracao": {
      "value": 0,
      "units": "",
      "special": ""
    },
    "target": {
      "value": null,
      "width": null,
      "units": "",
      "type": ""
    },
    "range": {
      "value": null,
      "units": ""
    },
    "consume": {
      "type": "",
      "target": "",
      "amount": null,
      "mpMultiplier": false
    },
    "efeito": "",
    "alcance": "none",
    "alvo": "",
    "area": "",
    "resistencia": {
      "pericia": "",
      "atributo": "sab",
      "bonus": 0,
      "txt": ""
    },
    "rolls": [],
    "tipo": "classe",
    "subtipo": "Lutador",
    "origin": "",
    "tags": [],
    "chatFlavor": "",
    "chatGif": ""
  },
  "ownership": {
    "default": 0
  },
  "_stats": {
    "systemId": "tormenta20",
    "systemVersion": "1.4.116",
    "coreVersion": "11.298",
    "createdTime": 1664306183335,
    "modifiedTime": 1684630371462,
    "lastModifiedBy": "ZWR5Tn3AhSIFqwp6"
  },
  "_key": "!items!98JZ0I9y2YrRQB7e"
}
