{
  "_id": "h1TMOvejmrtb8CJv",
  "name": "Golpe Elemental",
  "type": "poder",
  "img": "systems/tormenta20/icons/classes/bardo.webp",
  "effects": [
    {
      "label": "Aumenta o dano em 1d6;",
      "icon": "icons/svg/upgrade.svg",
      "origin": "Item.3DEL4jdmRWtaJEnc",
      "tint": "#FFFFFF",
      "flags": {
        "tormenta20": {
          "onuse": true,
          "durationScene": false,
          "self": true,
          "attack": false,
          "skill": false,
          "ability": false,
          "power": false,
          "spell": false,
          "consumable": false,
          "items": "",
          "aumenta": true,
          "custo": "1"
        }
      },
      "duration": {
        "startTime": null,
        "seconds": null,
        "combat": null,
        "rounds": null,
        "turns": null,
        "startRound": null,
        "startTurn": null
      },
      "disabled": true,
      "_id": "QM32SzhgrZJvwrcB",
      "changes": [
        {
          "key": "dano",
          "mode": 0,
          "value": "1d6",
          "priority": 0
        }
      ],
      "transfer": false,
      "_key": "!items.effects!h1TMOvejmrtb8CJv.QM32SzhgrZJvwrcB"
    },
    {
      "label": "Dano Ácido",
      "icon": "icons/svg/upgrade.svg",
      "origin": "Item.3DEL4jdmRWtaJEnc",
      "tint": "#FFFFFF",
      "flags": {
        "tormenta20": {
          "onuse": true,
          "durationScene": false,
          "self": true,
          "attack": false,
          "skill": false,
          "ability": false,
          "power": false,
          "spell": false,
          "consumable": false,
          "items": "",
          "aumenta": false,
          "custo": ""
        }
      },
      "duration": {
        "startTime": null,
        "seconds": null,
        "combat": null,
        "rounds": null,
        "turns": null,
        "startRound": null,
        "startTurn": null
      },
      "disabled": true,
      "_id": "hFemqZdY5LQZCgMj",
      "changes": [
        {
          "key": "tipoDano",
          "mode": 5,
          "value": "acido",
          "priority": null
        }
      ],
      "transfer": false,
      "_key": "!items.effects!h1TMOvejmrtb8CJv.hFemqZdY5LQZCgMj"
    },
    {
      "label": "Dano Fogo",
      "icon": "icons/svg/upgrade.svg",
      "origin": "Item.3DEL4jdmRWtaJEnc",
      "tint": "#FFFFFF",
      "flags": {
        "tormenta20": {
          "onuse": true,
          "durationScene": false,
          "self": true,
          "attack": false,
          "skill": false,
          "ability": false,
          "power": false,
          "spell": false,
          "consumable": false,
          "items": "",
          "aumenta": false,
          "custo": ""
        }
      },
      "duration": {
        "startTime": null,
        "seconds": null,
        "combat": null,
        "rounds": null,
        "turns": null,
        "startRound": null,
        "startTurn": null
      },
      "disabled": true,
      "_id": "97qmhNerclAntJOH",
      "changes": [
        {
          "key": "tipoDano",
          "mode": 5,
          "value": "fogo",
          "priority": null
        }
      ],
      "transfer": false,
      "_key": "!items.effects!h1TMOvejmrtb8CJv.97qmhNerclAntJOH"
    },
    {
      "label": "Dano Frio",
      "icon": "icons/svg/upgrade.svg",
      "origin": "Item.3DEL4jdmRWtaJEnc",
      "tint": "#FFFFFF",
      "flags": {
        "tormenta20": {
          "onuse": true,
          "durationScene": false,
          "self": true,
          "attack": false,
          "skill": false,
          "ability": false,
          "power": false,
          "spell": false,
          "consumable": false,
          "items": "",
          "aumenta": false,
          "custo": ""
        }
      },
      "duration": {
        "startTime": null,
        "seconds": null,
        "combat": null,
        "rounds": null,
        "turns": null,
        "startRound": null,
        "startTurn": null
      },
      "disabled": true,
      "_id": "EoFIWI2fIlWChuaz",
      "changes": [
        {
          "key": "tipoDano",
          "mode": 5,
          "value": "frio",
          "priority": null
        }
      ],
      "transfer": false,
      "_key": "!items.effects!h1TMOvejmrtb8CJv.EoFIWI2fIlWChuaz"
    },
    {
      "label": "Dano Eletricidade",
      "icon": "icons/svg/upgrade.svg",
      "origin": "Item.3DEL4jdmRWtaJEnc",
      "tint": "#FFFFFF",
      "flags": {
        "tormenta20": {
          "onuse": true,
          "durationScene": false,
          "self": true,
          "attack": false,
          "skill": false,
          "ability": false,
          "power": false,
          "spell": false,
          "consumable": false,
          "items": "",
          "aumenta": false,
          "custo": ""
        }
      },
      "duration": {
        "startTime": null,
        "seconds": null,
        "combat": null,
        "rounds": null,
        "turns": null,
        "startRound": null,
        "startTurn": null
      },
      "disabled": true,
      "_id": "AFYSehEjy6gRzgqu",
      "changes": [
        {
          "key": "tipoDano",
          "mode": 5,
          "value": "eletricidade",
          "priority": null
        }
      ],
      "transfer": false,
      "_key": "!items.effects!h1TMOvejmrtb8CJv.AFYSehEjy6gRzgqu"
    }
  ],
  "folder": "vXRLLa3BIKBZdiua",
  "sort": 0,
  "flags": {
    "core": {
      "sourceId": "Compendium.tormenta20.poderes.h1TMOvejmrtb8CJv"
    }
  },
  "system": {
    "description": {
      "value": "<p style=\"text-align: justify;\">Enquanto estiver sob efeito de Inspira&ccedil;&atilde;o, sempre que voc&ecirc; acertar um ataque corpo a corpo, pode gastar 1 PM para causar 1d6 de dano adicional de &aacute;cido, eletricidade, fogo ou frio, a sua escolha. Para cada quatro n&iacute;veis que possuir, pode gastar +1 PM para aumentar o dano em +1d6.</p>\n<p style=\"text-align: justify;\"><em>Pr&eacute;-requisito:</em> Golpe M&aacute;gico.</p>",
      "chat": "",
      "unidentified": ""
    },
    "source": "T20, pg. 45 (JdA)",
    "ativacao": {
      "execucao": "",
      "custo": 1,
      "qtd": "",
      "condicao": "",
      "special": ""
    },
    "duracao": {
      "value": 0,
      "units": "",
      "special": ""
    },
    "target": {
      "value": null,
      "width": null,
      "units": "",
      "type": ""
    },
    "range": {
      "value": null,
      "units": ""
    },
    "consume": {
      "type": "",
      "target": "",
      "amount": null,
      "mpMultiplier": false
    },
    "efeito": "",
    "alcance": "none",
    "alvo": "",
    "area": "",
    "resistencia": {
      "pericia": "",
      "atributo": "sab",
      "bonus": 0,
      "txt": ""
    },
    "rolls": [
      {
        "name": "Dano",
        "key": "dano0",
        "type": "dano",
        "parts": [
          [
            "1d6",
            "acido",
            ""
          ]
        ],
        "versatil": ""
      }
    ],
    "tipo": "classe",
    "subtipo": "Bardo",
    "chatFlavor": "",
    "origin": "",
    "tags": [],
    "chatGif": ""
  },
  "ownership": {
    "default": 0
  },
  "_stats": {
    "systemId": "tormenta20",
    "systemVersion": "1.4.116",
    "coreVersion": "11.298",
    "createdTime": 1658361717638,
    "modifiedTime": 1684630371462,
    "lastModifiedBy": "ZWR5Tn3AhSIFqwp6"
  },
  "_key": "!items!h1TMOvejmrtb8CJv"
}
