{
  "folder": "VzNpCz1wSE1Ln6lH",
  "name": "Guerra",
  "sorting": "a",
  "type": "Item",
  "_id": "kdQy5G7zb5MvHB7N",
  "sort": 0,
  "flags": {},
  "_stats": {
    "systemId": null,
    "systemVersion": null,
    "coreVersion": null,
    "createdTime": null,
    "modifiedTime": null,
    "lastModifiedBy": null
  },
  "_key": "!folders!kdQy5G7zb5MvHB7N"
}
