{
  "_id": "5Ti6oLK8wRgjLWcM",
  "name": "Inexpugnável",
  "type": "poder",
  "img": "systems/tormenta20/icons/poderes/combate.webp",
  "effects": [
    {
      "_id": "oIYXRlRRgP8hH5ZD",
      "flags": {
        "t20": null,
        "tormenta20": {
          "onuse": false,
          "durationScene": false
        }
      },
      "changes": [
        {
          "key": "system.modificadores.pericias.resistencia",
          "mode": 2,
          "value": "2",
          "priority": null
        },
        {
          "key": "system.attributes.defesa.bonus",
          "mode": 2,
          "value": "2",
          "priority": null
        }
      ],
      "disabled": false,
      "duration": {
        "startTime": null,
        "seconds": null,
        "combat": null,
        "rounds": null,
        "turns": null,
        "startRound": null,
        "startTurn": null
      },
      "icon": "systems/tormenta20/icons/poderes/combate.webp",
      "label": "Inexpugnável",
      "origin": "Item.ofN9uZsId4T5D8Up",
      "tint": null,
      "transfer": true,
      "_key": "!items.effects!5Ti6oLK8wRgjLWcM.oIYXRlRRgP8hH5ZD"
    }
  ],
  "folder": "Rgbah8U70jOKi5DF",
  "sort": 0,
  "flags": {
    "core": {
      "sourceId": "Compendium.tormenta20.poderes.5Ti6oLK8wRgjLWcM"
    }
  },
  "system": {
    "description": {
      "value": "<p style=\"text-align: justify;\">Se estiver usando uma armadura pesada, voc&ecirc; recebe +2 em todos os testes de resist&ecirc;ncia.</p>\n<p style=\"text-align: justify;\"><em>Pr&eacute;-requisitos:</em> Encoura&ccedil;ado, 6&ordm; n&iacute;vel de personagem.</p>",
      "chat": "",
      "unidentified": ""
    },
    "source": "T20, pg. 128 (JdA)",
    "ativacao": {
      "execucao": "",
      "custo": 0,
      "qtd": "",
      "condicao": "",
      "special": ""
    },
    "duracao": {
      "value": 0,
      "units": "",
      "special": ""
    },
    "target": {
      "value": null,
      "width": null,
      "units": "",
      "type": ""
    },
    "range": {
      "value": null,
      "units": ""
    },
    "consume": {
      "type": "",
      "target": "",
      "amount": null,
      "mpMultiplier": false
    },
    "efeito": "",
    "alcance": "none",
    "alvo": "",
    "area": "",
    "resistencia": {
      "pericia": "",
      "atributo": "sab",
      "bonus": 0,
      "txt": ""
    },
    "rolls": [],
    "tipo": "geral",
    "subtipo": "Combate",
    "origin": "",
    "tags": [],
    "chatFlavor": "",
    "chatGif": ""
  },
  "ownership": {
    "default": 0
  },
  "_stats": {
    "systemId": "tormenta20",
    "systemVersion": "1.4.116",
    "coreVersion": "11.298",
    "createdTime": 1664306183314,
    "modifiedTime": 1684630371462,
    "lastModifiedBy": "ZWR5Tn3AhSIFqwp6"
  },
  "_key": "!items!5Ti6oLK8wRgjLWcM"
}
