{
  "_id": "j5i0waPbVtZY6yTW",
  "name": "Inspirar Glória",
  "type": "poder",
  "img": "systems/tormenta20/icons/classes/nobre.webp",
  "effects": [],
  "folder": "1gk4CeDo7oR1b0oD",
  "sort": 0,
  "flags": {
    "core": {
      "sourceId": "Compendium.tormenta20.poderes.j5i0waPbVtZY6yTW"
    }
  },
  "system": {
    "description": {
      "value": "<p style=\"text-align: justify;\">A presen&ccedil;a de um nobre motiva as pessoas a realizarem grandes fa&ccedil;anhas. Uma vez por rodada, voc&ecirc; pode gastar 5 PM para fazer um aliado em alcance curto ganhar uma a&ccedil;&atilde;o padr&atilde;o adicional no pr&oacute;ximo turno dele. Voc&ecirc; s&oacute; pode usar esta habilidade uma vez por cena em cada aliado.</p>\n<p style=\"text-align: justify;\">Pr&eacute;-requisitos: Inspirar Confian&ccedil;a, 8&ordm; n&iacute;vel de nobre.</p>",
      "chat": "",
      "unidentified": ""
    },
    "source": "T20, pg. 80 (JdA)",
    "ativacao": {
      "execucao": "",
      "custo": 5,
      "qtd": "",
      "condicao": "",
      "special": ""
    },
    "duracao": {
      "value": 0,
      "units": "",
      "special": ""
    },
    "target": {
      "value": null,
      "width": null,
      "units": "",
      "type": ""
    },
    "range": {
      "value": null,
      "units": ""
    },
    "consume": {
      "type": "",
      "target": "",
      "amount": null,
      "mpMultiplier": false
    },
    "efeito": "",
    "alcance": "none",
    "alvo": "",
    "area": "",
    "resistencia": {
      "pericia": "",
      "atributo": "sab",
      "bonus": 0,
      "txt": ""
    },
    "rolls": [],
    "tipo": "classe",
    "subtipo": "Nobre",
    "origin": "",
    "tags": [],
    "chatFlavor": "",
    "chatGif": ""
  },
  "ownership": {
    "default": 0
  },
  "_stats": {
    "systemId": "tormenta20",
    "systemVersion": "1.4.116",
    "coreVersion": "11.298",
    "createdTime": 1664306185126,
    "modifiedTime": 1684630371462,
    "lastModifiedBy": "ZWR5Tn3AhSIFqwp6"
  },
  "_key": "!items!j5i0waPbVtZY6yTW"
}
