{
  "name": "Inventário organizado",
  "type": "poder",
  "img": "systems/tormenta20/icons/poderes/destino.webp",
  "effects": [
    {
      "label": "Inventário organizado",
      "icon": "systems/tormenta20/icons/poderes/destino.webp",
      "origin": "Item.4JUP8DbkCkOZguQb",
      "tint": "#FFFFFF",
      "flags": {
        "tormenta20": {
          "onuse": false,
          "durationScene": false
        }
      },
      "duration": {
        "startTime": null,
        "seconds": null,
        "combat": null,
        "rounds": null,
        "turns": null,
        "startRound": null,
        "startTurn": null
      },
      "disabled": false,
      "_id": "1MpEavtjpRyxiFDk",
      "changes": [
        {
          "key": "system.attributes.carga.bonus",
          "mode": 2,
          "value": "@int",
          "priority": null
        },
        {
          "key": "flags.tormenta20.inventarioOrganizado",
          "mode": 5,
          "value": "true",
          "priority": null
        }
      ],
      "transfer": true,
      "_key": "!items.effects!4JUP8DbkCkOZguQb.1MpEavtjpRyxiFDk"
    }
  ],
  "flags": {
    "core": {
      "sourceId": "Compendium.tormenta20.poderes.2cbFrAuQY6dmk8eS"
    }
  },
  "system": {
    "description": {
      "value": "<p style=\"text-align: justify;\">Voc&ecirc; soma sua Intelig&ecirc;ncia no limite de espa&ccedil;os que pode carregar. Para voc&ecirc;, itens muito leves ou pequenos, que normalmente ocupam meio espa&ccedil;o, em vez disso ocupam 1/4 de espa&ccedil;o.</p>\n<p style=\"text-align: justify;\">Pr&eacute;-requisito: Int 1.&nbsp;</p>",
      "chat": "",
      "unidentified": ""
    },
    "source": "T20, pg. 130 (JdA)",
    "ativacao": {
      "execucao": "",
      "custo": null,
      "qtd": "",
      "condicao": "",
      "special": ""
    },
    "duracao": {
      "value": 0,
      "units": "",
      "special": ""
    },
    "target": {
      "value": null,
      "width": null,
      "units": "",
      "type": ""
    },
    "range": {
      "value": null,
      "units": ""
    },
    "consume": {
      "type": "",
      "target": "",
      "amount": null,
      "mpMultiplier": false
    },
    "efeito": "",
    "alcance": "none",
    "alvo": "",
    "area": "",
    "resistencia": {
      "pericia": "",
      "atributo": "sab",
      "bonus": 0,
      "txt": ""
    },
    "rolls": [],
    "tipo": "geral",
    "subtipo": "Destino",
    "origin": "",
    "tags": [],
    "chatFlavor": "",
    "chatGif": ""
  },
  "_stats": {
    "systemId": "tormenta20",
    "systemVersion": "1.4.116",
    "coreVersion": "11.298",
    "createdTime": 1664306183302,
    "modifiedTime": 1684630371462,
    "lastModifiedBy": "ZWR5Tn3AhSIFqwp6"
  },
  "_id": "4JUP8DbkCkOZguQb",
  "folder": "NvFFFNI6JHPuMkck",
  "sort": 0,
  "ownership": {
    "default": 0,
    "tIn9sSkrT3mDWirx": 3
  },
  "_key": "!items!4JUP8DbkCkOZguQb"
}
