{
  "folder": "tKVyoHS7abjxuJhg",
  "name": "Magia",
  "sorting": "a",
  "type": "Item",
  "_id": "Kye2KzNfCgJW92Kb",
  "sort": 0,
  "flags": {},
  "_stats": {
    "systemId": null,
    "systemVersion": null,
    "coreVersion": null,
    "createdTime": null,
    "modifiedTime": null,
    "lastModifiedBy": null
  },
  "_key": "!folders!Kye2KzNfCgJW92Kb"
}
