{
  "_id": "xn9RfAp79NWrXSYI",
  "name": "Medo de Altura",
  "type": "poder",
  "img": "systems/tormenta20/icons/racas/minotauro.webp",
  "effects": [],
  "folder": "a4zeBAMZyYPB6hKz",
  "sort": 0,
  "flags": {
    "core": {
      "sourceId": "Compendium.tormenta20.poderes.xn9RfAp79NWrXSYI"
    }
  },
  "system": {
    "description": {
      "value": "<p style=\"text-align: justify;\">Se estiver adjacente a uma queda de 3m ou mais de altura (como um buraco ou penhasco), voc&ecirc; fica <a class=\"content-link\" draggable=\"true\" data-uuid=\"Compendium.tormenta20.condicoes.yEjDYaD3JjGSY2Tu\" data-id=\"yEjDYaD3JjGSY2Tu\" data-type=\"JournalEntry\" data-pack=\"tormenta20.condicoes\" data-tooltip=\"Registro de Di&aacute;rio\">Abalado</a></p>",
      "chat": "",
      "unidentified": ""
    },
    "source": "T20, pg. 25 (JdA)",
    "ativacao": {
      "execucao": "",
      "custo": 0,
      "qtd": "",
      "condicao": "",
      "special": ""
    },
    "duracao": {
      "value": 0,
      "units": "",
      "special": ""
    },
    "target": {
      "value": null,
      "width": null,
      "units": "",
      "type": ""
    },
    "range": {
      "value": null,
      "units": ""
    },
    "consume": {
      "type": "",
      "target": "",
      "amount": null,
      "mpMultiplier": false
    },
    "efeito": "",
    "alcance": "none",
    "alvo": "",
    "area": "",
    "resistencia": {
      "pericia": "",
      "atributo": "sab",
      "bonus": 0,
      "txt": ""
    },
    "rolls": [],
    "tipo": "racial",
    "subtipo": "Minotauro",
    "origin": "",
    "tags": [],
    "chatFlavor": "",
    "chatGif": ""
  },
  "ownership": {
    "default": 0
  },
  "_stats": {
    "systemId": "tormenta20",
    "systemVersion": "1.4.116",
    "coreVersion": "11.298",
    "createdTime": 1664306185703,
    "modifiedTime": 1684630371462,
    "lastModifiedBy": "ZWR5Tn3AhSIFqwp6"
  },
  "_key": "!items!xn9RfAp79NWrXSYI"
}
