{
  "_id": "blqTFW9pH3uDbeiL",
  "name": "Nome na Arena",
  "type": "poder",
  "img": "systems/tormenta20/icons/classes/lutador.webp",
  "effects": [
    {
      "label": "Nome na Arena",
      "icon": "systems/tormenta20/icons/classes/lutador.webp",
      "origin": "Item.blqTFW9pH3uDbeiL",
      "tint": "#FFFFFF",
      "flags": {
        "tormenta20": {
          "onuse": false,
          "durationScene": true
        }
      },
      "duration": {
        "rounds": 1,
        "startTime": null,
        "seconds": null,
        "combat": null,
        "turns": null,
        "startRound": null,
        "startTurn": null
      },
      "disabled": false,
      "_id": "l4T93FArxqxdBPUv",
      "changes": [
        {
          "key": "system.modificadores.pericias.car",
          "mode": 2,
          "value": "2",
          "priority": null
        }
      ],
      "transfer": false,
      "_key": "!items.effects!blqTFW9pH3uDbeiL.l4T93FArxqxdBPUv"
    },
    {
      "label": "Nome na Arena",
      "icon": "icons/svg/upgrade.svg",
      "origin": "Item.blqTFW9pH3uDbeiL",
      "tint": "#FFFFFF",
      "flags": {
        "tormenta20": {
          "onuse": true,
          "durationScene": false,
          "self": true,
          "attack": false,
          "skill": false,
          "ability": false,
          "power": false,
          "spell": false,
          "consumable": false,
          "items": "",
          "aumenta": true,
          "custo": "",
          "equipment": false
        }
      },
      "duration": {
        "startTime": null,
        "seconds": null,
        "combat": null,
        "rounds": null,
        "turns": null,
        "startRound": null,
        "startTurn": null
      },
      "disabled": true,
      "_id": "2miLP8DhWYLUBbvx",
      "changes": [
        {
          "key": "system.modificadores.pericias.car",
          "mode": 2,
          "value": "2",
          "priority": 0
        }
      ],
      "transfer": false,
      "_key": "!items.effects!blqTFW9pH3uDbeiL.2miLP8DhWYLUBbvx"
    }
  ],
  "folder": "csRpG81AedPycko0",
  "sort": 0,
  "flags": {
    "core": {
      "sourceId": "Compendium.tormenta20.poderes.blqTFW9pH3uDbeiL"
    }
  },
  "system": {
    "description": {
      "value": "<p style=\"text-align: justify;\">Voc&ecirc; construiu uma reputa&ccedil;&atilde;o no circuito de lutas de Arton. Uma vez por cena, pode gastar uma a&ccedil;&atilde;o completa para fazer um teste de Luta (CD 10) e impressionar os presentes. Se passar, voc&ecirc; recebe +2 em todos os seus testes de per&iacute;cias originalmente baseadas em Carisma at&eacute; o fim da cena e a atitude de qualquer pessoa que seja f&atilde; de lutas aumenta em uma categoria em rela&ccedil;&atilde;o a voc&ecirc; (veja a p&aacute;gina 259). Esse b&ocirc;nus aumenta em +2 para cada 10 pontos pelos quais o resultado do teste exceder a CD (+4 para um resultado 20, +6 para 30 e assim por diante).</p>\n<p style=\"text-align: justify;\">Pr&eacute;-requisito: 11&ordm; n&iacute;vel de lutador.&nbsp;</p>",
      "chat": "",
      "unidentified": ""
    },
    "source": "T20, pg. 77 (JdA)",
    "ativacao": {
      "execucao": "move",
      "custo": 0,
      "qtd": "",
      "condicao": "",
      "special": ""
    },
    "duracao": {
      "value": 0,
      "units": "",
      "special": ""
    },
    "target": {
      "value": null,
      "width": null,
      "units": "",
      "type": ""
    },
    "range": {
      "value": null,
      "units": ""
    },
    "consume": {
      "type": "",
      "target": "",
      "amount": null,
      "mpMultiplier": false
    },
    "efeito": "",
    "alcance": "none",
    "alvo": "",
    "area": "",
    "resistencia": {
      "pericia": "",
      "atributo": "sab",
      "bonus": 0,
      "txt": ""
    },
    "rolls": [],
    "tipo": "classe",
    "subtipo": "Lutador",
    "origin": "",
    "tags": [],
    "chatFlavor": "",
    "chatGif": ""
  },
  "ownership": {
    "default": 0
  },
  "_stats": {
    "systemId": "tormenta20",
    "systemVersion": "1.4.116",
    "coreVersion": "11.298",
    "createdTime": 1664306184741,
    "modifiedTime": 1684630371462,
    "lastModifiedBy": "ZWR5Tn3AhSIFqwp6"
  },
  "_key": "!items!blqTFW9pH3uDbeiL"
}
