{
  "_id": "TkaYPJLuESGIEH1q",
  "name": "Olhos Vermelhos",
  "type": "poder",
  "img": "systems/tormenta20/icons/poderes/tormenta.webp",
  "effects": [
    {
      "_id": "45VyrnQCT1RrzODP",
      "changes": [
        {
          "key": "system.pericias.inti.bonus",
          "mode": 2,
          "value": "1+(@Tormenta2*1)"
        },
        {
          "key": "system.attributes.sentidos.value",
          "mode": 2,
          "value": "escuro"
        }
      ],
      "disabled": false,
      "duration": {
        "startTime": null,
        "seconds": null,
        "combat": null,
        "rounds": null,
        "turns": null,
        "startRound": null,
        "startTurn": null
      },
      "icon": "systems/tormenta20/icons/poderes/tormenta.webp",
      "label": "Olhos Vermelhos",
      "origin": "Item.eCQmxfdpQvaxfNA5",
      "transfer": true,
      "flags": {
        "tormenta20": {
          "onuse": false,
          "durationScene": false
        }
      },
      "tint": null,
      "_key": "!items.effects!TkaYPJLuESGIEH1q.45VyrnQCT1RrzODP"
    }
  ],
  "folder": "m6ny7g3VciUkKZ3t",
  "sort": 0,
  "flags": {
    "core": {
      "sourceId": "Compendium.tormenta20.poderes.TkaYPJLuESGIEH1q"
    }
  },
  "system": {
    "description": {
      "value": "<p style=\"text-align:justify;\">Você recebe visão no escuro e +1 em Intimidação. Este bônus aumenta em +1 para cada dois outros poderes da Tormenta que você possui.</p>",
      "chat": "",
      "unidentified": ""
    },
    "source": "T20, pg. 137 (JdA)",
    "ativacao": {
      "execucao": "",
      "custo": 0,
      "qtd": "",
      "condicao": "",
      "special": ""
    },
    "duracao": {
      "value": 0,
      "units": "",
      "special": ""
    },
    "target": {
      "value": null,
      "width": null,
      "units": "",
      "type": ""
    },
    "range": {
      "value": null,
      "units": ""
    },
    "consume": {
      "type": "",
      "target": "",
      "amount": null,
      "mpMultiplier": false
    },
    "efeito": "",
    "alcance": "none",
    "alvo": "",
    "area": "",
    "resistencia": {
      "pericia": "",
      "atributo": "sab",
      "bonus": 0,
      "txt": ""
    },
    "rolls": [],
    "tipo": "geral",
    "subtipo": "Tormenta",
    "chatFlavor": "",
    "tags": [
      "Tormenta",
      "Tormenta"
    ],
    "origin": "",
    "chatGif": "",
    "rolltags": [
      "Tormenta"
    ]
  },
  "ownership": {
    "default": 0
  },
  "_stats": {
    "systemId": "tormenta20",
    "systemVersion": "1.4.116",
    "coreVersion": "11.298",
    "createdTime": 1664306184313,
    "modifiedTime": 1684803464641,
    "lastModifiedBy": "ZWR5Tn3AhSIFqwp6"
  },
  "_key": "!items!TkaYPJLuESGIEH1q"
}
