{
  "_id": "FMARatZUFe4vthFx",
  "name": "Ponto Fraco",
  "type": "poder",
  "img": "systems/tormenta20/icons/classes/cacador.webp",
  "effects": [
    {
      "_id": "U1stxYF5tsXFZ1CD",
      "flags": {
        "t20": null,
        "tormenta20": {
          "onuse": true,
          "self": false,
          "attack": false,
          "skill": false,
          "ability": false,
          "power": true,
          "spell": false,
          "consumable": false,
          "aumenta": false,
          "custo": "",
          "durationScene": false,
          "items": "Marca da Presa"
        }
      },
      "changes": [
        {
          "key": "efeito.criticoM",
          "mode": 2,
          "value": "-2",
          "priority": 99
        }
      ],
      "disabled": true,
      "duration": {
        "startTime": null,
        "seconds": null,
        "combat": null,
        "rounds": null,
        "turns": null,
        "startRound": null,
        "startTurn": null
      },
      "icon": "icons/svg/aura.svg",
      "label": "Ponto Fraco",
      "origin": "Item.DEDm10ZFtyc7yAZC",
      "tint": null,
      "transfer": true,
      "_key": "!items.effects!FMARatZUFe4vthFx.U1stxYF5tsXFZ1CD"
    }
  ],
  "folder": "iT3rUBmGhu5hbNic",
  "sort": 1300000,
  "flags": {
    "core": {
      "sourceId": "Compendium.tormenta20.poderes.FMARatZUFe4vthFx"
    }
  },
  "system": {
    "description": {
      "value": "<p style=\"text-align:justify;\">Quando usa a habilidade Marca da Presa, seus ataques contra a criatura marcada recebem +2 na margem de ameaça. Esse bônus dobra com a habilidade Inimigo.</p>",
      "chat": "",
      "unidentified": ""
    },
    "source": "T20, pg. 51 (JdA)",
    "ativacao": {
      "execucao": "",
      "custo": 0,
      "qtd": "",
      "condicao": "",
      "special": ""
    },
    "duracao": {
      "value": 0,
      "units": "",
      "special": ""
    },
    "target": {
      "value": null,
      "width": null,
      "units": "",
      "type": ""
    },
    "range": {
      "value": null,
      "units": ""
    },
    "consume": {
      "type": "",
      "target": "",
      "amount": null,
      "mpMultiplier": false
    },
    "efeito": "",
    "alcance": "none",
    "alvo": "",
    "area": "",
    "resistencia": {
      "pericia": "",
      "atributo": "sab",
      "bonus": 0,
      "txt": ""
    },
    "rolls": [],
    "tipo": "classe",
    "subtipo": "Caçador",
    "chatFlavor": "",
    "origin": "",
    "tags": [],
    "chatGif": ""
  },
  "ownership": {
    "default": 0
  },
  "_stats": {
    "systemId": "tormenta20",
    "systemVersion": "1.4.116",
    "coreVersion": "11.298",
    "createdTime": 1658361716918,
    "modifiedTime": 1684630426990,
    "lastModifiedBy": "ZWR5Tn3AhSIFqwp6"
  },
  "_key": "!items!FMARatZUFe4vthFx"
}
