{
  "_id": "fMPpoRJLmsV6ZADR",
  "name": "Postura de Combate: Provocação Petulante",
  "type": "poder",
  "img": "systems/tormenta20/icons/classes/cavaleiro.webp",
  "effects": [],
  "folder": "FOdOQA7oDXTWqj5Z",
  "sort": 0,
  "flags": {
    "core": {
      "sourceId": "Compendium.tormenta20.poderes.fMPpoRJLmsV6ZADR"
    }
  },
  "system": {
    "description": {
      "value": "<p style=\"text-align: justify;\">Enquanto esta postura estiver ativa, todos os inimigos que iniciarem seus turnos em alcance curto devem fazer um teste de Vontade (CD Car). Se falharem, qualquer a&ccedil;&atilde;o hostil que realizarem deve ter voc&ecirc; como alvo (mas suas outras a&ccedil;&otilde;es n&atilde;o t&ecirc;m esta restri&ccedil;&atilde;o). A&ccedil;&otilde;es hostis incluem ataques e outras a&ccedil;&otilde;es que causem dano e/ou condi&ccedil;&otilde;es negativas. <em>Mental.</em></p>\n<p style=\"text-align: justify;\"><strong>Posturas de Combate</strong></p>\n<p style=\"text-align: justify;\">Posturas de Combate compartilham as seguintes regras.</p>\n<p style=\"text-align: justify;\">&bull; Assumir uma postura gasta uma a&ccedil;&atilde;o de movimento e 2 PM.</p>\n<p style=\"text-align: justify;\">&bull; Os efeitos de uma postura duram at&eacute; o final da cena, a menos que sua descri&ccedil;&atilde;o diga o contr&aacute;rio.</p>\n<p style=\"text-align: justify;\">&bull; Voc&ecirc; s&oacute; pode manter uma postura por vez.</p>\n<p style=\"text-align: justify;\">&nbsp;</p>",
      "chat": "",
      "unidentified": ""
    },
    "source": "T20, pg. 54 (JdA)",
    "ativacao": {
      "execucao": "move",
      "custo": 2,
      "qtd": "",
      "condicao": "",
      "special": ""
    },
    "duracao": {
      "value": 0,
      "units": "",
      "special": ""
    },
    "target": {
      "value": null,
      "width": null,
      "units": "",
      "type": ""
    },
    "range": {
      "value": null,
      "units": ""
    },
    "consume": {
      "type": "",
      "target": "",
      "amount": null,
      "mpMultiplier": false
    },
    "efeito": "",
    "alcance": "none",
    "alvo": "",
    "area": "",
    "resistencia": {
      "pericia": "",
      "atributo": "car",
      "bonus": 0,
      "txt": "Vontade"
    },
    "rolls": [],
    "tipo": "classe",
    "subtipo": "Cavaleiro",
    "origin": "",
    "tags": [],
    "chatFlavor": "",
    "chatGif": ""
  },
  "ownership": {
    "default": 0
  },
  "_stats": {
    "systemId": "tormenta20",
    "systemVersion": "1.4.116",
    "coreVersion": "11.298",
    "createdTime": 1664306184750,
    "modifiedTime": 1684630371462,
    "lastModifiedBy": "ZWR5Tn3AhSIFqwp6"
  },
  "_key": "!items!fMPpoRJLmsV6ZADR"
}
