{
  "_id": "awFA3yTlIpj82lLb",
  "name": "Presença Majestosa",
  "type": "poder",
  "img": "systems/tormenta20/icons/classes/nobre.webp",
  "effects": [
    {
      "label": "Presença Majestosa",
      "icon": "icons/svg/upgrade.svg",
      "origin": "Item.awFA3yTlIpj82lLb",
      "tint": "#FFFFFF",
      "flags": {
        "tormenta20": {
          "onuse": true,
          "durationScene": false,
          "self": false,
          "attack": false,
          "skill": false,
          "ability": false,
          "power": true,
          "spell": false,
          "consumable": false,
          "items": "presenca aristocratica",
          "aumenta": false,
          "custo": ""
        }
      },
      "duration": {
        "startTime": null,
        "seconds": null,
        "combat": null,
        "rounds": null,
        "turns": null,
        "startRound": null,
        "startTurn": null
      },
      "disabled": true,
      "_id": "wMFuDl0hA0mnlbv3",
      "changes": [],
      "transfer": true,
      "_key": "!items.effects!awFA3yTlIpj82lLb.wMFuDl0hA0mnlbv3"
    }
  ],
  "folder": "1gk4CeDo7oR1b0oD",
  "sort": 0,
  "flags": {
    "core": {
      "sourceId": "Compendium.tormenta20.poderes.awFA3yTlIpj82lLb"
    }
  },
  "system": {
    "description": {
      "value": "<p style=\"text-align: justify;\">Sua Presen&ccedil;a Aristocr&aacute;tica passa a funcionar contra qualquer criatura com valor de Intelig&ecirc;ncia (passa a afetar at&eacute; mesmo animais, embora continue n&atilde;o funcionando contra criaturas sem Int). Al&eacute;m disso, voc&ecirc; pode us&aacute;-la mais de uma vez contra uma mesma criatura na mesma cena.</p>\n<p style=\"text-align: justify;\"><em>Pr&eacute;-requisitos:</em> 16&ordm; n&iacute;vel de nobre.&nbsp;</p>",
      "chat": "",
      "unidentified": ""
    },
    "source": "T20, pg. 80 (JdA)",
    "ativacao": {
      "execucao": "",
      "custo": 0,
      "qtd": "",
      "condicao": "",
      "special": ""
    },
    "duracao": {
      "value": 0,
      "units": "",
      "special": ""
    },
    "target": {
      "value": null,
      "width": null,
      "units": "",
      "type": ""
    },
    "range": {
      "value": null,
      "units": ""
    },
    "consume": {
      "type": "",
      "target": "",
      "amount": null,
      "mpMultiplier": false
    },
    "efeito": "",
    "alcance": "none",
    "alvo": "",
    "area": "",
    "resistencia": {
      "pericia": "",
      "atributo": "sab",
      "bonus": 0,
      "txt": ""
    },
    "rolls": [],
    "tipo": "classe",
    "subtipo": "Nobre",
    "origin": "",
    "tags": [],
    "chatFlavor": "",
    "chatGif": ""
  },
  "ownership": {
    "default": 0
  },
  "_stats": {
    "systemId": "tormenta20",
    "systemVersion": "1.4.116",
    "coreVersion": "11.298",
    "createdTime": 1664306184738,
    "modifiedTime": 1684630371462,
    "lastModifiedBy": "ZWR5Tn3AhSIFqwp6"
  },
  "_key": "!items!awFA3yTlIpj82lLb"
}
