{
  "_id": "bNv2Rufni0aDDnbI",
  "name": "Sorte dos Loucos",
  "type": "poder",
  "img": "systems/tormenta20/icons/poderes/concedidos-sorte.webp",
  "effects": [],
  "folder": "74WiiBNZUXs5SvJm",
  "sort": 0,
  "flags": {
    "core": {
      "sourceId": "Compendium.tormenta20.poderes.bNv2Rufni0aDDnbI"
    }
  },
  "system": {
    "description": {
      "value": "<p style=\"text-align:justify;\">Você pode pagar 1 PM para rolar novamente um teste recém realizado. Se ainda assim falhar no teste, você perde 1d6 PM.</p>",
      "chat": "",
      "unidentified": ""
    },
    "source": "",
    "ativacao": {
      "execucao": "",
      "custo": 1,
      "qtd": "",
      "condicao": "",
      "special": ""
    },
    "duracao": {
      "value": 0,
      "units": "",
      "special": ""
    },
    "target": {
      "value": null,
      "width": null,
      "units": "",
      "type": ""
    },
    "range": {
      "value": null,
      "units": ""
    },
    "consume": {
      "type": "",
      "target": "",
      "amount": null,
      "mpMultiplier": false
    },
    "efeito": "",
    "alcance": "none",
    "alvo": "",
    "area": "",
    "resistencia": {
      "pericia": "",
      "atributo": "sab",
      "bonus": 0,
      "txt": ""
    },
    "rolls": [
      {
        "name": "PM Perdido",
        "key": "dano0",
        "type": "dano",
        "parts": [
          [
            "1d6",
            "curapm",
            ""
          ]
        ],
        "versatil": ""
      }
    ],
    "tipo": "concedido",
    "subtipo": "Caos",
    "origin": "",
    "tags": [],
    "chatFlavor": "",
    "chatGif": ""
  },
  "ownership": {
    "default": 0
  },
  "_stats": {
    "systemId": "tormenta20",
    "systemVersion": "1.4.116",
    "coreVersion": "11.298",
    "createdTime": 1664306184740,
    "modifiedTime": 1684630371462,
    "lastModifiedBy": "ZWR5Tn3AhSIFqwp6"
  },
  "_key": "!items!bNv2Rufni0aDDnbI"
}
