{
  "folder": "QGUINw3j11V74Mmz",
  "name": "Suraggel (Sulfure)",
  "sorting": "a",
  "type": "Item",
  "_id": "ynxWPPRSK2yaInsF",
  "sort": 0,
  "flags": {},
  "_stats": {
    "systemId": null,
    "systemVersion": null,
    "coreVersion": null,
    "createdTime": null,
    "modifiedTime": null,
    "lastModifiedBy": null
  },
  "_key": "!folders!ynxWPPRSK2yaInsF"
}
