{
  "_id": "lQuRjelAvkrV6nVY",
  "name": "Transformação Anfíbia",
  "type": "poder",
  "img": "systems/tormenta20/icons/racas/sereia.webp",
  "effects": [
    {
      "label": "Transformação Anfíbia",
      "icon": "systems/tormenta20/icons/racas/sereia.webp",
      "origin": "Item.lQuRjelAvkrV6nVY",
      "tint": "#FFFFFF",
      "flags": {
        "tormenta20": {
          "onuse": false,
          "durationScene": false
        }
      },
      "duration": {
        "startTime": null,
        "seconds": null,
        "combat": null,
        "rounds": null,
        "turns": null,
        "startRound": null,
        "startTurn": null
      },
      "disabled": false,
      "_id": "hhqKsZynz9bYIvP0",
      "changes": [
        {
          "key": "system.attributes.movement.swim",
          "mode": 2,
          "value": "12"
        }
      ],
      "transfer": true,
      "_key": "!items.effects!lQuRjelAvkrV6nVY.hhqKsZynz9bYIvP0"
    }
  ],
  "folder": "deNUAIMEeSNoJ1Tx",
  "sort": 0,
  "flags": {
    "core": {
      "sourceId": "Compendium.tormenta20.poderes.lQuRjelAvkrV6nVY"
    }
  },
  "system": {
    "description": {
      "value": "<p style=\"text-align:justify;\">Você pode respirar debaixo d’água e possui uma cauda que fornece deslocamento de natação 12m. Quando fora d’água, sua cauda desaparece e dá lugar a pernas (deslocamento 9m). Se permanecer mais de um dia sem contato com água, você não recupera PM com descanso até voltar para a água (ou, pelo menos, tomar um bom banho!).</p>",
      "chat": "",
      "unidentified": ""
    },
    "source": "T20, pg. 30 (JdA)",
    "ativacao": {
      "execucao": "",
      "custo": 0,
      "qtd": "",
      "condicao": "",
      "special": ""
    },
    "duracao": {
      "value": 0,
      "units": "",
      "special": ""
    },
    "target": {
      "value": null,
      "width": null,
      "units": "",
      "type": ""
    },
    "range": {
      "value": null,
      "units": ""
    },
    "consume": {
      "type": "",
      "target": "",
      "amount": null,
      "mpMultiplier": false
    },
    "efeito": "",
    "alcance": "none",
    "alvo": "",
    "area": "",
    "resistencia": {
      "pericia": "",
      "atributo": "sab",
      "bonus": 0,
      "txt": ""
    },
    "rolls": [],
    "tipo": "racial",
    "subtipo": "Sereia/tritão",
    "origin": "",
    "tags": [],
    "chatFlavor": "",
    "chatGif": ""
  },
  "ownership": {
    "default": 0
  },
  "_stats": {
    "systemId": "tormenta20",
    "systemVersion": "1.4.116",
    "coreVersion": "11.298",
    "createdTime": 1664306185143,
    "modifiedTime": 1684630371462,
    "lastModifiedBy": "ZWR5Tn3AhSIFqwp6"
  },
  "_key": "!items!lQuRjelAvkrV6nVY"
}
