{
  "_id": "EwDapR826hz2edl3",
  "name": "Transmissão da Loucura",
  "type": "poder",
  "img": "systems/tormenta20/icons/poderes/concedidos-sorte.webp",
  "effects": [
    {
      "label": "Transmissão da Loucura",
      "icon": "icons/svg/upgrade.svg",
      "origin": "Item.EwDapR826hz2edl3",
      "tint": "#FFFFFF",
      "flags": {
        "tormenta20": {
          "onuse": true,
          "durationScene": false,
          "self": false,
          "attack": false,
          "skill": false,
          "ability": false,
          "power": false,
          "spell": true,
          "consumable": false,
          "items": "",
          "aumenta": false,
          "custo": "-1"
        }
      },
      "duration": {
        "startTime": null,
        "seconds": null,
        "combat": null,
        "rounds": null,
        "turns": null,
        "startRound": null,
        "startTurn": null
      },
      "disabled": true,
      "_id": "2swdZ16AA9R0B1om",
      "changes": [],
      "transfer": true,
      "_key": "!items.effects!EwDapR826hz2edl3.2swdZ16AA9R0B1om"
    }
  ],
  "folder": "74WiiBNZUXs5SvJm",
  "sort": 0,
  "flags": {
    "core": {
      "sourceId": "Compendium.tormenta20.poderes.EwDapR826hz2edl3"
    }
  },
  "system": {
    "description": {
      "value": "<p style=\"text-align: justify;\">Voc&ecirc; pode lan&ccedil;ar <em>Sussurros Insanos</em> (CD Car). Caso aprenda novamente essa magia, seu custo diminui em &ndash;1 PM.</p>",
      "chat": "",
      "unidentified": ""
    },
    "source": "T20, pg. 135 (JdA)",
    "ativacao": {
      "execucao": "",
      "custo": 0,
      "qtd": "",
      "condicao": "",
      "special": ""
    },
    "duracao": {
      "value": 0,
      "units": "",
      "special": ""
    },
    "target": {
      "value": null,
      "width": null,
      "units": "",
      "type": ""
    },
    "range": {
      "value": null,
      "units": ""
    },
    "consume": {
      "type": "",
      "target": "",
      "amount": null,
      "mpMultiplier": false
    },
    "efeito": "",
    "alcance": "none",
    "alvo": "",
    "area": "",
    "resistencia": {
      "pericia": "",
      "atributo": "car",
      "bonus": 0,
      "txt": ""
    },
    "rolls": [],
    "tipo": "concedido",
    "subtipo": "Caos",
    "origin": "",
    "tags": [],
    "chatFlavor": "",
    "chatGif": ""
  },
  "ownership": {
    "default": 0
  },
  "_stats": {
    "systemId": "tormenta20",
    "systemVersion": "1.4.116",
    "coreVersion": "11.298",
    "createdTime": 1664306183831,
    "modifiedTime": 1684630371462,
    "lastModifiedBy": "ZWR5Tn3AhSIFqwp6"
  },
  "_key": "!items!EwDapR826hz2edl3"
}
