{
  "_id": "oInPEvobbtz7Us88",
  "name": "Trocação Tumultuosa",
  "type": "poder",
  "img": "systems/tormenta20/icons/classes/lutador.webp",
  "effects": [
    {
      "label": "Trocação Tulmutuosa",
      "icon": "icons/svg/upgrade.svg",
      "origin": "Item.oInPEvobbtz7Us88",
      "tint": "#FFFFFF",
      "flags": {
        "tormenta20": {
          "onuse": true,
          "durationScene": false,
          "self": false,
          "attack": true,
          "skill": false,
          "ability": false,
          "power": false,
          "spell": false,
          "consumable": false,
          "items": "",
          "aumenta": false,
          "custo": "2"
        }
      },
      "duration": {
        "startTime": null,
        "seconds": null,
        "combat": null,
        "rounds": null,
        "turns": null,
        "startRound": null,
        "startTurn": null
      },
      "disabled": true,
      "_id": "CWE9lC7xDlb0Ux4B",
      "changes": [],
      "transfer": true,
      "_key": "!items.effects!oInPEvobbtz7Us88.CWE9lC7xDlb0Ux4B"
    }
  ],
  "folder": "csRpG81AedPycko0",
  "sort": 0,
  "flags": {
    "core": {
      "sourceId": "Compendium.tormenta20.poderes.oInPEvobbtz7Us88"
    }
  },
  "system": {
    "description": {
      "value": "<p style=\"text-align: justify;\">Quando usa a a&ccedil;&atilde;o agredir para fazer um ataque desarmado, voc&ecirc; pode gastar 2 PM para atingir todas as criaturas adjacentes, incluindo aliados! Voc&ecirc; deve usar este poder antes de rolar o ataque e comparar o resultado de seu teste contra a Defesa de cada criatura.</p>\n<p style=\"text-align: justify;\"><em>Pr&eacute;-requisitos:</em> Troca&ccedil;&atilde;o, 8&ordm; n&iacute;vel de lutador.</p>",
      "chat": "",
      "unidentified": ""
    },
    "source": "T20, pg. 77 (JdA)",
    "ativacao": {
      "execucao": "reaction",
      "custo": 2,
      "qtd": "",
      "condicao": "antes de rolar o ataque",
      "special": ""
    },
    "duracao": {
      "value": 0,
      "units": "",
      "special": ""
    },
    "target": {
      "value": null,
      "width": null,
      "units": "",
      "type": ""
    },
    "range": {
      "value": null,
      "units": ""
    },
    "consume": {
      "type": "",
      "target": "",
      "amount": null,
      "mpMultiplier": false
    },
    "efeito": "",
    "alcance": "none",
    "alvo": "",
    "area": "",
    "resistencia": {
      "pericia": "",
      "atributo": "sab",
      "bonus": 0,
      "txt": ""
    },
    "rolls": [],
    "tipo": "classe",
    "subtipo": "Lutador",
    "origin": "",
    "tags": [],
    "chatFlavor": "",
    "chatGif": ""
  },
  "ownership": {
    "default": 0
  },
  "_stats": {
    "systemId": "tormenta20",
    "systemVersion": "1.4.116",
    "coreVersion": "11.298",
    "createdTime": 1664306185201,
    "modifiedTime": 1684630371462,
    "lastModifiedBy": "ZWR5Tn3AhSIFqwp6"
  },
  "_key": "!items!oInPEvobbtz7Us88"
}
