{
  "_id": "kV4orwvtjHg0Ao2M",
  "name": "Vanguardista",
  "type": "poder",
  "img": "systems/tormenta20/icons/racas/kliren.webp",
  "effects": [
    {
      "_id": "mhy8Q7cOewCV7sRW",
      "changes": [
        {
          "key": "roll",
          "mode": 2,
          "value": "2",
          "priority": null
        }
      ],
      "disabled": true,
      "duration": {
        "startTime": null,
        "seconds": null,
        "combat": null,
        "rounds": null,
        "turns": null,
        "startRound": null,
        "startTurn": null
      },
      "icon": "icons/svg/upgrade.svg",
      "label": "Vanguardista",
      "origin": "Item.ieotyiZtGBFmS38D",
      "transfer": true,
      "flags": {
        "tormenta20": {
          "onuse": true,
          "skill": true,
          "self": false,
          "attack": false,
          "ability": false,
          "power": false,
          "spell": false,
          "consumable": false,
          "aumenta": false,
          "custo": "",
          "durationScene": false
        }
      },
      "tint": null,
      "_key": "!items.effects!kV4orwvtjHg0Ao2M.mhy8Q7cOewCV7sRW"
    }
  ],
  "folder": "6zI7CiCTyZW5lI4F",
  "sort": 0,
  "flags": {
    "core": {
      "sourceId": "Compendium.tormenta20.poderes.kV4orwvtjHg0Ao2M"
    },
    "cf": null
  },
  "system": {
    "description": {
      "value": "<p style=\"text-align: justify;\">Voc&ecirc; recebe profici&ecirc;ncia em armas de fogo e +2 em testes de Of&iacute;cio (um qualquer, a sua escolha).</p>\n<p>&nbsp;</p>",
      "chat": "",
      "unidentified": ""
    },
    "source": "T20, pg. 28 (JdA)",
    "ativacao": {
      "execucao": "",
      "custo": 0,
      "qtd": "",
      "condicao": "",
      "special": ""
    },
    "duracao": {
      "value": 0,
      "units": "",
      "special": ""
    },
    "target": {
      "value": null,
      "width": null,
      "units": "",
      "type": ""
    },
    "range": {
      "value": null,
      "units": ""
    },
    "consume": {
      "type": "",
      "target": "",
      "amount": null,
      "mpMultiplier": false
    },
    "efeito": "",
    "alcance": "none",
    "alvo": "",
    "area": "",
    "resistencia": {
      "pericia": "",
      "atributo": "sab",
      "bonus": 0,
      "txt": ""
    },
    "rolls": [],
    "tipo": "racial",
    "subtipo": "Kliren",
    "chatFlavor": "",
    "origin": "",
    "tags": [],
    "chatGif": ""
  },
  "ownership": {
    "default": 0
  },
  "_stats": {
    "systemId": "tormenta20",
    "systemVersion": "1.4.116",
    "coreVersion": "11.298",
    "createdTime": 1664306185135,
    "modifiedTime": 1684630371462,
    "lastModifiedBy": "ZWR5Tn3AhSIFqwp6"
  },
  "_key": "!items!kV4orwvtjHg0Ao2M"
}
