{
  "_id": "5YQf7z7VdEbTW65Q",
  "name": "Virtude Paladinesca: Compaixão",
  "type": "poder",
  "img": "systems/tormenta20/icons/classes/paladino.webp",
  "effects": [
    {
      "label": "aumenta a cura em +2d6+1.",
      "icon": "icons/svg/upgrade.svg",
      "origin": "Item.5YQf7z7VdEbTW65Q",
      "tint": "#FFFFFF",
      "flags": {
        "tormenta20": {
          "onuse": true,
          "durationScene": false,
          "self": true,
          "attack": false,
          "skill": false,
          "ability": false,
          "power": false,
          "spell": false,
          "consumable": false,
          "items": "",
          "aumenta": true,
          "custo": "1",
          "equipment": false
        }
      },
      "duration": {
        "startTime": null,
        "seconds": null,
        "combat": null,
        "rounds": null,
        "turns": null,
        "startRound": null,
        "startTurn": null
      },
      "disabled": true,
      "_id": "D0iaeHWa251cdohb",
      "changes": [
        {
          "key": "dano",
          "mode": 0,
          "value": "2d6+1",
          "priority": 0
        }
      ],
      "transfer": false,
      "_key": "!items.effects!5YQf7z7VdEbTW65Q.D0iaeHWa251cdohb"
    }
  ],
  "folder": "VwM7ZxttHPFuX6M4",
  "sort": 0,
  "flags": {
    "core": {
      "sourceId": "Compendium.tormenta20.poderes.5YQf7z7VdEbTW65Q"
    }
  },
  "system": {
    "description": {
      "value": "<p style=\"text-align: justify;\">Voc&ecirc; pode usar Cura pelas M&atilde;os em alcance curto e, para cada PM que gastar, cura 2d6+1 (em vez de 1d8+1).</p>\n<p style=\"text-align: justify;\">&nbsp;</p>\n<p style=\"text-align: justify;\"><strong>Virtudes Paladinescas</strong></p>\n<p style=\"text-align: justify;\">Este conjunto de poderes representa obedi&ecirc;ncia veemente a um comportamento espec&iacute;fico. Voc&ecirc; recebe um b&ocirc;nus progressivo em seu total de pontos de mana de acordo com a quantidade de poderes desse tipo que possui: +1 PM para uma Virtude, +3 PM para duas, +6 PM para tr&ecirc;s, +10 PM para quatro e +15 PM para cinco Virtudes.</p>\n<p style=\"text-align: justify;\">Virtudes Paladinescas s&atilde;o poderosas, mas possuem uma contrapartida &mdash; voc&ecirc; deve se comportar de acordo com quaisquer Virtudes que possuir. Um paladino caridoso, por exemplo, deve sempre ajudar os necessitados, enquanto um casto nunca pode cair em tenta&ccedil;&atilde;o. N&atilde;o seguir uma Virtude Paladinesca que voc&ecirc; possua conta como uma viola&ccedil;&atilde;o do C&oacute;digo do Her&oacute;i.</p>\n<p style=\"text-align: justify;\">O mestre tem a palavra final sobre o que exatamente constitui uma viola&ccedil;&atilde;o.</p>",
      "chat": "",
      "unidentified": ""
    },
    "source": "T20, pg. 83 (JdA)",
    "ativacao": {
      "execucao": "move",
      "custo": 1,
      "qtd": "",
      "condicao": "",
      "special": ""
    },
    "duracao": {
      "value": 0,
      "units": "",
      "special": ""
    },
    "target": {
      "value": null,
      "width": null,
      "units": "",
      "type": ""
    },
    "range": {
      "value": null,
      "units": ""
    },
    "consume": {
      "type": "",
      "target": "",
      "amount": null,
      "mpMultiplier": false
    },
    "efeito": "",
    "alcance": "short",
    "alvo": "",
    "area": "",
    "resistencia": {
      "pericia": "",
      "atributo": "sab",
      "bonus": 0,
      "txt": ""
    },
    "rolls": [
      {
        "name": "Cura",
        "key": "dano0",
        "type": "dano",
        "parts": [
          [
            "2d6+1",
            "curapv",
            ""
          ]
        ],
        "versatil": ""
      }
    ],
    "tipo": "classe",
    "subtipo": "Paladino",
    "origin": "",
    "tags": [],
    "chatFlavor": "",
    "chatGif": ""
  },
  "ownership": {
    "default": 0
  },
  "_stats": {
    "systemId": "tormenta20",
    "systemVersion": "1.4.116",
    "coreVersion": "11.298",
    "createdTime": 1664306183316,
    "modifiedTime": 1684630371462,
    "lastModifiedBy": "ZWR5Tn3AhSIFqwp6"
  },
  "_key": "!items!5YQf7z7VdEbTW65Q"
}
