{
  "name": "Ataque Furtivo",
  "type": "poder",
  "img": "systems/tormenta20/icons/poderes/ameacas/ataque-furtivo.webp",
  "system": {
    "description": {
      "value": "<p style=\"text-align: justify;\">Uma vez por rodada, o chefe bandido causa +2d6 pontos de dano com ataques corpo a corpo, ou &agrave; dist&acirc;ncia em alcance curto, contra alvos&nbsp; esprevenidos ou que esteja flanqueando.</p>",
      "unidentified": ""
    },
    "source": "",
    "ativacao": {
      "execucao": "",
      "custo": 0,
      "qtd": "",
      "condicao": "",
      "special": ""
    },
    "duracao": {
      "value": 0,
      "units": "",
      "special": ""
    },
    "target": {
      "value": null,
      "width": null,
      "type": ""
    },
    "range": {
      "value": null,
      "units": ""
    },
    "consume": {
      "type": "",
      "target": "",
      "amount": null,
      "mpMultiplier": false
    },
    "efeito": "",
    "alcance": "none",
    "alvo": "",
    "area": "",
    "resistencia": {
      "pericia": "",
      "atributo": "",
      "bonus": 0,
      "txt": ""
    },
    "rolls": [
      {
        "name": "Dano",
        "key": "dano0",
        "type": "dano",
        "parts": [
          [
            "2d6",
            "corte",
            ""
          ]
        ],
        "versatil": ""
      }
    ],
    "tipo": "ability",
    "subtipo": "",
    "origin": "",
    "tags": [],
    "chatFlavor": "",
    "chatGif": ""
  },
  "effects": [
    {
      "label": "Ataque Furtivo",
      "icon": "icons/svg/upgrade.svg",
      "origin": "Item.4o2kchrTeo495pRf",
      "tint": "#FFFFFF",
      "flags": {
        "tormenta20": {
          "onuse": true,
          "durationScene": false,
          "self": false,
          "attack": true,
          "skill": false,
          "ability": false,
          "power": false,
          "equipment": false,
          "spell": false,
          "consumable": false,
          "items": "",
          "aumenta": false,
          "custo": ""
        }
      },
      "duration": {
        "startTime": null,
        "seconds": null,
        "combat": null,
        "rounds": null,
        "turns": null,
        "startRound": null,
        "startTurn": null
      },
      "disabled": true,
      "_id": "Owew6Yq96mSBToyC",
      "changes": [
        {
          "key": "dano",
          "mode": 2,
          "value": "2d6",
          "priority": 0
        }
      ],
      "transfer": true,
      "_key": "!items.effects!4o2kchrTeo495pRf.Owew6Yq96mSBToyC"
    }
  ],
  "flags": {},
  "_stats": {
    "systemId": "tormenta20",
    "systemVersion": "1.4.101",
    "coreVersion": "10.288",
    "createdTime": 1666321513948,
    "modifiedTime": 1668270615327,
    "lastModifiedBy": "tIn9sSkrT3mDWirx"
  },
  "_id": "4o2kchrTeo495pRf",
  "folder": null,
  "sort": 0,
  "ownership": {
    "default": 0,
    "tIn9sSkrT3mDWirx": 3
  },
  "_key": "!items!4o2kchrTeo495pRf"
}
