{
  "name": "Insanidade da Tormenta",
  "type": "poder",
  "img": "systems/tormenta20/icons/poderes/ameacas/insanidade-tormenta.webp",
  "system": {
    "description": {
      "value": "<p style=\"text-align: justify;\">Uma criatura que veja um ou mais lefeu deve fazer um teste de Vontade contra o lefeu de maior ND. Se falhar, perde os PM indicados (+1 PM para cada lefeu al&eacute;m do primeiro). Se for reduzida a 0 PM, fica confusa. Uma criatura s&oacute; &eacute; afetada por esta habilidade uma vez por dia.</p>",
      "chat": "",
      "unidentified": ""
    },
    "source": "",
    "ativacao": {
      "execucao": "",
      "custo": 0,
      "qtd": "",
      "condicao": "",
      "special": ""
    },
    "duracao": {
      "value": 0,
      "units": "",
      "special": ""
    },
    "target": {
      "value": null,
      "width": null,
      "units": "",
      "type": ""
    },
    "range": {
      "value": null,
      "units": ""
    },
    "consume": {
      "type": "",
      "target": "",
      "amount": null,
      "mpMultiplier": false
    },
    "efeito": "",
    "alcance": "none",
    "alvo": "",
    "area": "",
    "resistencia": {
      "pericia": "",
      "atributo": "",
      "bonus": 0,
      "txt": ""
    },
    "rolls": [],
    "tipo": "ability",
    "subtipo": "",
    "origin": "",
    "tags": [],
    "chatFlavor": "",
    "chatGif": ""
  },
  "effects": [
    {
      "label": "Confuso",
      "duration": {
        "rounds": 999,
        "startTime": null,
        "seconds": null,
        "combat": null,
        "turns": null,
        "startRound": null,
        "startTurn": null
      },
      "icon": "systems/tormenta20/icons/conditions/confuso.svg",
      "flags": {
        "core": {
          "statusId": "confuso"
        },
        "tormenta20": {
          "condition": true,
          "durationScene": true,
          "category": "mental",
          "onuse": false
        }
      },
      "_id": "yU7T8jfy826XrLMo",
      "changes": [],
      "disabled": false,
      "origin": null,
      "tint": null,
      "transfer": false,
      "_key": "!items.effects!8nFwKzbB32HSlNC5.yU7T8jfy826XrLMo"
    }
  ],
  "flags": {},
  "_stats": {
    "systemId": "tormenta20",
    "systemVersion": "1.4.107",
    "coreVersion": "10.290",
    "createdTime": 1667028374851,
    "modifiedTime": 1668881767554,
    "lastModifiedBy": "tIn9sSkrT3mDWirx"
  },
  "_id": "8nFwKzbB32HSlNC5",
  "folder": null,
  "sort": 0,
  "ownership": {
    "default": 0,
    "tIn9sSkrT3mDWirx": 3
  },
  "_key": "!items!8nFwKzbB32HSlNC5"
}
