{
  "_id": "vOboZ4AoGFu1xTjh",
  "name": "Dragão Jovem",
  "type": "npc",
  "img": "systems/tormenta20/icons/ameacas/dragao-jovem.png",
  "items": [
    {
      "folder": "0V7x5o397UvG3xKP",
      "name": "Sopro",
      "type": "poder",
      "img": "icons/creatures/abilities/dragon-ice-breath-blue.webp",
      "system": {
        "description": {
          "value": "Todas as criaturas em um cone de 9m sofrem 6d12 pontos de dano de fogo e ficam em chamas (Ref CD 25 reduz o dano à metade e evita a condição). Recarga (movimento)",
          "unidentified": ""
        },
        "source": "",
        "ativacao": {
          "execucao": "action",
          "custo": 0,
          "qtd": "",
          "condicao": "",
          "special": ""
        },
        "duracao": {
          "value": 0,
          "units": "",
          "special": ""
        },
        "target": {
          "value": null,
          "width": null,
          "type": ""
        },
        "range": {
          "value": null,
          "units": ""
        },
        "consume": {
          "type": "",
          "target": "",
          "amount": null,
          "mpMultiplier": false
        },
        "efeito": "",
        "alcance": "none",
        "alvo": "",
        "area": "Cone 9m",
        "resistencia": {
          "pericia": "",
          "atributo": "",
          "bonus": 0,
          "txt": "Reflexos Metade"
        },
        "rolls": [
          {
            "name": "Dano",
            "key": "dano0",
            "type": "dano",
            "parts": [
              [
                "6d12",
                "",
                ""
              ]
            ],
            "versatil": ""
          }
        ],
        "tipo": "racial",
        "subtipo": "",
        "origin": "",
        "tags": [],
        "chatFlavor": "",
        "chatGif": ""
      },
      "effects": [],
      "sort": 4800000,
      "ownership": {
        "default": 0,
        "tIn9sSkrT3mDWirx": 3
      },
      "flags": {
        "core": {
          "sourceId": "Item.1FFdF6MtV64OoIVK"
        }
      },
      "_stats": {
        "systemId": "tormenta20",
        "systemVersion": "1.4.1004",
        "coreVersion": "10.286",
        "createdTime": 1666318061707,
        "modifiedTime": 1667027129299,
        "lastModifiedBy": "tIn9sSkrT3mDWirx"
      },
      "_id": "HqJco7CmwPV5BBzK",
      "_key": "!actors.items!vOboZ4AoGFu1xTjh.HqJco7CmwPV5BBzK"
    },
    {
      "folder": "0V7x5o397UvG3xKP",
      "name": "Varrer",
      "type": "poder",
      "img": "icons/skills/melee/strike-sword-slashing-red.webp",
      "system": {
        "description": {
          "value": "Uma vez por rodada, quando o dragão faz um ataque corpo a corpo e reduz os pontos de vida do alvo para 0 ou menos, pode realizar um ataque adicional contra outra criatura dentro do seu alcance.",
          "unidentified": ""
        },
        "source": "",
        "ativacao": {
          "execucao": "free",
          "custo": 0,
          "qtd": "",
          "condicao": "",
          "special": ""
        },
        "duracao": {
          "value": 0,
          "units": "",
          "special": ""
        },
        "target": {
          "value": null,
          "width": null,
          "type": ""
        },
        "range": {
          "value": null,
          "units": ""
        },
        "consume": {
          "type": "",
          "target": "",
          "amount": null,
          "mpMultiplier": false
        },
        "efeito": "",
        "alcance": "none",
        "alvo": "",
        "area": "",
        "resistencia": {
          "pericia": "",
          "atributo": "",
          "bonus": 0,
          "txt": ""
        },
        "rolls": [],
        "tipo": "ability",
        "subtipo": "",
        "origin": "",
        "tags": [],
        "chatFlavor": "",
        "chatGif": ""
      },
      "effects": [],
      "sort": 4400000,
      "ownership": {
        "default": 0,
        "tIn9sSkrT3mDWirx": 3
      },
      "flags": {},
      "_stats": {
        "systemId": "tormenta20",
        "systemVersion": "1.4.1004",
        "coreVersion": "10.286",
        "createdTime": 1666321513948,
        "modifiedTime": 1667025693505,
        "lastModifiedBy": "tIn9sSkrT3mDWirx"
      },
      "_id": "p8MHOwVlcxbmUp5i",
      "_key": "!actors.items!vOboZ4AoGFu1xTjh.p8MHOwVlcxbmUp5i"
    },
    {
      "folder": "38RRBscxCtcFC5s4",
      "name": "Mordida",
      "type": "arma",
      "img": "icons/creatures/abilities/mouth-teeth-long-red.webp",
      "system": {
        "description": {
          "value": "<section class=\"secret\">Mordida</section>",
          "chat": "",
          "unidentified": ""
        },
        "source": "",
        "equipado": 0,
        "equipado2": {
          "slot": 0,
          "type": "hand"
        },
        "carregado": true,
        "peso": 0,
        "espacos": 0,
        "qtd": 0,
        "preco": 0,
        "pv": {
          "value": 0,
          "min": 0,
          "max": 0
        },
        "rd": 0,
        "rolls": [
          {
            "name": "Ataque",
            "key": "ataque0",
            "type": "ataque",
            "parts": [
              [
                "1d20",
                "",
                ""
              ],
              [
                "luta",
                "",
                ""
              ],
              [
                "+25",
                "",
                ""
              ]
            ]
          },
          {
            "name": "Dano",
            "key": "dano1",
            "type": "dano",
            "parts": [
              [
                "2d6+14",
                "perfuracao",
                ""
              ],
              [
                "",
                "",
                ""
              ]
            ],
            "versatil": ""
          }
        ],
        "criticoM": 19,
        "criticoX": 2,
        "alcance": "",
        "tipoUso": "sim",
        "propriedades": {
          "ada": false,
          "agi": false,
          "alo": false,
          "arr": false,
          "dst": false,
          "dms": false,
          "dup": false,
          "lev": false,
          "mun": false,
          "ver": false,
          "des": false,
          "hib": false
        },
        "origin": "",
        "tags": [],
        "chatFlavor": "",
        "ativacao": {
          "custo": null,
          "condicao": "",
          "execucao": "",
          "qtd": "",
          "special": ""
        },
        "consume": {
          "amount": null,
          "mpMultiplier": false,
          "type": "",
          "target": ""
        },
        "encantos": {
          "lancinante": false,
          "keen": null,
          "bane": null,
          "throwable": null,
          "assassin": null,
          "seeking": null,
          "frost": null,
          "caster": null,
          "corrosive": null,
          "dancing": null,
          "defending": null,
          "destructive": null,
          "lacerating": null,
          "draining": null,
          "shock": null,
          "energy": null,
          "excruciating": null,
          "flaming": null,
          "formidable": null,
          "lancinating": false,
          "magnificent": null,
          "merciful": null,
          "unholy": null,
          "holy": null,
          "bloodthirsty": null,
          "thundering": null,
          "sepulchral": null,
          "speed": null,
          "poisonous": null
        },
        "melhorias": {
          "accurate": null,
          "pungent": null,
          "cruel": null,
          "atrocious": null,
          "balanced": null,
          "harmonized": null,
          "injection": null,
          "massive": null,
          "specialmaterial": null,
          "scope": null,
          "precise": null,
          "golden": null,
          "gems": null,
          "discreet": null,
          "macabre": null
        },
        "chatGif": "",
        "upgrades": {
          "melhoria1": "",
          "melhoria2": "",
          "melhoria3": "",
          "melhoria4": "",
          "material": "",
          "encanto1": "",
          "encanto2": "",
          "encanto3": ""
        },
        "proficiencia": "natural",
        "proposito": "corpo-a-corpo",
        "empunhadura": "leve",
        "size": "normal",
        "ataques": 0
      },
      "effects": [],
      "sort": 0,
      "ownership": {
        "default": 0,
        "tIn9sSkrT3mDWirx": 3
      },
      "flags": {},
      "_stats": {
        "systemId": "tormenta20",
        "systemVersion": "1.4.203d2",
        "coreVersion": "11.315",
        "createdTime": 1666318097513,
        "modifiedTime": 1700237107214,
        "lastModifiedBy": "5frcpPVF3cVfLwZA"
      },
      "_id": "8NVnVpipA6S30aSw",
      "_key": "!actors.items!vOboZ4AoGFu1xTjh.8NVnVpipA6S30aSw"
    },
    {
      "folder": "38RRBscxCtcFC5s4",
      "name": "Garras",
      "type": "arma",
      "img": "icons/creatures/claws/claw-bear-paw-swipe-red.webp",
      "system": {
        "description": {
          "value": "<section class=\"secret\">Garras</section>",
          "chat": "",
          "unidentified": ""
        },
        "source": "",
        "equipado": 0,
        "equipado2": {
          "slot": 0,
          "type": "hand"
        },
        "carregado": true,
        "peso": 0,
        "espacos": 0,
        "qtd": 2,
        "preco": 0,
        "pv": {
          "value": 0,
          "min": 0,
          "max": 0
        },
        "rd": 0,
        "rolls": [
          {
            "name": "Ataque",
            "key": "ataque0",
            "type": "ataque",
            "parts": [
              [
                "1d20",
                "",
                ""
              ],
              [
                "luta",
                "",
                ""
              ],
              [
                "+25",
                "",
                ""
              ]
            ]
          },
          {
            "name": "Dano",
            "key": "dano1",
            "type": "dano",
            "parts": [
              [
                "1d8+14",
                "corte",
                ""
              ],
              [
                "",
                "",
                ""
              ]
            ],
            "versatil": ""
          }
        ],
        "criticoM": 19,
        "criticoX": 2,
        "alcance": "",
        "tipoUso": "sim",
        "propriedades": {
          "ada": false,
          "agi": false,
          "alo": false,
          "arr": false,
          "dst": false,
          "dms": false,
          "dup": false,
          "lev": false,
          "mun": false,
          "ver": false,
          "des": false,
          "hib": false
        },
        "origin": "",
        "tags": [],
        "chatFlavor": "",
        "ativacao": {
          "custo": null,
          "condicao": "",
          "execucao": "",
          "qtd": "",
          "special": ""
        },
        "consume": {
          "amount": null,
          "mpMultiplier": false,
          "type": "",
          "target": ""
        },
        "encantos": {
          "lancinante": false,
          "keen": null,
          "bane": null,
          "throwable": null,
          "assassin": null,
          "seeking": null,
          "frost": null,
          "caster": null,
          "corrosive": null,
          "dancing": null,
          "defending": null,
          "destructive": null,
          "lacerating": null,
          "draining": null,
          "shock": null,
          "energy": null,
          "excruciating": null,
          "flaming": null,
          "formidable": null,
          "lancinating": false,
          "magnificent": null,
          "merciful": null,
          "unholy": null,
          "holy": null,
          "bloodthirsty": null,
          "thundering": null,
          "sepulchral": null,
          "speed": null,
          "poisonous": null
        },
        "melhorias": {
          "accurate": null,
          "pungent": null,
          "cruel": null,
          "atrocious": null,
          "balanced": null,
          "harmonized": null,
          "injection": null,
          "massive": null,
          "specialmaterial": null,
          "scope": null,
          "precise": null,
          "golden": null,
          "gems": null,
          "discreet": null,
          "macabre": null
        },
        "chatGif": "",
        "upgrades": {
          "melhoria1": "",
          "melhoria2": "",
          "melhoria3": "",
          "melhoria4": "",
          "material": "",
          "encanto1": "",
          "encanto2": "",
          "encanto3": ""
        },
        "proficiencia": "natural",
        "proposito": "corpo-a-corpo",
        "empunhadura": "leve",
        "size": "normal",
        "ataques": 0
      },
      "effects": [],
      "sort": 0,
      "ownership": {
        "default": 0,
        "tIn9sSkrT3mDWirx": 3
      },
      "flags": {},
      "_stats": {
        "systemId": "tormenta20",
        "systemVersion": "1.4.203d2",
        "coreVersion": "11.315",
        "createdTime": 1666318097513,
        "modifiedTime": 1700237112053,
        "lastModifiedBy": "5frcpPVF3cVfLwZA"
      },
      "_id": "xp7u0P0953E701IP",
      "_key": "!actors.items!vOboZ4AoGFu1xTjh.xp7u0P0953E701IP"
    },
    {
      "folder": "0V7x5o397UvG3xKP",
      "name": "Metamorfose Dracônica",
      "type": "poder",
      "img": "icons/magic/control/debuff-energy-hold-blue-yellow.webp",
      "system": {
        "description": {
          "value": "<p style=\"text-align: justify;\">Drag&otilde;es jovens ou mais velhos podem se transformar em outras criaturas, como a magia Metamorfose (mas sem limita&ccedil;&atilde;o para tamanhos menores que o seu). Eles costumam usar esta habilidade para se infiltrar em sociedades humanoides, aprender sobre seus costumes ou apenas quando n&atilde;o querem ser reconhecidos. Um drag&atilde;o morto reverte &agrave; sua forma original.</p>",
          "unidentified": ""
        },
        "source": "",
        "ativacao": {
          "execucao": "",
          "custo": 0,
          "qtd": "",
          "condicao": "",
          "special": ""
        },
        "duracao": {
          "value": 0,
          "units": "",
          "special": ""
        },
        "target": {
          "value": null,
          "width": null,
          "type": ""
        },
        "range": {
          "value": null,
          "units": ""
        },
        "consume": {
          "type": "",
          "target": "",
          "amount": null,
          "mpMultiplier": false
        },
        "efeito": "",
        "alcance": "none",
        "alvo": "",
        "area": "",
        "resistencia": {
          "pericia": "",
          "atributo": "",
          "bonus": 0,
          "txt": ""
        },
        "rolls": [],
        "tipo": "ability",
        "subtipo": "",
        "origin": "",
        "tags": [],
        "chatFlavor": "",
        "chatGif": ""
      },
      "effects": [],
      "sort": 3300000,
      "ownership": {
        "default": 0,
        "tIn9sSkrT3mDWirx": 3
      },
      "flags": {
        "core": {
          "sourceId": "Item.62NdebV5IjHteP66"
        }
      },
      "_stats": {
        "systemId": "tormenta20",
        "systemVersion": "1.4.1004",
        "coreVersion": "10.286",
        "createdTime": 1666319601409,
        "modifiedTime": 1667025718126,
        "lastModifiedBy": "tIn9sSkrT3mDWirx"
      },
      "_id": "rKyJX6DRxhq2SYdY",
      "_key": "!actors.items!vOboZ4AoGFu1xTjh.rKyJX6DRxhq2SYdY"
    },
    {
      "folder": "0V7x5o397UvG3xKP",
      "name": "Resistência a Magia",
      "type": "poder",
      "img": "icons/magic/defensive/shield-barrier-blades-teal.webp",
      "system": {
        "description": {
          "value": "<p>Drag&otilde;es filhotes t&ecirc;m resist&ecirc;ncia a magia +1. Esse b&ocirc;nus aumenta em +1 para cada categoria de idade acima de filhote.</p>",
          "unidentified": ""
        },
        "source": "",
        "ativacao": {
          "execucao": "",
          "custo": 0,
          "qtd": "",
          "condicao": "",
          "special": ""
        },
        "duracao": {
          "value": 0,
          "units": "",
          "special": ""
        },
        "target": {
          "value": null,
          "width": null,
          "type": ""
        },
        "range": {
          "value": null,
          "units": ""
        },
        "consume": {
          "type": "",
          "target": "",
          "amount": null,
          "mpMultiplier": false
        },
        "efeito": "",
        "alcance": "none",
        "alvo": "",
        "area": "",
        "resistencia": {
          "pericia": "",
          "atributo": "",
          "bonus": 0,
          "txt": ""
        },
        "rolls": [],
        "tipo": "ability",
        "subtipo": "",
        "origin": "",
        "tags": [],
        "chatFlavor": "",
        "chatGif": ""
      },
      "effects": [],
      "sort": 3700000,
      "ownership": {
        "default": 0,
        "tIn9sSkrT3mDWirx": 3
      },
      "flags": {
        "core": {
          "sourceId": "Item.jdqHPyKpb97cBDeW"
        }
      },
      "_stats": {
        "systemId": "tormenta20",
        "systemVersion": "1.4.1004",
        "coreVersion": "10.286",
        "createdTime": 1666320415369,
        "modifiedTime": 1667025719383,
        "lastModifiedBy": "tIn9sSkrT3mDWirx"
      },
      "_id": "2wj4P37kAec6jWs1",
      "_key": "!actors.items!vOboZ4AoGFu1xTjh.2wj4P37kAec6jWs1"
    },
    {
      "folder": "0V7x5o397UvG3xKP",
      "name": "Imunidades Dracônicas",
      "type": "poder",
      "img": "icons/magic/defensive/shield-barrier-glowing-triangle-orange.webp",
      "system": {
        "description": {
          "value": "<p style=\"text-align: justify;\">Drag&otilde;es s&atilde;o imunes a efeitos de atordoamento, cansa&ccedil;o, dano do tipo de seu sopro, metamorfose e paralisia.</p>",
          "unidentified": ""
        },
        "source": "",
        "ativacao": {
          "execucao": "",
          "custo": 0,
          "qtd": "",
          "condicao": "",
          "special": ""
        },
        "duracao": {
          "value": 0,
          "units": "",
          "special": ""
        },
        "target": {
          "value": null,
          "width": null,
          "type": ""
        },
        "range": {
          "value": null,
          "units": ""
        },
        "consume": {
          "type": "",
          "target": "",
          "amount": null,
          "mpMultiplier": false
        },
        "efeito": "",
        "alcance": "none",
        "alvo": "",
        "area": "",
        "resistencia": {
          "pericia": "",
          "atributo": "",
          "bonus": 0,
          "txt": ""
        },
        "rolls": [],
        "tipo": "ability",
        "subtipo": "",
        "origin": "",
        "tags": [],
        "chatFlavor": "",
        "chatGif": ""
      },
      "effects": [],
      "sort": 2700000,
      "ownership": {
        "default": 0,
        "tIn9sSkrT3mDWirx": 3
      },
      "flags": {
        "core": {
          "sourceId": "Item.fSva49TDP0VUjlVG"
        }
      },
      "_stats": {
        "systemId": "tormenta20",
        "systemVersion": "1.4.1004",
        "coreVersion": "10.286",
        "createdTime": 1666320099383,
        "modifiedTime": 1667025721512,
        "lastModifiedBy": "tIn9sSkrT3mDWirx"
      },
      "_id": "oyM3FvyRAHw2Tnxk",
      "_key": "!actors.items!vOboZ4AoGFu1xTjh.oyM3FvyRAHw2Tnxk"
    },
    {
      "folder": "UWfgoGvfJXlYjzNh",
      "name": "Couro de Dragão",
      "type": "consumivel",
      "img": "systems/tormenta20/icons/itens/gerais/couro-de-dragao.webp",
      "system": {
        "description": {
          "value": "<p><span class=\"fontstyle0\"><strong style=\"text-align: justify;\">[Tesouro Especial] <strong>[Material Especial]</strong></strong></span></p>\n<p>Cobi&ccedil;ado por artes&atilde;os em toda Arton, o couro escamado de um drag&atilde;o verdadeiro &eacute; um material especial que pode ser empregado para fabricar certos itens superiores. Tanto o couro bruto quanto itens de couro de drag&atilde;o n&atilde;o existem &agrave; venda; a &uacute;nica maneira de obter esse material &eacute; derrotar um drag&atilde;o. <span class=\"fontstyle0\">(</span><span class=\"fontstyle0\">CD para extrair depende do drag&atilde;o).</span></p>\n<p>&nbsp;</p>\n<p><span class=\"fontstyle0\"><strong>Armaduras leves e escudos</strong> (exigem uma pe&ccedil;a para ser fabricado): Defesa +1, redu&ccedil;&atilde;o de dano 10 contra o tipo de dano do sopro do drag&atilde;o e resist&ecirc;ncia a magia +2. </span></p>\n<p><span class=\"fontstyle0\"><strong>Armaduras pesadas</strong> (exigem tr&ecirc;s pe&ccedil;as): Defesa +2, redu&ccedil;&atilde;o de dano 20 contra o tipo de dano do sopro do drag&atilde;o e resist&ecirc;ncia a magia +5. </span></p>\n<p><span class=\"fontstyle0\"><strong>Esot&eacute;rico </strong>(Exige 1 Pe&ccedil;a). Quando lan&ccedil;a uma magia que cause dano do mesmo tipo do sopro do drag&atilde;o, voc&ecirc; pode gastar 1 PM para aumentar o dano da magia em +1 por dado.</span></p>\n<p>&nbsp;</p>\n<p>&nbsp;</p>",
          "unidentified": ""
        },
        "source": "T20, pg. 311 (JdA)",
        "carregado": true,
        "peso": 0,
        "espacos": 1,
        "qtd": 1,
        "preco": 0,
        "pv": {
          "value": 0,
          "min": 0,
          "max": 0
        },
        "rd": 0,
        "ativacao": {
          "execucao": "",
          "custo": 0,
          "qtd": "",
          "condicao": "",
          "special": ""
        },
        "duracao": {
          "value": 0,
          "units": "",
          "special": ""
        },
        "target": {
          "value": null,
          "width": null,
          "type": ""
        },
        "range": {
          "value": null,
          "units": ""
        },
        "consume": {
          "type": "",
          "target": "",
          "amount": null,
          "mpMultiplier": false
        },
        "efeito": "",
        "alcance": "none",
        "alvo": "",
        "area": "",
        "resistencia": {
          "pericia": "",
          "atributo": "",
          "bonus": 0,
          "txt": ""
        },
        "rolls": [],
        "tipo": "material",
        "origin": "",
        "tags": [],
        "chatFlavor": "",
        "subtipo": "",
        "chatGif": "",
        "upgrades": {
          "melhoria1": "",
          "melhoria2": "",
          "melhoria3": "",
          "melhoria4": "",
          "material": "",
          "encanto1": "",
          "encanto2": "",
          "encanto3": ""
        },
        "melhorias": {},
        "encantos": {}
      },
      "effects": [],
      "sort": 0,
      "ownership": {
        "default": 0,
        "RzS5vw1t6rOSWsrq": 3,
        "tIn9sSkrT3mDWirx": 3
      },
      "flags": {
        "core": {
          "sourceId": "Item.DW3ObnlHoKVffcrS"
        }
      },
      "_stats": {
        "systemId": "tormenta20",
        "systemVersion": "1.4.1004",
        "coreVersion": "10.286",
        "createdTime": 1665585143695,
        "modifiedTime": 1667026530933,
        "lastModifiedBy": "tIn9sSkrT3mDWirx"
      },
      "_id": "Xixz9ODpSkdAFeF6",
      "_key": "!actors.items!vOboZ4AoGFu1xTjh.Xixz9ODpSkdAFeF6"
    }
  ],
  "effects": [
    {
      "name": "+2 Resistência a Magia",
      "icon": "icons/svg/upgrade.svg",
      "origin": "Compendium.tormenta20.ameacas.Actor.WMcZXuIIRzCPzr6a",
      "tint": "#FFFFFF",
      "flags": {
        "tormenta20": {
          "onuse": true,
          "durationScene": false,
          "self": false,
          "attack": false,
          "skill": true,
          "ability": false,
          "power": false,
          "equipment": false,
          "spell": false,
          "consumable": false,
          "items": "Fortitude;Reflexos;Vontade",
          "aumenta": false,
          "custo": ""
        },
        "core": {
          "sourceId": "Compendium.tormenta20.ameacas.Actor.WMcZXuIIRzCPzr6a.ActiveEffect.MHuiS571FAZ5UH6Z"
        }
      },
      "duration": {
        "startTime": 0,
        "seconds": null,
        "combat": null,
        "rounds": null,
        "turns": null,
        "startRound": null,
        "startTurn": null
      },
      "disabled": true,
      "_id": "PIXc0N0dykXj1nBS",
      "changes": [
        {
          "key": "roll",
          "mode": 2,
          "value": "2",
          "priority": 0
        }
      ],
      "description": "",
      "transfer": true,
      "statuses": [],
      "_key": "!actors.effects!vOboZ4AoGFu1xTjh.PIXc0N0dykXj1nBS"
    }
  ],
  "folder": "V7cGpJ4M5tIhe0sM",
  "sort": 100001,
  "flags": {
    "exportSource": {
      "world": "andreverse-t20",
      "system": "tormenta20",
      "coreVersion": "0.6.6",
      "systemVersion": "0.9.71"
    },
    "editing": false,
    "tormenta20": {
      "sheet": {},
      "lvlconfig": {
        "pv": {},
        "pm": {}
      },
      "version": "1.3.0.0"
    },
    "core": {
      "sourceId": "Compendium.tormenta20.ameacas.vOboZ4AoGFu1xTjh"
    }
  },
  "system": {
    "atributos": {
      "for": {
        "value": 0,
        "bonus": 0,
        "base": 7,
        "racial": 0
      },
      "des": {
        "value": 0,
        "bonus": 0,
        "base": 2,
        "racial": 0
      },
      "con": {
        "value": 0,
        "bonus": 0,
        "base": 6,
        "racial": 0
      },
      "int": {
        "value": 0,
        "bonus": 0,
        "base": 2,
        "racial": 0
      },
      "sab": {
        "value": 0,
        "bonus": 0,
        "base": 2,
        "racial": 0
      },
      "car": {
        "value": 0,
        "bonus": 0,
        "base": 2,
        "racial": 0
      }
    },
    "attributes": {
      "cd": 25,
      "pv": {
        "value": 320,
        "min": -500,
        "max": 320,
        "temp": 0
      },
      "pm": {
        "value": 15,
        "min": 0,
        "max": 15,
        "temp": 0
      },
      "movement": {
        "burrow": 0,
        "climb": 0,
        "fly": 18,
        "swim": 0,
        "walk": 12,
        "unit": "m",
        "hover": false,
        "notes": ""
      },
      "defesa": {
        "base": 32,
        "value": 0,
        "outros": 0,
        "atributo": "des",
        "pda": 0,
        "bonus": [],
        "condi": 0
      },
      "sentidos": {
        "value": [
          "cegas",
          "escuro"
        ],
        "custom": ""
      },
      "conjuracao": "int",
      "nivel": {
        "value": 1,
        "xp": {
          "value": 0,
          "pct": 0,
          "proximo": 0
        }
      },
      "nd": "7",
      "carga": {
        "value": 0,
        "base": 10,
        "bonus": [],
        "max": 0,
        "pct": 0,
        "encumbered": false
      },
      "treino": 0
    },
    "detalhes": {
      "biography": {
        "value": "",
        "public": ""
      },
      "raca": "dragão",
      "tipo": "mon",
      "alinhamento": "",
      "divindade": "",
      "nd": "",
      "equipamento": "",
      "resistencias": "imunidade a fogo, redução de dano 5, resistência a magia +2, vulnerabilidade a frio",
      "tesouro": "Dobro e 2 peças de couro de dragão (CD 22 para extrair, veja o quadro na página 312).",
      "role": "solo",
      "origem": "",
      "ataquescac": "Mordida +25 (2d6+14, 19) e duas garras +25 (1d8+14, 19)."
    },
    "tracos": {
      "tamanho": "gra",
      "resistencias": {
        "perda": {
          "value": 0,
          "base": 0,
          "bonus": [],
          "imunidade": false,
          "vulnerabilidade": false
        },
        "acido": {
          "value": 0,
          "base": 0,
          "bonus": [],
          "imunidade": false,
          "vulnerabilidade": false
        },
        "corte": {
          "value": 0,
          "base": 0,
          "bonus": [],
          "imunidade": false,
          "vulnerabilidade": false
        },
        "eletricidade": {
          "value": 0,
          "base": 0,
          "bonus": [],
          "imunidade": false,
          "vulnerabilidade": false
        },
        "essencia": {
          "value": 0,
          "base": 0,
          "bonus": [],
          "imunidade": false,
          "vulnerabilidade": false
        },
        "fogo": {
          "value": 0,
          "base": 0,
          "bonus": [],
          "imunidade": true,
          "vulnerabilidade": false
        },
        "frio": {
          "value": 0,
          "base": 0,
          "bonus": [],
          "imunidade": false,
          "vulnerabilidade": true
        },
        "impacto": {
          "value": 0,
          "base": 0,
          "bonus": [],
          "imunidade": false,
          "vulnerabilidade": false
        },
        "luz": {
          "value": 0,
          "base": 0,
          "bonus": [],
          "imunidade": false,
          "vulnerabilidade": false
        },
        "psiquico": {
          "value": 0,
          "base": 0,
          "bonus": [],
          "imunidade": false,
          "vulnerabilidade": false
        },
        "perfuracao": {
          "value": 0,
          "base": 0,
          "bonus": [],
          "imunidade": false,
          "vulnerabilidade": false
        },
        "trevas": {
          "value": 0,
          "base": 0,
          "bonus": [],
          "imunidade": false,
          "vulnerabilidade": false
        },
        "dano": {
          "value": 5,
          "imunidade": false,
          "vulnerabilidade": false
        }
      },
      "ic": {
        "value": [
          "atordoamento",
          "cansaco",
          "exausto",
          "fatigado",
          "atordoado",
          "metamorfose",
          "petrificado",
          "paralisado"
        ],
        "custom": ""
      },
      "idiomas": {
        "value": [
          "comum"
        ]
      }
    },
    "dinheiro": {
      "tl": 0,
      "to": 0,
      "tp": 0,
      "tc": 0
    },
    "resources": {
      "primary": {
        "value": 0,
        "max": 0,
        "label": ""
      },
      "secondary": {
        "value": 0,
        "max": 0,
        "label": ""
      },
      "tertiary": {
        "value": 0,
        "max": 0,
        "label": ""
      },
      "deathsave": {
        "value": 0,
        "max": 3,
        "label": ""
      },
      "shadow": {
        "value": 0,
        "max": 5,
        "label": ""
      },
      "catarse": {
        "value": 0,
        "max": 3,
        "label": ""
      }
    },
    "pericias": {
      "acro": {
        "value": 0,
        "atributo": "des",
        "outros": 0,
        "treinado": false,
        "st": false,
        "pda": false,
        "size": false,
        "condi": 0,
        "bonus": [],
        "custom": false,
        "label": "",
        "nome": ""
      },
      "ades": {
        "value": 0,
        "atributo": "car",
        "outros": 0,
        "treinado": false,
        "st": false,
        "pda": false,
        "size": false,
        "condi": 0,
        "bonus": [],
        "custom": false,
        "label": "",
        "nome": ""
      },
      "atle": {
        "value": 0,
        "atributo": "for",
        "outros": 0,
        "treinado": false,
        "st": false,
        "pda": false,
        "size": false,
        "condi": 0,
        "bonus": [],
        "custom": false,
        "label": "",
        "nome": ""
      },
      "atua": {
        "value": 0,
        "atributo": "car",
        "outros": 0,
        "treinado": false,
        "st": false,
        "pda": false,
        "size": false,
        "condi": 0,
        "bonus": [],
        "custom": false,
        "label": "",
        "nome": ""
      },
      "cava": {
        "value": 0,
        "atributo": "des",
        "outros": 0,
        "treinado": false,
        "st": false,
        "pda": false,
        "size": false,
        "condi": 0,
        "bonus": [],
        "custom": false,
        "label": "",
        "nome": ""
      },
      "conh": {
        "value": 0,
        "atributo": "int",
        "outros": 0,
        "treinado": false,
        "st": false,
        "pda": false,
        "size": false,
        "condi": 0,
        "bonus": [],
        "custom": false,
        "label": "",
        "nome": ""
      },
      "cura": {
        "value": 0,
        "atributo": "sab",
        "outros": 0,
        "treinado": false,
        "st": false,
        "pda": false,
        "size": false,
        "condi": 0,
        "bonus": [],
        "custom": false,
        "label": "",
        "nome": ""
      },
      "dipl": {
        "value": 0,
        "atributo": "car",
        "outros": 0,
        "treinado": false,
        "st": false,
        "pda": false,
        "size": false,
        "condi": 0,
        "bonus": [],
        "custom": false,
        "label": "",
        "nome": ""
      },
      "enga": {
        "value": 0,
        "atributo": "car",
        "outros": 0,
        "treinado": false,
        "st": false,
        "pda": false,
        "size": false,
        "condi": 0,
        "bonus": [],
        "custom": false,
        "label": "",
        "nome": ""
      },
      "fort": {
        "value": 20,
        "atributo": "con",
        "outros": 20,
        "treinado": false,
        "st": false,
        "pda": false,
        "size": false,
        "condi": 0,
        "bonus": [],
        "custom": false,
        "label": "",
        "nome": ""
      },
      "furt": {
        "value": 0,
        "atributo": "des",
        "outros": 0,
        "treinado": false,
        "st": false,
        "pda": false,
        "size": false,
        "condi": 0,
        "bonus": [],
        "custom": false,
        "label": "",
        "nome": ""
      },
      "guer": {
        "value": 0,
        "atributo": "int",
        "outros": 0,
        "treinado": false,
        "st": false,
        "pda": false,
        "size": false,
        "condi": 0,
        "bonus": [],
        "custom": false,
        "label": "",
        "nome": ""
      },
      "inic": {
        "value": 11,
        "atributo": "des",
        "outros": 2,
        "treinado": true,
        "st": false,
        "pda": false,
        "size": false,
        "condi": 0,
        "bonus": [],
        "custom": false,
        "label": "",
        "nome": ""
      },
      "inti": {
        "value": 11,
        "atributo": "car",
        "outros": 2,
        "treinado": true,
        "st": false,
        "pda": false,
        "size": false,
        "condi": 0,
        "bonus": [],
        "custom": false,
        "label": "",
        "nome": ""
      },
      "intu": {
        "value": 0,
        "atributo": "sab",
        "outros": 0,
        "treinado": false,
        "label": "",
        "st": false,
        "pda": false,
        "bonus": [],
        "size": false,
        "condi": 0,
        "custom": false,
        "nome": ""
      },
      "inve": {
        "value": 0,
        "atributo": "int",
        "outros": 0,
        "treinado": false,
        "st": false,
        "pda": false,
        "size": false,
        "condi": 0,
        "bonus": [],
        "custom": false,
        "label": "",
        "nome": ""
      },
      "joga": {
        "value": 0,
        "atributo": "car",
        "outros": 0,
        "treinado": false,
        "st": false,
        "pda": false,
        "size": false,
        "condi": 0,
        "bonus": [],
        "custom": false,
        "label": "",
        "nome": ""
      },
      "ladi": {
        "value": 0,
        "atributo": "des",
        "outros": 0,
        "treinado": false,
        "st": false,
        "pda": false,
        "size": false,
        "condi": 0,
        "bonus": [],
        "custom": false,
        "label": "",
        "nome": ""
      },
      "luta": {
        "value": 0,
        "atributo": "for",
        "outros": 0,
        "treinado": false,
        "st": false,
        "pda": false,
        "size": false,
        "condi": 0,
        "bonus": [],
        "custom": false,
        "label": "",
        "nome": ""
      },
      "mist": {
        "value": 0,
        "atributo": "int",
        "outros": 0,
        "treinado": false,
        "st": false,
        "pda": false,
        "size": false,
        "condi": 0,
        "bonus": [],
        "custom": false,
        "label": "",
        "nome": ""
      },
      "nobr": {
        "value": 0,
        "atributo": "int",
        "outros": 0,
        "treinado": false,
        "st": false,
        "pda": false,
        "size": false,
        "condi": 0,
        "bonus": [],
        "custom": false,
        "label": "",
        "nome": ""
      },
      "ofi0": {
        "value": 0,
        "atributo": "int",
        "outros": 0,
        "treinado": false,
        "st": false,
        "pda": false,
        "size": false,
        "condi": 0,
        "bonus": [],
        "custom": false,
        "label": "",
        "nome": ""
      },
      "perc": {
        "value": 11,
        "atributo": "sab",
        "outros": 2,
        "treinado": true,
        "st": false,
        "pda": false,
        "size": false,
        "condi": 0,
        "bonus": [],
        "custom": false,
        "label": "",
        "nome": ""
      },
      "pilo": {
        "value": 0,
        "atributo": "des",
        "outros": 0,
        "treinado": false,
        "st": false,
        "pda": false,
        "size": false,
        "condi": 0,
        "bonus": [],
        "custom": false,
        "label": "",
        "nome": ""
      },
      "pont": {
        "value": 0,
        "atributo": "des",
        "outros": 0,
        "treinado": false,
        "st": false,
        "pda": false,
        "size": false,
        "condi": 0,
        "bonus": [],
        "custom": false,
        "label": "",
        "nome": ""
      },
      "refl": {
        "value": 9,
        "atributo": "des",
        "outros": 9,
        "treinado": false,
        "st": false,
        "pda": false,
        "size": false,
        "condi": 0,
        "bonus": [],
        "custom": false,
        "label": "",
        "nome": ""
      },
      "reli": {
        "value": 0,
        "atributo": "sab",
        "outros": 0,
        "treinado": false,
        "st": false,
        "pda": false,
        "size": false,
        "condi": 0,
        "bonus": [],
        "custom": false,
        "label": "",
        "nome": ""
      },
      "sobr": {
        "value": 0,
        "atributo": "sab",
        "outros": 0,
        "treinado": false,
        "st": false,
        "pda": false,
        "size": false,
        "condi": 0,
        "bonus": [],
        "custom": false,
        "label": "",
        "nome": ""
      },
      "vont": {
        "value": 12,
        "atributo": "sab",
        "outros": 12,
        "treinado": false,
        "st": false,
        "pda": false,
        "size": false,
        "condi": 0,
        "bonus": [],
        "custom": false,
        "label": "",
        "nome": ""
      },
      "_pc0": {
        "value": 0,
        "atributo": "for",
        "outros": 0,
        "treinado": false,
        "st": false,
        "pda": false,
        "size": false,
        "condi": 0,
        "bonus": [],
        "custom": false,
        "label": "",
        "nome": ""
      }
    },
    "modificadores": {
      "atributos": {
        "geral": [
          ""
        ],
        "fisicos": [
          ""
        ],
        "mentais": [
          ""
        ],
        "for": [
          ""
        ],
        "des": [
          ""
        ],
        "con": [
          ""
        ],
        "int": [
          ""
        ],
        "sab": [
          ""
        ],
        "car": [
          ""
        ]
      },
      "dano": {
        "geral": [
          ""
        ],
        "cac": [
          ""
        ],
        "ad": [
          ""
        ],
        "mag": [
          ""
        ],
        "alq": [
          ""
        ]
      },
      "custoPM": "0",
      "pericias": {
        "geral": [
          ""
        ],
        "semataque": [
          ""
        ],
        "ataque": [
          ""
        ],
        "resistencia": [
          ""
        ],
        "atr": {
          "for": [
            ""
          ],
          "des": [
            ""
          ],
          "con": [
            ""
          ],
          "int": [
            ""
          ],
          "sab": [
            ""
          ],
          "car": [
            ""
          ]
        }
      },
      "ataque": {
        "geral": [],
        "cac": [],
        "ad": []
      }
    },
    "builder": {
      "attributes": {
        "cr": "",
        "size": "",
        "attack": {
          "value": 0,
          "cr": ""
        },
        "damage": {
          "value": 0,
          "cr": ""
        },
        "defense": {
          "value": 0,
          "cr": ""
        },
        "fort": {
          "value": 0,
          "rank": 2,
          "cr": ""
        },
        "refl": {
          "value": 0,
          "rank": 1,
          "cr": ""
        },
        "vont": {
          "value": 0,
          "rank": 0,
          "cr": ""
        },
        "topsave": {
          "value": 0,
          "cr": ""
        },
        "midsave": {
          "value": 0,
          "cr": ""
        },
        "botsave": {
          "value": 0,
          "cr": ""
        },
        "hp": {
          "value": 0,
          "cr": ""
        },
        "mp": {
          "value": 0,
          "cr": ""
        },
        "dc": {
          "value": 0,
          "cr": ""
        }
      },
      "details": {
        "concept": "",
        "creatureType": "",
        "role": "",
        "treasure": ""
      }
    }
  },
  "ownership": {
    "default": 0
  },
  "prototypeToken": {
    "flags": {},
    "name": "Dragão Jovem",
    "displayName": 50,
    "width": 2,
    "height": 2,
    "lockRotation": false,
    "rotation": 0,
    "actorLink": false,
    "disposition": -1,
    "displayBars": 0,
    "bar1": {
      "attribute": "attributes.pv"
    },
    "bar2": {
      "attribute": "attributes.pm"
    },
    "randomImg": false,
    "alpha": 1,
    "light": {
      "dim": 0,
      "bright": 0,
      "angle": 360,
      "color": null,
      "alpha": 1,
      "animation": {
        "speed": 5,
        "intensity": 5,
        "type": null,
        "reverse": false
      },
      "coloration": 1,
      "attenuation": 0.5,
      "luminosity": 0.5,
      "saturation": 0,
      "contrast": 0,
      "shadows": 0,
      "darkness": {
        "min": 0,
        "max": 1
      }
    },
    "texture": {
      "src": "systems/tormenta20/icons/ameacas/dragao-jovem.png",
      "tint": null,
      "scaleX": 1.5,
      "scaleY": 1.5,
      "offsetX": 0,
      "offsetY": 0,
      "rotation": 0
    },
    "sight": {
      "angle": 360,
      "enabled": true,
      "range": 30,
      "brightness": 1,
      "visionMode": "basic",
      "color": null,
      "attenuation": 0.1,
      "saturation": 0,
      "contrast": 0
    },
    "detectionModes": [],
    "appendNumber": false,
    "prependAdjective": false
  },
  "_stats": {
    "systemId": "tormenta20",
    "systemVersion": "1.4.203d2",
    "coreVersion": "11.315",
    "createdTime": 1661997946033,
    "modifiedTime": 1700237112053,
    "lastModifiedBy": "5frcpPVF3cVfLwZA"
  },
  "_key": "!actors!vOboZ4AoGFu1xTjh"
}
