{
  "_id": "jS2c38gj0TLUuOgr",
  "name": "Ganchador",
  "type": "npc",
  "img": "systems/tormenta20/icons/ameacas/ganchador.png",
  "items": [
    {
      "folder": "0V7x5o397UvG3xKP",
      "name": "Sensibilidade a Luz",
      "type": "poder",
      "img": "icons/creatures/eyes/humanoid-single-yellow.webp",
      "system": {
        "description": {
          "value": "Quando exposto à luz do sol ou similar, o ganchador fica ofuscado.",
          "unidentified": ""
        },
        "source": "",
        "ativacao": {
          "execucao": "",
          "custo": 0,
          "qtd": "",
          "condicao": "",
          "special": ""
        },
        "duracao": {
          "value": 0,
          "units": "",
          "special": ""
        },
        "target": {
          "value": null,
          "width": null,
          "type": ""
        },
        "range": {
          "value": null,
          "units": ""
        },
        "consume": {
          "type": "",
          "target": "",
          "amount": null,
          "mpMultiplier": false
        },
        "efeito": "",
        "alcance": "none",
        "alvo": "",
        "area": "",
        "resistencia": {
          "pericia": "",
          "atributo": "",
          "bonus": 0,
          "txt": ""
        },
        "rolls": [],
        "tipo": "ability",
        "subtipo": "",
        "origin": "",
        "tags": [],
        "chatFlavor": "",
        "chatGif": ""
      },
      "effects": [
        {
          "label": "Ofuscado",
          "icon": "systems/tormenta20/icons/conditions/ofuscado.svg",
          "origin": "Item.SXWbxEA5WLMZoDAW",
          "tint": "#FFFFFF",
          "flags": {
            "tormenta20": {
              "onuse": false,
              "durationScene": false
            }
          },
          "duration": {
            "rounds": 1,
            "startTime": null,
            "seconds": null,
            "combat": null,
            "turns": null,
            "startRound": null,
            "startTurn": null
          },
          "disabled": false,
          "_id": "xh6WFU2ofZkMrjqo",
          "changes": [],
          "transfer": false,
          "_key": "!actors.items.effects!jS2c38gj0TLUuOgr.w8qhRAEqxpXg4RF3.xh6WFU2ofZkMrjqo"
        }
      ],
      "sort": 2800000,
      "ownership": {
        "default": 0,
        "tIn9sSkrT3mDWirx": 3
      },
      "flags": {},
      "_stats": {
        "systemId": "tormenta20",
        "systemVersion": "1.4.1004",
        "coreVersion": "10.286",
        "createdTime": 1666321165760,
        "modifiedTime": 1667022537095,
        "lastModifiedBy": "tIn9sSkrT3mDWirx"
      },
      "_id": "w8qhRAEqxpXg4RF3",
      "_key": "!actors.items!jS2c38gj0TLUuOgr.w8qhRAEqxpXg4RF3"
    },
    {
      "folder": "38RRBscxCtcFC5s4",
      "name": "Mordida",
      "type": "arma",
      "img": "icons/creatures/abilities/mouth-teeth-long-red.webp",
      "system": {
        "description": {
          "value": "<section class=\"secret\">Mordida</section>",
          "chat": "",
          "unidentified": ""
        },
        "source": "",
        "equipado": 0,
        "equipado2": {
          "slot": 0,
          "type": "hand"
        },
        "carregado": true,
        "peso": 0,
        "espacos": 0,
        "qtd": 0,
        "preco": 0,
        "pv": {
          "value": 0,
          "min": 0,
          "max": 0
        },
        "rd": 0,
        "rolls": [
          {
            "name": "Ataque",
            "key": "ataque0",
            "type": "ataque",
            "parts": [
              [
                "1d20",
                "",
                ""
              ],
              [
                "luta",
                "",
                ""
              ],
              [
                "+17",
                "",
                ""
              ]
            ]
          },
          {
            "name": "Dano",
            "key": "dano1",
            "type": "dano",
            "parts": [
              [
                "2d6+8",
                "perfuracao",
                ""
              ],
              [
                "",
                "",
                ""
              ]
            ],
            "versatil": ""
          }
        ],
        "criticoM": 20,
        "criticoX": 2,
        "alcance": "",
        "tipoUso": "sim",
        "propriedades": {
          "ada": false,
          "agi": false,
          "alo": false,
          "arr": false,
          "dst": false,
          "dms": false,
          "dup": false,
          "lev": false,
          "mun": false,
          "ver": false,
          "des": false,
          "hib": false
        },
        "origin": "",
        "tags": [],
        "chatFlavor": "",
        "ativacao": {
          "custo": null,
          "condicao": "",
          "execucao": "",
          "qtd": "",
          "special": ""
        },
        "consume": {
          "amount": null,
          "mpMultiplier": false,
          "type": "",
          "target": ""
        },
        "encantos": {
          "lancinante": false,
          "keen": null,
          "bane": null,
          "throwable": null,
          "assassin": null,
          "seeking": null,
          "frost": null,
          "caster": null,
          "corrosive": null,
          "dancing": null,
          "defending": null,
          "destructive": null,
          "lacerating": null,
          "draining": null,
          "shock": null,
          "energy": null,
          "excruciating": null,
          "flaming": null,
          "formidable": null,
          "lancinating": false,
          "magnificent": null,
          "merciful": null,
          "unholy": null,
          "holy": null,
          "bloodthirsty": null,
          "thundering": null,
          "sepulchral": null,
          "speed": null,
          "poisonous": null
        },
        "melhorias": {
          "accurate": null,
          "pungent": null,
          "cruel": null,
          "atrocious": null,
          "balanced": null,
          "harmonized": null,
          "injection": null,
          "massive": null,
          "specialmaterial": null,
          "scope": null,
          "precise": null,
          "golden": null,
          "gems": null,
          "discreet": null,
          "macabre": null
        },
        "chatGif": "",
        "upgrades": {
          "melhoria1": "",
          "melhoria2": "",
          "melhoria3": "",
          "melhoria4": "",
          "material": "",
          "encanto1": "",
          "encanto2": "",
          "encanto3": ""
        },
        "proficiencia": "natural",
        "proposito": "corpo-a-corpo",
        "empunhadura": "leve",
        "size": "normal",
        "ataques": 0
      },
      "effects": [],
      "sort": 0,
      "ownership": {
        "default": 0,
        "tIn9sSkrT3mDWirx": 3
      },
      "flags": {},
      "_stats": {
        "systemId": "tormenta20",
        "systemVersion": "1.4.203d2",
        "coreVersion": "11.315",
        "createdTime": 1666318097513,
        "modifiedTime": 1700236905062,
        "lastModifiedBy": "5frcpPVF3cVfLwZA"
      },
      "_id": "mNk03cdqvHh5XkoP",
      "_key": "!actors.items!jS2c38gj0TLUuOgr.mNk03cdqvHh5XkoP"
    },
    {
      "folder": "38RRBscxCtcFC5s4",
      "name": "Garras",
      "type": "arma",
      "img": "icons/creatures/claws/claw-bear-paw-swipe-red.webp",
      "system": {
        "description": {
          "value": "<section class=\"secret\">duas garras</section>",
          "chat": "",
          "unidentified": ""
        },
        "source": "",
        "equipado": 0,
        "equipado2": {
          "slot": 0,
          "type": "hand"
        },
        "carregado": true,
        "peso": 0,
        "espacos": 0,
        "qtd": 2,
        "preco": 0,
        "pv": {
          "value": 0,
          "min": 0,
          "max": 0
        },
        "rd": 0,
        "rolls": [
          {
            "name": "Ataque",
            "key": "ataque0",
            "type": "ataque",
            "parts": [
              [
                "1d20",
                "",
                ""
              ],
              [
                "luta",
                "",
                ""
              ],
              [
                "+17",
                "",
                ""
              ]
            ]
          },
          {
            "name": "Dano",
            "key": "dano1",
            "type": "dano",
            "parts": [
              [
                "1d8+8",
                "corte",
                ""
              ],
              [
                "",
                "",
                ""
              ]
            ],
            "versatil": ""
          }
        ],
        "criticoM": 19,
        "criticoX": 2,
        "alcance": "",
        "tipoUso": "sim",
        "propriedades": {
          "ada": false,
          "agi": false,
          "alo": false,
          "arr": false,
          "dst": false,
          "dms": false,
          "dup": false,
          "lev": false,
          "mun": false,
          "ver": false,
          "des": false,
          "hib": false
        },
        "origin": "",
        "tags": [],
        "chatFlavor": "",
        "ativacao": {
          "custo": null,
          "condicao": "",
          "execucao": "",
          "qtd": "",
          "special": ""
        },
        "consume": {
          "amount": null,
          "mpMultiplier": false,
          "type": "",
          "target": ""
        },
        "encantos": {
          "lancinante": false,
          "keen": null,
          "bane": null,
          "throwable": null,
          "assassin": null,
          "seeking": null,
          "frost": null,
          "caster": null,
          "corrosive": null,
          "dancing": null,
          "defending": null,
          "destructive": null,
          "lacerating": null,
          "draining": null,
          "shock": null,
          "energy": null,
          "excruciating": null,
          "flaming": null,
          "formidable": null,
          "lancinating": false,
          "magnificent": null,
          "merciful": null,
          "unholy": null,
          "holy": null,
          "bloodthirsty": null,
          "thundering": null,
          "sepulchral": null,
          "speed": null,
          "poisonous": null
        },
        "melhorias": {
          "accurate": null,
          "pungent": null,
          "cruel": null,
          "atrocious": null,
          "balanced": null,
          "harmonized": null,
          "injection": null,
          "massive": null,
          "specialmaterial": null,
          "scope": null,
          "precise": null,
          "golden": null,
          "gems": null,
          "discreet": null,
          "macabre": null
        },
        "chatGif": "",
        "upgrades": {
          "melhoria1": "",
          "melhoria2": "",
          "melhoria3": "",
          "melhoria4": "",
          "material": "",
          "encanto1": "",
          "encanto2": "",
          "encanto3": ""
        },
        "proficiencia": "natural",
        "proposito": "corpo-a-corpo",
        "empunhadura": "leve",
        "size": "normal",
        "ataques": 0
      },
      "effects": [],
      "sort": 0,
      "ownership": {
        "default": 0,
        "tIn9sSkrT3mDWirx": 3
      },
      "flags": {},
      "_stats": {
        "systemId": "tormenta20",
        "systemVersion": "1.4.203d2",
        "coreVersion": "11.315",
        "createdTime": 1666318097513,
        "modifiedTime": 1700236909991,
        "lastModifiedBy": "5frcpPVF3cVfLwZA"
      },
      "_id": "wm8XXAJlAYFPkEwP",
      "_key": "!actors.items!jS2c38gj0TLUuOgr.wm8XXAJlAYFPkEwP"
    },
    {
      "type": "poder",
      "name": "Dilacerar",
      "img": "icons/skills/wounds/injury-triple-slash-bleed.webp",
      "system": {
        "description": {
          "value": "o ganchador acerta os dois ataques de garra em uma mesma criatura na mesma rodada, causa mais 2d8+8 pontos de dano",
          "unidentified": ""
        },
        "source": "",
        "ativacao": {
          "execucao": "",
          "custo": 0,
          "qtd": "",
          "condicao": "",
          "special": ""
        },
        "duracao": {
          "value": 0,
          "units": "",
          "special": ""
        },
        "target": {
          "value": null,
          "width": null,
          "type": ""
        },
        "range": {
          "value": null,
          "units": ""
        },
        "consume": {
          "type": "",
          "target": "",
          "amount": null,
          "mpMultiplier": false
        },
        "efeito": "",
        "alcance": "none",
        "alvo": "",
        "area": "",
        "resistencia": {
          "pericia": "",
          "atributo": "",
          "bonus": 0,
          "txt": ""
        },
        "rolls": [
          {
            "name": "Dano",
            "key": "dano0",
            "type": "dano",
            "parts": [
              [
                "2d8+8",
                "corte",
                ""
              ]
            ],
            "versatil": ""
          }
        ],
        "tipo": "ability",
        "subtipo": "",
        "origin": "",
        "tags": [],
        "chatFlavor": "",
        "chatGif": ""
      },
      "effects": [],
      "folder": "0V7x5o397UvG3xKP",
      "sort": 437500,
      "ownership": {
        "default": 0,
        "tIn9sSkrT3mDWirx": 3
      },
      "flags": {
        "core": {
          "sourceId": "Actor.jS2c38gj0TLUuOgr.Item.2VY2rJ1zUIoCmake"
        }
      },
      "_stats": {
        "systemId": "tormenta20",
        "systemVersion": "1.4.1004",
        "coreVersion": "10.286",
        "createdTime": 1667022537094,
        "modifiedTime": 1667022699625,
        "lastModifiedBy": "tIn9sSkrT3mDWirx"
      },
      "_id": "7xDCKkRuGzZglGwp",
      "_key": "!actors.items!jS2c38gj0TLUuOgr.7xDCKkRuGzZglGwp"
    },
    {
      "type": "poder",
      "name": "Quebrar Tudo!",
      "img": "icons/skills/melee/shield-damaged-broken-blue.webp",
      "system": {
        "description": {
          "value": "<p>O ganchador recebe +2 em testes de ataque para quebrar e causa +1d8 pontos de dano contra objetos</p>",
          "unidentified": ""
        },
        "source": "",
        "ativacao": {
          "execucao": "",
          "custo": 0,
          "qtd": "",
          "condicao": "",
          "special": ""
        },
        "duracao": {
          "value": 0,
          "units": "",
          "special": ""
        },
        "target": {
          "value": null,
          "width": null,
          "type": ""
        },
        "range": {
          "value": null,
          "units": ""
        },
        "consume": {
          "type": "",
          "target": "",
          "amount": null,
          "mpMultiplier": false
        },
        "efeito": "",
        "alcance": "none",
        "alvo": "",
        "area": "",
        "resistencia": {
          "pericia": "",
          "atributo": "",
          "bonus": 0,
          "txt": ""
        },
        "rolls": [],
        "tipo": "ability",
        "subtipo": "",
        "origin": "",
        "tags": [],
        "chatFlavor": "",
        "chatGif": ""
      },
      "effects": [],
      "folder": "0V7x5o397UvG3xKP",
      "sort": 100000,
      "ownership": {
        "default": 0,
        "tIn9sSkrT3mDWirx": 3
      },
      "flags": {
        "core": {
          "sourceId": "Actor.jS2c38gj0TLUuOgr.Item.rncHpg0iHQdO7s4V"
        }
      },
      "_stats": {
        "systemId": "tormenta20",
        "systemVersion": "1.4.1004",
        "coreVersion": "10.286",
        "createdTime": 1667022537094,
        "modifiedTime": 1667022749818,
        "lastModifiedBy": "tIn9sSkrT3mDWirx"
      },
      "_id": "sQOuDKjjc35t6spd",
      "_key": "!actors.items!jS2c38gj0TLUuOgr.sQOuDKjjc35t6spd"
    },
    {
      "folder": "JS9AvIp3HW4Rs7UD",
      "name": "Garras de Ganchador",
      "type": "tesouro",
      "img": "icons/commodities/claws/claw-insect-grey-purple.webp",
      "system": {
        "description": {
          "value": "<p><span class=\"fontstyle0\"><strong style=\"text-align: justify;\">[Tesouro Especial]</strong></span></p>\n<p>As garras do Ganchador valem T$ 500 em mat&eacute;ria-prima para fabricar armas de corte superiores. (CD 20 para extrair).</p>\n<p>&nbsp;</p>\n<p>&nbsp;</p>",
          "unidentified": ""
        },
        "source": "T20, pg. 287 (JdA)",
        "carregado": true,
        "peso": 0,
        "espacos": 0,
        "qtd": 1,
        "preco": 150,
        "pv": {
          "value": 0,
          "min": 0,
          "max": 0
        },
        "rd": 0,
        "container": false,
        "rolls": [],
        "origin": "",
        "chatFlavor": "",
        "tags": [],
        "chatGif": "",
        "ativacao": {
          "custo": 0,
          "condicao": "",
          "execucao": "",
          "qtd": "",
          "special": ""
        },
        "consume": {
          "amount": 0,
          "mpMultiplier": false,
          "target": "",
          "type": ""
        },
        "duracao": {
          "units": "",
          "value": 0,
          "special": ""
        },
        "range": {
          "units": "",
          "value": 0
        },
        "target": {
          "type": "",
          "value": 0,
          "width": 0
        },
        "alcance": "",
        "alvo": "",
        "area": "",
        "efeito": "",
        "resistencia": {
          "txt": "",
          "pericia": "",
          "atributo": "",
          "bonus": 0
        }
      },
      "effects": [],
      "sort": 300000,
      "ownership": {
        "default": 0,
        "RzS5vw1t6rOSWsrq": 3,
        "tIn9sSkrT3mDWirx": 3
      },
      "flags": {
        "exportSource": {
          "world": "tormentaverse",
          "system": "tormenta20",
          "coreVersion": "10.286",
          "systemVersion": "1.4.006"
        },
        "core": {
          "sourceId": "Item.3i3lkiwxfMxyWO31"
        }
      },
      "_stats": {
        "systemId": "tormenta20",
        "systemVersion": "1.4.1004",
        "coreVersion": "10.286",
        "createdTime": 1667022795301,
        "modifiedTime": 1667022915226,
        "lastModifiedBy": "tIn9sSkrT3mDWirx"
      },
      "_id": "25fIdt1gOjRTDkhm",
      "_key": "!actors.items!jS2c38gj0TLUuOgr.25fIdt1gOjRTDkhm"
    }
  ],
  "effects": [],
  "folder": "3f9xztQPcDuxpro9",
  "sort": 100001,
  "flags": {
    "exportSource": {
      "world": "andreverse-t20",
      "system": "tormenta20",
      "coreVersion": "0.6.6",
      "systemVersion": "0.9.71"
    },
    "editing": false,
    "tormenta20": {
      "sheet": {},
      "lvlconfig": {
        "pv": {},
        "pm": {}
      },
      "version": "1.3.0.0"
    },
    "core": {
      "sourceId": "Compendium.tormenta20.ameacas.jS2c38gj0TLUuOgr"
    }
  },
  "system": {
    "atributos": {
      "for": {
        "value": 0,
        "bonus": 0,
        "base": 6,
        "racial": 0
      },
      "des": {
        "value": 0,
        "bonus": 0,
        "base": 3,
        "racial": 0
      },
      "con": {
        "value": 0,
        "bonus": 0,
        "base": 5,
        "racial": 0
      },
      "int": {
        "value": 0,
        "bonus": 0,
        "base": -2,
        "racial": 0
      },
      "sab": {
        "value": 0,
        "bonus": 0,
        "base": 1,
        "racial": 0
      },
      "car": {
        "value": 0,
        "bonus": 0,
        "base": -2,
        "racial": 0
      }
    },
    "attributes": {
      "cd": 10,
      "pv": {
        "value": 210,
        "min": -500,
        "max": 210,
        "temp": 0
      },
      "pm": {
        "value": 0,
        "min": 0,
        "max": 0,
        "temp": 0
      },
      "movement": {
        "burrow": 0,
        "climb": 9,
        "fly": 0,
        "swim": 0,
        "walk": 9,
        "unit": "m",
        "hover": false,
        "notes": ""
      },
      "defesa": {
        "base": 26,
        "value": 0,
        "outros": 0,
        "atributo": "des",
        "pda": 0,
        "bonus": [],
        "condi": 0
      },
      "sentidos": {
        "value": [
          "cegas"
        ],
        "custom": ""
      },
      "conjuracao": "int",
      "nivel": {
        "value": 1,
        "xp": {
          "value": 0,
          "pct": 0,
          "proximo": 0
        }
      },
      "nd": "5",
      "carga": {
        "value": 0,
        "base": 10,
        "bonus": [],
        "max": 0,
        "pct": 0,
        "encumbered": false
      },
      "treino": 0
    },
    "detalhes": {
      "biography": {
        "value": "",
        "public": ""
      },
      "raca": "",
      "tipo": "mon",
      "alinhamento": "",
      "divindade": "",
      "nd": "",
      "equipamento": "",
      "resistencias": "",
      "tesouro": "Metade mais duas garras (CD 20 para extrair; cada garra conta como T$ 500 em matéria-prima para fabricar armas de corte superiores).",
      "role": "solo",
      "origem": "",
      "ataquescac": "Mordida +17 (2d6+8) e duas garras +17 (1d8+8, 19/x3)."
    },
    "tracos": {
      "tamanho": "gra",
      "resistencias": {
        "perda": {
          "value": 0,
          "base": 0,
          "bonus": [],
          "imunidade": false,
          "vulnerabilidade": false
        },
        "acido": {
          "value": 0,
          "base": 0,
          "bonus": [],
          "imunidade": false,
          "vulnerabilidade": false
        },
        "corte": {
          "value": 0,
          "base": 0,
          "bonus": [],
          "imunidade": false,
          "vulnerabilidade": false
        },
        "eletricidade": {
          "value": 0,
          "base": 0,
          "bonus": [],
          "imunidade": false,
          "vulnerabilidade": false
        },
        "essencia": {
          "value": 0,
          "base": 0,
          "bonus": [],
          "imunidade": false,
          "vulnerabilidade": false
        },
        "fogo": {
          "value": 0,
          "base": 0,
          "bonus": [],
          "imunidade": false,
          "vulnerabilidade": false
        },
        "frio": {
          "value": 0,
          "base": 0,
          "bonus": [],
          "imunidade": false,
          "vulnerabilidade": false
        },
        "impacto": {
          "value": 0,
          "base": 0,
          "bonus": [],
          "imunidade": false,
          "vulnerabilidade": false
        },
        "luz": {
          "value": 0,
          "base": 0,
          "bonus": [],
          "imunidade": false,
          "vulnerabilidade": false
        },
        "psiquico": {
          "value": 0,
          "base": 0,
          "bonus": [],
          "imunidade": false,
          "vulnerabilidade": false
        },
        "perfuracao": {
          "value": 0,
          "base": 0,
          "bonus": [],
          "imunidade": false,
          "vulnerabilidade": false
        },
        "trevas": {
          "value": 0,
          "base": 0,
          "bonus": [],
          "imunidade": false,
          "vulnerabilidade": false
        },
        "dano": {
          "value": 0,
          "imunidade": false,
          "vulnerabilidade": false
        }
      },
      "ic": {
        "value": [],
        "custom": ""
      },
      "idiomas": {
        "value": [
          "comum"
        ]
      }
    },
    "dinheiro": {
      "tl": 0,
      "to": 0,
      "tp": 0,
      "tc": 0
    },
    "resources": {
      "primary": {
        "value": 0,
        "max": 0,
        "label": ""
      },
      "secondary": {
        "value": 0,
        "max": 0,
        "label": ""
      },
      "tertiary": {
        "value": 0,
        "max": 0,
        "label": ""
      },
      "deathsave": {
        "value": 0,
        "max": 3,
        "label": ""
      },
      "shadow": {
        "value": 0,
        "max": 5,
        "label": ""
      },
      "catarse": {
        "value": 0,
        "max": 3,
        "label": ""
      }
    },
    "pericias": {
      "acro": {
        "value": 0,
        "atributo": "des",
        "outros": 0,
        "treinado": false,
        "st": false,
        "pda": false,
        "size": false,
        "condi": 0,
        "bonus": [],
        "custom": false,
        "label": "",
        "nome": ""
      },
      "ades": {
        "value": 0,
        "atributo": "car",
        "outros": 0,
        "treinado": false,
        "st": false,
        "pda": false,
        "size": false,
        "condi": 0,
        "bonus": [],
        "custom": false,
        "label": "",
        "nome": ""
      },
      "atle": {
        "value": 0,
        "atributo": "for",
        "outros": 0,
        "treinado": false,
        "st": false,
        "pda": false,
        "size": false,
        "condi": 0,
        "bonus": [],
        "custom": false,
        "label": "",
        "nome": ""
      },
      "atua": {
        "value": 0,
        "atributo": "car",
        "outros": 0,
        "treinado": false,
        "st": false,
        "pda": false,
        "size": false,
        "condi": 0,
        "bonus": [],
        "custom": false,
        "label": "",
        "nome": ""
      },
      "cava": {
        "value": 0,
        "atributo": "des",
        "outros": 0,
        "treinado": false,
        "st": false,
        "pda": false,
        "size": false,
        "condi": 0,
        "bonus": [],
        "custom": false,
        "label": "",
        "nome": ""
      },
      "conh": {
        "value": 0,
        "atributo": "int",
        "outros": 0,
        "treinado": false,
        "st": false,
        "pda": false,
        "size": false,
        "condi": 0,
        "bonus": [],
        "custom": false,
        "label": "",
        "nome": ""
      },
      "cura": {
        "value": 0,
        "atributo": "sab",
        "outros": 0,
        "treinado": false,
        "st": false,
        "pda": false,
        "size": false,
        "condi": 0,
        "bonus": [],
        "custom": false,
        "label": "",
        "nome": ""
      },
      "dipl": {
        "value": 0,
        "atributo": "car",
        "outros": 0,
        "treinado": false,
        "st": false,
        "pda": false,
        "size": false,
        "condi": 0,
        "bonus": [],
        "custom": false,
        "label": "",
        "nome": ""
      },
      "enga": {
        "value": 0,
        "atributo": "car",
        "outros": 0,
        "treinado": false,
        "st": false,
        "pda": false,
        "size": false,
        "condi": 0,
        "bonus": [],
        "custom": false,
        "label": "",
        "nome": ""
      },
      "fort": {
        "value": 15,
        "atributo": "con",
        "outros": 15,
        "treinado": false,
        "st": false,
        "pda": false,
        "size": false,
        "condi": 0,
        "bonus": [],
        "custom": false,
        "label": "",
        "nome": ""
      },
      "furt": {
        "value": 0,
        "atributo": "des",
        "outros": 0,
        "treinado": false,
        "st": false,
        "pda": false,
        "size": false,
        "condi": 0,
        "bonus": [],
        "custom": false,
        "label": "",
        "nome": ""
      },
      "guer": {
        "value": 0,
        "atributo": "int",
        "outros": 0,
        "treinado": false,
        "st": false,
        "pda": false,
        "size": false,
        "condi": 0,
        "bonus": [],
        "custom": false,
        "label": "",
        "nome": ""
      },
      "inic": {
        "value": 7,
        "atributo": "des",
        "outros": 0,
        "treinado": true,
        "st": false,
        "pda": false,
        "size": false,
        "condi": 0,
        "bonus": [],
        "custom": false,
        "label": "",
        "nome": ""
      },
      "inti": {
        "value": 0,
        "atributo": "car",
        "outros": 0,
        "treinado": false,
        "st": false,
        "pda": false,
        "size": false,
        "condi": 0,
        "bonus": [],
        "custom": false,
        "label": "",
        "nome": ""
      },
      "intu": {
        "value": 0,
        "atributo": "sab",
        "outros": 0,
        "treinado": false,
        "label": "",
        "st": false,
        "pda": false,
        "bonus": [],
        "size": false,
        "condi": 0,
        "custom": false,
        "nome": ""
      },
      "inve": {
        "value": 0,
        "atributo": "int",
        "outros": 0,
        "treinado": false,
        "st": false,
        "pda": false,
        "size": false,
        "condi": 0,
        "bonus": [],
        "custom": false,
        "label": "",
        "nome": ""
      },
      "joga": {
        "value": 0,
        "atributo": "car",
        "outros": 0,
        "treinado": false,
        "st": false,
        "pda": false,
        "size": false,
        "condi": 0,
        "bonus": [],
        "custom": false,
        "label": "",
        "nome": ""
      },
      "ladi": {
        "value": 0,
        "atributo": "des",
        "outros": 0,
        "treinado": false,
        "st": false,
        "pda": false,
        "size": false,
        "condi": 0,
        "bonus": [],
        "custom": false,
        "label": "",
        "nome": ""
      },
      "luta": {
        "value": 0,
        "atributo": "for",
        "outros": 0,
        "treinado": false,
        "st": false,
        "pda": false,
        "size": false,
        "condi": 0,
        "bonus": [],
        "custom": false,
        "label": "",
        "nome": ""
      },
      "mist": {
        "value": 0,
        "atributo": "int",
        "outros": 0,
        "treinado": false,
        "st": false,
        "pda": false,
        "size": false,
        "condi": 0,
        "bonus": [],
        "custom": false,
        "label": "",
        "nome": ""
      },
      "nobr": {
        "value": 0,
        "atributo": "int",
        "outros": 0,
        "treinado": false,
        "st": false,
        "pda": false,
        "size": false,
        "condi": 0,
        "bonus": [],
        "custom": false,
        "label": "",
        "nome": ""
      },
      "ofi0": {
        "value": 0,
        "atributo": "int",
        "outros": 0,
        "treinado": false,
        "st": false,
        "pda": false,
        "size": false,
        "condi": 0,
        "bonus": [],
        "custom": false,
        "label": "",
        "nome": ""
      },
      "perc": {
        "value": 5,
        "atributo": "sab",
        "outros": 0,
        "treinado": true,
        "st": false,
        "pda": false,
        "size": false,
        "condi": 0,
        "bonus": [],
        "custom": false,
        "label": "",
        "nome": ""
      },
      "pilo": {
        "value": 0,
        "atributo": "des",
        "outros": 0,
        "treinado": false,
        "st": false,
        "pda": false,
        "size": false,
        "condi": 0,
        "bonus": [],
        "custom": false,
        "label": "",
        "nome": ""
      },
      "pont": {
        "value": 0,
        "atributo": "des",
        "outros": 0,
        "treinado": false,
        "st": false,
        "pda": false,
        "size": false,
        "condi": 0,
        "bonus": [],
        "custom": false,
        "label": "",
        "nome": ""
      },
      "refl": {
        "value": 11,
        "atributo": "des",
        "outros": 11,
        "treinado": false,
        "st": false,
        "pda": false,
        "size": false,
        "condi": 0,
        "bonus": [],
        "custom": false,
        "label": "",
        "nome": ""
      },
      "reli": {
        "value": 0,
        "atributo": "sab",
        "outros": 0,
        "treinado": false,
        "st": false,
        "pda": false,
        "size": false,
        "condi": 0,
        "bonus": [],
        "custom": false,
        "label": "",
        "nome": ""
      },
      "sobr": {
        "value": 0,
        "atributo": "sab",
        "outros": 0,
        "treinado": false,
        "st": false,
        "pda": false,
        "size": false,
        "condi": 0,
        "bonus": [],
        "custom": false,
        "label": "",
        "nome": ""
      },
      "vont": {
        "value": 7,
        "atributo": "sab",
        "outros": 7,
        "treinado": false,
        "st": false,
        "pda": false,
        "size": false,
        "condi": 0,
        "bonus": [],
        "custom": false,
        "label": "",
        "nome": ""
      },
      "_pc0": {
        "value": 0,
        "atributo": "for",
        "outros": 0,
        "treinado": false,
        "st": false,
        "pda": false,
        "size": false,
        "condi": 0,
        "bonus": [],
        "custom": false,
        "label": "",
        "nome": ""
      }
    },
    "modificadores": {
      "atributos": {
        "geral": [
          ""
        ],
        "fisicos": [
          ""
        ],
        "mentais": [
          ""
        ],
        "for": [
          ""
        ],
        "des": [
          ""
        ],
        "con": [
          ""
        ],
        "int": [
          ""
        ],
        "sab": [
          ""
        ],
        "car": [
          ""
        ]
      },
      "dano": {
        "geral": [
          ""
        ],
        "cac": [
          ""
        ],
        "ad": [
          ""
        ],
        "mag": [
          ""
        ],
        "alq": [
          ""
        ]
      },
      "custoPM": "0",
      "pericias": {
        "geral": [
          ""
        ],
        "semataque": [
          ""
        ],
        "ataque": [
          ""
        ],
        "resistencia": [
          ""
        ],
        "atr": {
          "for": [
            ""
          ],
          "des": [
            ""
          ],
          "con": [
            ""
          ],
          "int": [
            ""
          ],
          "sab": [
            ""
          ],
          "car": [
            ""
          ]
        }
      },
      "ataque": {
        "geral": [],
        "cac": [],
        "ad": []
      }
    },
    "builder": {
      "attributes": {
        "cr": "",
        "size": "",
        "attack": {
          "value": 0,
          "cr": ""
        },
        "damage": {
          "value": 0,
          "cr": ""
        },
        "defense": {
          "value": 0,
          "cr": ""
        },
        "fort": {
          "value": 0,
          "rank": 2,
          "cr": ""
        },
        "refl": {
          "value": 0,
          "rank": 1,
          "cr": ""
        },
        "vont": {
          "value": 0,
          "rank": 0,
          "cr": ""
        },
        "topsave": {
          "value": 0,
          "cr": ""
        },
        "midsave": {
          "value": 0,
          "cr": ""
        },
        "botsave": {
          "value": 0,
          "cr": ""
        },
        "hp": {
          "value": 0,
          "cr": ""
        },
        "mp": {
          "value": 0,
          "cr": ""
        },
        "dc": {
          "value": 0,
          "cr": ""
        }
      },
      "details": {
        "concept": "",
        "creatureType": "",
        "role": "",
        "treasure": ""
      }
    }
  },
  "ownership": {
    "default": 0
  },
  "prototypeToken": {
    "flags": {},
    "name": "Ganchador",
    "displayName": 50,
    "width": 2,
    "height": 2,
    "lockRotation": false,
    "rotation": 0,
    "actorLink": false,
    "disposition": -1,
    "displayBars": 0,
    "bar1": {
      "attribute": "attributes.pv"
    },
    "bar2": {
      "attribute": "attributes.pm"
    },
    "randomImg": false,
    "alpha": 1,
    "light": {
      "dim": 0,
      "bright": 0,
      "angle": 360,
      "color": null,
      "alpha": 1,
      "animation": {
        "speed": 5,
        "intensity": 5,
        "type": null,
        "reverse": false
      },
      "coloration": 1,
      "attenuation": 0.5,
      "luminosity": 0.5,
      "saturation": 0,
      "contrast": 0,
      "shadows": 0,
      "darkness": {
        "min": 0,
        "max": 1
      }
    },
    "texture": {
      "src": "systems/tormenta20/icons/ameacas/ganchador.png",
      "tint": null,
      "scaleX": 1.2,
      "scaleY": 1.2,
      "offsetX": 0,
      "offsetY": 0,
      "rotation": 0
    },
    "sight": {
      "angle": 360,
      "enabled": true,
      "range": 30,
      "brightness": 1,
      "visionMode": "basic",
      "color": null,
      "attenuation": 0.1,
      "saturation": 0,
      "contrast": 0
    },
    "detectionModes": [],
    "appendNumber": false,
    "prependAdjective": false
  },
  "_stats": {
    "systemId": "tormenta20",
    "systemVersion": "1.4.203d2",
    "coreVersion": "11.315",
    "createdTime": 1661997946007,
    "modifiedTime": 1700236909991,
    "lastModifiedBy": "5frcpPVF3cVfLwZA"
  },
  "_key": "!actors!jS2c38gj0TLUuOgr"
}
