{
  "folder": null,
  "name": "ND 15",
  "sorting": "a",
  "type": "Actor",
  "_id": "T8437gUgvSRRrNNg",
  "sort": 0,
  "flags": {},
  "_stats": {
    "systemId": null,
    "systemVersion": null,
    "coreVersion": null,
    "createdTime": null,
    "modifiedTime": null,
    "lastModifiedBy": null
  },
  "_key": "!folders!T8437gUgvSRRrNNg"
}
