{
  "_id": "d5Im71VWcxIz9xKM",
  "name": "Vampiro",
  "type": "npc",
  "img": "systems/tormenta20/icons/ameacas/vampiro.png",
  "items": [
    {
      "type": "poder",
      "name": "Dominação Vampírica",
      "img": "icons/magic/control/mouth-smile-deception-purple.webp",
      "system": {
        "description": {
          "value": "O vampiro sussurra palavras de controle para um humanoide em alcance curto. A vítima fica confusa, enfeitiçada ou fascinada até o final da cena ou perde suas memórias da última hora, a escolha do vampiro (Von CD 29 evita). Uma criatura só pode ser alvo desta habilidade uma vez por cena",
          "unidentified": ""
        },
        "source": "",
        "ativacao": {
          "execucao": "action",
          "custo": 0,
          "qtd": "",
          "condicao": "",
          "special": ""
        },
        "duracao": {
          "value": 0,
          "units": "",
          "special": ""
        },
        "target": {
          "value": null,
          "width": null,
          "type": ""
        },
        "range": {
          "value": null,
          "units": ""
        },
        "consume": {
          "type": "",
          "target": "",
          "amount": null,
          "mpMultiplier": false
        },
        "efeito": "",
        "alcance": "none",
        "alvo": "",
        "area": "",
        "resistencia": {
          "pericia": "",
          "atributo": "",
          "bonus": 0,
          "txt": ""
        },
        "rolls": [],
        "tipo": "ability",
        "subtipo": "",
        "origin": "",
        "tags": [],
        "chatFlavor": "",
        "chatGif": ""
      },
      "effects": [],
      "folder": null,
      "sort": 0,
      "ownership": {
        "default": 0,
        "tIn9sSkrT3mDWirx": 3
      },
      "flags": {},
      "_stats": {
        "systemId": "tormenta20",
        "systemVersion": "1.4.1004",
        "coreVersion": "10.286",
        "createdTime": 1667015204454,
        "modifiedTime": 1667015331052,
        "lastModifiedBy": "tIn9sSkrT3mDWirx"
      },
      "_id": "mZck2eUTP7KO1ZmU",
      "_key": "!actors.items!d5Im71VWcxIz9xKM.mZck2eUTP7KO1ZmU"
    },
    {
      "type": "poder",
      "name": "Drenar Sangue",
      "img": "icons/magic/death/mouth-bite-fangs-vampire.webp",
      "system": {
        "description": {
          "value": "O vampiro drena sangue de uma criatura viva que esteja agarrando; ele causa 6d6 pontos de dano de perfuração e recupera a mesma quantidade de PV. Uma criatura morta pelo vampiro desta forma se erguerá como um vampiro na próxima noite e deverá vencer um teste de Vontade oposto contra o vampiro ou ficará sob o controle dele até que ele a liberte ou seja destruído",
          "unidentified": ""
        },
        "source": "",
        "ativacao": {
          "execucao": "action",
          "custo": 0,
          "qtd": "",
          "condicao": "",
          "special": ""
        },
        "duracao": {
          "value": 0,
          "units": "",
          "special": ""
        },
        "target": {
          "value": null,
          "width": null,
          "type": ""
        },
        "range": {
          "value": null,
          "units": ""
        },
        "consume": {
          "type": "",
          "target": "",
          "amount": null,
          "mpMultiplier": false
        },
        "efeito": "",
        "alcance": "none",
        "alvo": "",
        "area": "",
        "resistencia": {
          "pericia": "",
          "atributo": "",
          "bonus": 0,
          "txt": ""
        },
        "rolls": [
          {
            "name": "Dano",
            "key": "dano0",
            "type": "dano",
            "parts": [
              [
                "6d6",
                "perfuracao",
                ""
              ]
            ],
            "versatil": ""
          }
        ],
        "tipo": "ability",
        "subtipo": "",
        "origin": "",
        "tags": [],
        "chatFlavor": "",
        "chatGif": ""
      },
      "effects": [],
      "folder": null,
      "sort": 0,
      "ownership": {
        "default": 0,
        "tIn9sSkrT3mDWirx": 3
      },
      "flags": {},
      "_stats": {
        "systemId": "tormenta20",
        "systemVersion": "1.4.1004",
        "coreVersion": "10.286",
        "createdTime": 1667015204454,
        "modifiedTime": 1667015490117,
        "lastModifiedBy": "tIn9sSkrT3mDWirx"
      },
      "_id": "SHCaQHbCCkeSmJen",
      "_key": "!actors.items!d5Im71VWcxIz9xKM.SHCaQHbCCkeSmJen"
    },
    {
      "type": "poder",
      "name": "Forma de Morcego",
      "img": "icons/creatures/mammals/bat-movement-flying-purple.webp",
      "system": {
        "description": {
          "value": "O vampiro se transforma em um morcego. Ele se torna Minúsculo (+5 em Furtividade e -5 em testes de manobra) e recebe deslocamento de voo 12m. Seu equipamento é absorvido (retornando quando ele volta ao normal) e suas outras estatísticas não são alteradas. A transformação dura quanto tempo ele desejar, mas termina caso faça um ataque, lance uma magia ou sofra dano",
          "unidentified": ""
        },
        "source": "",
        "ativacao": {
          "execucao": "action",
          "custo": 0,
          "qtd": "",
          "condicao": "",
          "special": ""
        },
        "duracao": {
          "value": 0,
          "units": "",
          "special": ""
        },
        "target": {
          "value": null,
          "width": null,
          "type": ""
        },
        "range": {
          "value": null,
          "units": ""
        },
        "consume": {
          "type": "",
          "target": "",
          "amount": null,
          "mpMultiplier": false
        },
        "efeito": "",
        "alcance": "none",
        "alvo": "",
        "area": "",
        "resistencia": {
          "pericia": "",
          "atributo": "",
          "bonus": 0,
          "txt": ""
        },
        "rolls": [],
        "tipo": "ability",
        "subtipo": "",
        "origin": "",
        "tags": [],
        "chatFlavor": "",
        "chatGif": ""
      },
      "effects": [],
      "folder": null,
      "sort": 0,
      "ownership": {
        "default": 0,
        "tIn9sSkrT3mDWirx": 3
      },
      "flags": {},
      "_stats": {
        "systemId": "tormenta20",
        "systemVersion": "1.4.1004",
        "coreVersion": "10.286",
        "createdTime": 1667015204455,
        "modifiedTime": 1667015379009,
        "lastModifiedBy": "tIn9sSkrT3mDWirx"
      },
      "_id": "GEPyEaJqIBNHrQCO",
      "_key": "!actors.items!d5Im71VWcxIz9xKM.GEPyEaJqIBNHrQCO"
    },
    {
      "name": "Presença Majestosa",
      "type": "poder",
      "img": "icons/magic/unholy/silhouette-light-fire-blue.webp",
      "effects": [
        {
          "label": "Presença Majestosa",
          "icon": "icons/svg/upgrade.svg",
          "origin": "Item.awFA3yTlIpj82lLb",
          "tint": "#FFFFFF",
          "flags": {
            "tormenta20": {
              "onuse": true,
              "durationScene": false,
              "self": false,
              "attack": false,
              "skill": false,
              "ability": false,
              "power": true,
              "spell": false,
              "consumable": false,
              "items": "presenca aristocratica",
              "aumenta": false,
              "custo": ""
            }
          },
          "duration": {
            "startTime": null,
            "seconds": null,
            "combat": null,
            "rounds": null,
            "turns": null,
            "startRound": null,
            "startTurn": null
          },
          "disabled": true,
          "_id": "wMFuDl0hA0mnlbv3",
          "changes": [],
          "transfer": true,
          "_key": "!actors.items.effects!d5Im71VWcxIz9xKM.fwBnTCYmym5Put9h.wMFuDl0hA0mnlbv3"
        }
      ],
      "flags": {
        "core": {
          "sourceId": "Compendium.tormenta20.poderes.awFA3yTlIpj82lLb"
        }
      },
      "system": {
        "description": {
          "value": "Quando uma criatura ataca o vampiro, deve passar em um teste de Vontade (CD 29) ou não conseguirá machucá-lo e perderá a ação. Uma criatura que passe no teste de Vontade não é mais afetada por esta habilidade até o fim da cena",
          "unidentified": ""
        },
        "source": "",
        "ativacao": {
          "execucao": "reaction",
          "custo": 0,
          "qtd": "",
          "condicao": "",
          "special": ""
        },
        "duracao": {
          "value": 0,
          "units": "",
          "special": ""
        },
        "target": {
          "value": null,
          "width": null,
          "type": ""
        },
        "range": {
          "value": null,
          "units": ""
        },
        "consume": {
          "type": "",
          "target": "",
          "amount": null,
          "mpMultiplier": false
        },
        "efeito": "",
        "alcance": "none",
        "alvo": "",
        "area": "",
        "resistencia": {
          "pericia": "",
          "atributo": "",
          "bonus": 0,
          "txt": ""
        },
        "rolls": [],
        "tipo": "classe",
        "subtipo": "",
        "origin": "",
        "tags": [],
        "chatFlavor": "",
        "chatGif": ""
      },
      "ownership": {
        "default": 0,
        "tIn9sSkrT3mDWirx": 3
      },
      "_stats": {
        "systemId": "tormenta20",
        "systemVersion": "1.4.1004",
        "coreVersion": "10.286",
        "createdTime": 1664306184738,
        "modifiedTime": 1667015559438,
        "lastModifiedBy": "tIn9sSkrT3mDWirx"
      },
      "folder": "iwgBwgTbLli3VZjK",
      "sort": 0,
      "_id": "fwBnTCYmym5Put9h",
      "_key": "!actors.items!d5Im71VWcxIz9xKM.fwBnTCYmym5Put9h"
    },
    {
      "type": "poder",
      "name": "Sensibilidade ao Sol",
      "img": "icons/creatures/unholy/demon-winged-cyclops-drooling.webp",
      "system": {
        "description": {
          "value": "Quando exposto a luz solar direta, o vampiro fica ofuscado e perde 6d6 PV por rodada.",
          "unidentified": ""
        },
        "source": "",
        "ativacao": {
          "execucao": "",
          "custo": 0,
          "qtd": "",
          "condicao": "",
          "special": ""
        },
        "duracao": {
          "value": 0,
          "units": "",
          "special": ""
        },
        "target": {
          "value": null,
          "width": null,
          "type": ""
        },
        "range": {
          "value": null,
          "units": ""
        },
        "consume": {
          "type": "",
          "target": "",
          "amount": null,
          "mpMultiplier": false
        },
        "efeito": "",
        "alcance": "none",
        "alvo": "",
        "area": "",
        "resistencia": {
          "pericia": "",
          "atributo": "",
          "bonus": 0,
          "txt": ""
        },
        "rolls": [],
        "tipo": "ability",
        "subtipo": "",
        "origin": "",
        "tags": [],
        "chatFlavor": "",
        "chatGif": ""
      },
      "effects": [],
      "folder": null,
      "sort": 0,
      "ownership": {
        "default": 0,
        "tIn9sSkrT3mDWirx": 3
      },
      "flags": {},
      "_stats": {
        "systemId": "tormenta20",
        "systemVersion": "1.4.1004",
        "coreVersion": "10.286",
        "createdTime": 1667015204456,
        "modifiedTime": 1667015407252,
        "lastModifiedBy": "tIn9sSkrT3mDWirx"
      },
      "_id": "0ADQhYISqIwurOzM",
      "_key": "!actors.items!d5Im71VWcxIz9xKM.0ADQhYISqIwurOzM"
    },
    {
      "name": "Espada longa x2",
      "type": "arma",
      "img": "systems/tormenta20/icons/itens/equipamentos/espada-longa.webp",
      "effects": [],
      "flags": {
        "core": {
          "sourceId": "Compendium.tormenta20.equipamentos.LirOBCaOzAEWQpFk"
        }
      },
      "system": {
        "description": {
          "value": "<section class=\"secret\">Espada longa x2</section><p style=\"text-align:justify;\">Arma típica de soldados e guerreiros, esta espada de dois gumes tem lâmina reta medindo entre 80cm e 1m.</p>",
          "unidentified": ""
        },
        "source": "T20, pg. 148 (JdA)",
        "equipado": 0,
        "carregado": true,
        "peso": 2,
        "espacos": 1,
        "qtd": 1,
        "preco": 15,
        "pv": {
          "value": 0,
          "min": 0,
          "max": 0
        },
        "rd": 0,
        "rolls": [
          {
            "name": "Ataque",
            "key": "ataque0",
            "type": "ataque",
            "parts": [
              [
                "1d20",
                "",
                ""
              ],
              [
                "",
                "",
                ""
              ],
              [
                "+25",
                "",
                ""
              ]
            ],
            "versatil": ""
          },
          {
            "name": "Dano",
            "key": "dano1",
            "type": "dano",
            "parts": [
              [
                "2d8+25",
                "corte",
                ""
              ],
              [
                "",
                "",
                ""
              ],
              [
                "2d10",
                "trevas",
                ""
              ]
            ],
            "versatil": ""
          }
        ],
        "criticoM": 17,
        "criticoX": 2,
        "alcance": "-",
        "tipoUso": "sim",
        "propriedades": {
          "ada": false,
          "agi": false,
          "alo": false,
          "arr": false,
          "dst": false,
          "dms": false,
          "dup": false,
          "lev": false,
          "mun": false,
          "ver": false,
          "adaptavel": false,
          "agil": false,
          "alongada": false,
          "arremesso": false,
          "ataqueDistancia": false,
          "duasMaos": false,
          "dupla": false,
          "leve": false,
          "municao": false,
          "versatil": false,
          "des": false
        },
        "encantos": {
          "arremesso": false,
          "lancinante": false,
          "lancinating": false
        },
        "ativacao": {
          "custo": null,
          "condicao": "",
          "execucao": "",
          "qtd": "",
          "special": ""
        },
        "chatFlavor": "",
        "consume": {
          "type": "",
          "target": "",
          "amount": null,
          "mpMultiplier": false
        },
        "origin": "",
        "tags": [],
        "chatGif": "",
        "upgrades": {
          "melhoria1": "precise",
          "melhoria2": "specialmaterial",
          "melhoria3": "",
          "melhoria4": "",
          "material": "mithril",
          "encanto1": "",
          "encanto2": "",
          "encanto3": ""
        },
        "melhorias": {},
        "proficiencia": "marcial",
        "proposito": "corpo-a-corpo",
        "empunhadura": "uma",
        "size": "normal",
        "ataques": 0
      },
      "ownership": {
        "default": 0,
        "tIn9sSkrT3mDWirx": 3
      },
      "_stats": {
        "systemId": "tormenta20",
        "systemVersion": "1.4.1004",
        "coreVersion": "10.286",
        "createdTime": 1664312772402,
        "modifiedTime": 1667015255453,
        "lastModifiedBy": "tIn9sSkrT3mDWirx"
      },
      "folder": "brhICwdHcOUqvMPi",
      "sort": 2200000,
      "_id": "P42NmIP3WqZtXdNV",
      "_key": "!actors.items!d5Im71VWcxIz9xKM.P42NmIP3WqZtXdNV"
    },
    {
      "folder": "38RRBscxCtcFC5s4",
      "name": "Garra",
      "type": "arma",
      "img": "icons/creatures/claws/claw-bear-paw-swipe-red.webp",
      "system": {
        "description": {
          "value": "<section class=\"secret\">garras</section>",
          "unidentified": ""
        },
        "source": "",
        "equipado": 0,
        "carregado": true,
        "peso": 0,
        "espacos": 0,
        "qtd": 1,
        "preco": 0,
        "pv": {
          "value": 0,
          "min": 0,
          "max": 0
        },
        "rd": 0,
        "rolls": [
          {
            "name": "Ataque",
            "key": "ataque0",
            "type": "ataque",
            "parts": [
              [
                "1d20",
                "",
                ""
              ],
              [
                "",
                "",
                ""
              ],
              [
                "+36",
                "",
                ""
              ]
            ],
            "versatil": ""
          },
          {
            "name": "Dano",
            "key": "dano1",
            "type": "dano",
            "parts": [
              [
                "2d6+25",
                "corte",
                ""
              ],
              [
                "",
                "",
                ""
              ],
              [
                "2d10",
                "trevas",
                ""
              ]
            ],
            "versatil": ""
          }
        ],
        "criticoM": 20,
        "criticoX": 2,
        "alcance": "",
        "tipoUso": "sim",
        "propriedades": {
          "ada": false,
          "agi": false,
          "alo": false,
          "arr": false,
          "dst": false,
          "dms": false,
          "dup": false,
          "lev": false,
          "mun": false,
          "ver": false,
          "des": false
        },
        "origin": "",
        "tags": [],
        "chatFlavor": "",
        "ativacao": {
          "custo": null,
          "condicao": "",
          "execucao": "",
          "qtd": "",
          "special": ""
        },
        "consume": {
          "amount": null,
          "mpMultiplier": false,
          "type": "",
          "target": ""
        },
        "encantos": {
          "lancinante": false,
          "keen": null,
          "bane": null,
          "throwable": null,
          "assassin": null,
          "seeking": null,
          "frost": null,
          "caster": null,
          "corrosive": null,
          "dancing": null,
          "defending": null,
          "destructive": null,
          "lacerating": null,
          "draining": null,
          "shock": null,
          "energy": null,
          "excruciating": null,
          "flaming": null,
          "formidable": null,
          "lancinating": false,
          "magnificent": null,
          "merciful": null,
          "unholy": null,
          "holy": null,
          "bloodthirsty": null,
          "thundering": null,
          "sepulchral": null,
          "speed": null,
          "poisonous": null
        },
        "melhorias": {
          "accurate": null,
          "pungent": null,
          "cruel": null,
          "atrocious": null,
          "balanced": null,
          "harmonized": null,
          "injection": null,
          "massive": null,
          "specialmaterial": null,
          "scope": null,
          "precise": null,
          "golden": null,
          "gems": null,
          "discreet": null,
          "macabre": null
        },
        "chatGif": "",
        "upgrades": {
          "melhoria1": "",
          "melhoria2": "",
          "melhoria3": "",
          "melhoria4": "",
          "material": "",
          "encanto1": "",
          "encanto2": "",
          "encanto3": ""
        },
        "proficiencia": "natural",
        "proposito": "corpo-a-corpo",
        "empunhadura": "leve",
        "size": "normal",
        "ataques": 0
      },
      "effects": [],
      "sort": 0,
      "ownership": {
        "default": 0,
        "tIn9sSkrT3mDWirx": 3
      },
      "flags": {},
      "_stats": {
        "systemId": "tormenta20",
        "systemVersion": "1.4.1004",
        "coreVersion": "10.286",
        "createdTime": 1666318097513,
        "modifiedTime": 1667015226473,
        "lastModifiedBy": "tIn9sSkrT3mDWirx"
      },
      "_id": "WujAqyrLbw0W7frD",
      "_key": "!actors.items!d5Im71VWcxIz9xKM.WujAqyrLbw0W7frD"
    },
    {
      "_id": "lEOKHIDL6OXyq05S",
      "name": "Armadura completa",
      "type": "equipamento",
      "img": "systems/tormenta20/icons/itens/equipamentos/armadura-completa.webp",
      "effects": [],
      "flags": {
        "core": {
          "sourceId": "Compendium.tormenta20.equipamentos.CTeeKAq8zZlaJTpA"
        }
      },
      "system": {
        "description": {
          "value": "<p style=\"text-align:justify;\">A mais forte e pesada das armaduras, formada por placas de metal forjadas e encaixadas de modo a cobrir o corpo inteiro. Inclui manoplas e grevas (luvas e botas metálicas, respectivamente), um elmo com viseira e uma túnica acolchoada para ser usada sob as placas. Correias e fivelas distribuem o peso da armadura pelo corpo inteiro. </p><p style=\"text-align:justify;\">Esta armadura precisa ser feita sob medida para cada usuário; um ferreiro cobra T$ 200 para adaptar uma armadura completa a um novo usuário.</p>",
          "unidentified": ""
        },
        "source": "T20, pg. 154 (JdA)",
        "equipado": true,
        "carregado": true,
        "peso": 25,
        "espacos": 5,
        "qtd": 1,
        "preco": 3000,
        "pv": {
          "value": 0,
          "min": 0,
          "max": 0
        },
        "rd": 0,
        "tipo": "pesada",
        "armadura": {
          "value": 10,
          "penalidade": -5,
          "maxAtr": 0
        },
        "rolls": [],
        "origin": "",
        "tags": [],
        "chatFlavor": "",
        "chatGif": "",
        "ativacao": {
          "custo": 0,
          "condicao": "",
          "execucao": "",
          "qtd": "",
          "special": ""
        },
        "upgrades": {
          "melhoria1": "delicate",
          "melhoria2": "specialmaterial",
          "melhoria3": "",
          "melhoria4": "",
          "material": "mithril",
          "encanto1": "",
          "encanto2": "",
          "encanto3": ""
        },
        "melhorias": {},
        "encantos": {}
      },
      "ownership": {
        "default": 0,
        "tIn9sSkrT3mDWirx": 3
      },
      "_stats": {
        "systemId": "tormenta20",
        "systemVersion": "1.4.1004",
        "coreVersion": "10.286",
        "createdTime": 1664312772395,
        "modifiedTime": 1667015272332,
        "lastModifiedBy": "tIn9sSkrT3mDWirx"
      },
      "folder": "rsvFZjPiYXV5s7IN",
      "sort": 200000,
      "_key": "!actors.items!d5Im71VWcxIz9xKM.lEOKHIDL6OXyq05S"
    }
  ],
  "effects": [
    {
      "label": "Presença Majestosa",
      "icon": "icons/svg/upgrade.svg",
      "origin": "Actor.d5Im71VWcxIz9xKM.Item.fwBnTCYmym5Put9h",
      "tint": "#FFFFFF",
      "flags": {
        "tormenta20": {
          "onuse": true,
          "durationScene": false,
          "self": false,
          "attack": false,
          "skill": false,
          "ability": false,
          "power": true,
          "spell": false,
          "consumable": false,
          "items": "presenca aristocratica",
          "aumenta": false,
          "custo": ""
        }
      },
      "duration": {
        "startTime": 0,
        "seconds": null,
        "combat": null,
        "rounds": null,
        "turns": null,
        "startRound": null,
        "startTurn": null
      },
      "disabled": true,
      "_id": "wzpzZ5oGBNqJVqtM",
      "changes": [],
      "transfer": false,
      "_key": "!actors.effects!d5Im71VWcxIz9xKM.wzpzZ5oGBNqJVqtM"
    }
  ],
  "folder": "rv2JUh8V0XnW2OBc",
  "sort": 100001,
  "flags": {
    "editing": false,
    "tormenta20": {
      "sheet": {},
      "lvlconfig": {
        "pv": {},
        "pm": {}
      },
      "version": "1.3.0.0"
    },
    "core": {
      "sourceId": "Compendium.tormenta20.ameacas.d5Im71VWcxIz9xKM"
    }
  },
  "system": {
    "atributos": {
      "for": {
        "value": 0,
        "bonus": 0,
        "base": 6,
        "racial": 0
      },
      "des": {
        "value": 0,
        "bonus": 0,
        "base": 5,
        "racial": 0
      },
      "con": {
        "value": 0,
        "bonus": 0,
        "base": 5,
        "racial": 0
      },
      "int": {
        "value": 0,
        "bonus": 0,
        "base": 3,
        "racial": 0
      },
      "sab": {
        "value": 0,
        "bonus": 0,
        "base": 3,
        "racial": 0
      },
      "car": {
        "value": 0,
        "bonus": 0,
        "base": 6,
        "racial": 0
      }
    },
    "attributes": {
      "cd": 29,
      "pv": {
        "value": 550,
        "min": -500,
        "max": 550,
        "temp": 0
      },
      "pm": {
        "value": 0,
        "min": 0,
        "max": 0,
        "temp": 0
      },
      "movement": {
        "burrow": 0,
        "climb": 18,
        "fly": 0,
        "swim": 0,
        "walk": 18,
        "unit": "m",
        "hover": false,
        "notes": ""
      },
      "defesa": {
        "base": 45,
        "value": 0,
        "outros": 0,
        "atributo": "des",
        "pda": 0,
        "bonus": [],
        "condi": 0
      },
      "sentidos": {
        "value": [
          "escuro"
        ],
        "custom": ""
      },
      "conjuracao": "int",
      "nivel": {
        "value": 1,
        "xp": {
          "value": 0,
          "pct": 0,
          "proximo": 0
        }
      },
      "nd": "12",
      "carga": {
        "value": 0,
        "base": 10,
        "bonus": [],
        "max": 0,
        "pct": 0,
        "encumbered": false
      },
      "treino": 0
    },
    "detalhes": {
      "biography": {
        "value": "",
        "public": ""
      },
      "raca": "Morto-vivo",
      "tipo": "hum",
      "alinhamento": "",
      "divindade": "",
      "nd": "",
      "equipamento": "",
      "resistencias": "cura acelerada 10, redução de dano 10/luz.",
      "tesouro": "Dobro.",
      "role": "solo",
      "origem": "",
      "ataquescac": "Espada longa x2 +25 (2d8+25 mais 2d10 de trevas, 17) e garra +36 (2d6+25 mais 2d10 de trevas)."
    },
    "tracos": {
      "tamanho": "med",
      "resistencias": {
        "perda": {
          "value": 0,
          "base": 0,
          "bonus": [],
          "imunidade": false,
          "vulnerabilidade": false
        },
        "acido": {
          "value": 0,
          "base": 0,
          "bonus": [],
          "imunidade": false,
          "vulnerabilidade": false
        },
        "corte": {
          "value": 0,
          "base": 0,
          "bonus": [],
          "imunidade": false,
          "vulnerabilidade": false
        },
        "eletricidade": {
          "value": 0,
          "base": 0,
          "bonus": [],
          "imunidade": false,
          "vulnerabilidade": false
        },
        "essencia": {
          "value": 0,
          "base": 0,
          "bonus": [],
          "imunidade": false,
          "vulnerabilidade": false
        },
        "fogo": {
          "value": 0,
          "base": 0,
          "bonus": [],
          "imunidade": false,
          "vulnerabilidade": false
        },
        "frio": {
          "value": 0,
          "base": 0,
          "bonus": [],
          "imunidade": false,
          "vulnerabilidade": false
        },
        "impacto": {
          "value": 0,
          "base": 0,
          "bonus": [],
          "imunidade": false,
          "vulnerabilidade": false
        },
        "luz": {
          "value": 0,
          "base": 0,
          "bonus": [],
          "imunidade": false,
          "vulnerabilidade": false
        },
        "psiquico": {
          "value": 0,
          "base": 0,
          "bonus": [],
          "imunidade": false,
          "vulnerabilidade": false
        },
        "perfuracao": {
          "value": 0,
          "base": 0,
          "bonus": [],
          "imunidade": false,
          "vulnerabilidade": false
        },
        "trevas": {
          "value": 0,
          "base": 0,
          "bonus": [],
          "imunidade": false,
          "vulnerabilidade": false
        },
        "dano": {
          "value": 10,
          "imunidade": false,
          "vulnerabilidade": false
        }
      },
      "ic": {
        "value": [],
        "custom": ""
      },
      "idiomas": {
        "value": [
          "comum"
        ]
      }
    },
    "dinheiro": {
      "tl": 0,
      "to": 0,
      "tp": 0,
      "tc": 0
    },
    "resources": {
      "primary": {
        "value": 0,
        "max": 0,
        "label": ""
      },
      "secondary": {
        "value": 0,
        "max": 0,
        "label": ""
      },
      "tertiary": {
        "value": 0,
        "max": 0,
        "label": ""
      },
      "deathsave": {
        "value": 0,
        "max": 3,
        "label": ""
      },
      "shadow": {
        "value": 0,
        "max": 5,
        "label": ""
      },
      "catarse": {
        "value": 0,
        "max": 3,
        "label": ""
      }
    },
    "pericias": {
      "acro": {
        "value": 0,
        "atributo": "des",
        "outros": 0,
        "treinado": false,
        "st": false,
        "pda": false,
        "size": false,
        "condi": 0,
        "bonus": [],
        "custom": false,
        "label": "",
        "nome": ""
      },
      "ades": {
        "value": 0,
        "atributo": "car",
        "outros": 0,
        "treinado": false,
        "st": false,
        "pda": false,
        "size": false,
        "condi": 0,
        "bonus": [],
        "custom": false,
        "label": "",
        "nome": ""
      },
      "atle": {
        "value": 0,
        "atributo": "for",
        "outros": 0,
        "treinado": false,
        "st": false,
        "pda": false,
        "size": false,
        "condi": 0,
        "bonus": [],
        "custom": false,
        "label": "",
        "nome": ""
      },
      "atua": {
        "value": 0,
        "atributo": "car",
        "outros": 0,
        "treinado": false,
        "st": false,
        "pda": false,
        "size": false,
        "condi": 0,
        "bonus": [],
        "custom": false,
        "label": "",
        "nome": ""
      },
      "cava": {
        "value": 0,
        "atributo": "des",
        "outros": 0,
        "treinado": false,
        "st": false,
        "pda": false,
        "size": false,
        "condi": 0,
        "bonus": [],
        "custom": false,
        "label": "",
        "nome": ""
      },
      "conh": {
        "value": 0,
        "atributo": "int",
        "outros": 0,
        "treinado": false,
        "st": false,
        "pda": false,
        "size": false,
        "condi": 0,
        "bonus": [],
        "custom": false,
        "label": "",
        "nome": ""
      },
      "cura": {
        "value": 0,
        "atributo": "sab",
        "outros": 0,
        "treinado": false,
        "st": false,
        "pda": false,
        "size": false,
        "condi": 0,
        "bonus": [],
        "custom": false,
        "label": "",
        "nome": ""
      },
      "dipl": {
        "value": 16,
        "atributo": "car",
        "outros": 0,
        "treinado": true,
        "st": false,
        "pda": false,
        "size": false,
        "condi": 0,
        "bonus": [],
        "custom": false,
        "label": "",
        "nome": ""
      },
      "enga": {
        "value": 16,
        "atributo": "car",
        "outros": 0,
        "treinado": true,
        "st": false,
        "pda": false,
        "size": false,
        "condi": 0,
        "bonus": [],
        "custom": false,
        "label": "",
        "nome": ""
      },
      "fort": {
        "value": 12,
        "atributo": "con",
        "outros": 12,
        "treinado": false,
        "st": false,
        "pda": false,
        "size": false,
        "condi": 0,
        "bonus": [],
        "custom": false,
        "label": "",
        "nome": ""
      },
      "furt": {
        "value": 25,
        "atributo": "des",
        "outros": 10,
        "treinado": true,
        "st": false,
        "pda": false,
        "size": false,
        "condi": 0,
        "bonus": [],
        "custom": false,
        "label": "",
        "nome": ""
      },
      "guer": {
        "value": 0,
        "atributo": "int",
        "outros": 0,
        "treinado": false,
        "st": false,
        "pda": false,
        "size": false,
        "condi": 0,
        "bonus": [],
        "custom": false,
        "label": "",
        "nome": ""
      },
      "inic": {
        "value": 15,
        "atributo": "des",
        "outros": 0,
        "treinado": true,
        "st": false,
        "pda": false,
        "size": false,
        "condi": 0,
        "bonus": [],
        "custom": false,
        "label": "",
        "nome": ""
      },
      "inti": {
        "value": 0,
        "atributo": "car",
        "outros": 0,
        "treinado": false,
        "st": false,
        "pda": false,
        "size": false,
        "condi": 0,
        "bonus": [],
        "custom": false,
        "label": "",
        "nome": ""
      },
      "intu": {
        "value": 0,
        "atributo": "sab",
        "outros": 0,
        "treinado": false,
        "label": "",
        "st": false,
        "pda": false,
        "bonus": [],
        "size": false,
        "condi": 0,
        "custom": false,
        "nome": ""
      },
      "inve": {
        "value": 0,
        "atributo": "int",
        "outros": 0,
        "treinado": false,
        "st": false,
        "pda": false,
        "size": false,
        "condi": 0,
        "bonus": [],
        "custom": false,
        "label": "",
        "nome": ""
      },
      "joga": {
        "value": 0,
        "atributo": "car",
        "outros": 0,
        "treinado": false,
        "st": false,
        "pda": false,
        "size": false,
        "condi": 0,
        "bonus": [],
        "custom": false,
        "label": "",
        "nome": ""
      },
      "ladi": {
        "value": 0,
        "atributo": "des",
        "outros": 0,
        "treinado": false,
        "st": false,
        "pda": false,
        "size": false,
        "condi": 0,
        "bonus": [],
        "custom": false,
        "label": "",
        "nome": ""
      },
      "luta": {
        "value": 0,
        "atributo": "for",
        "outros": 0,
        "treinado": false,
        "st": false,
        "pda": false,
        "size": false,
        "condi": 0,
        "bonus": [],
        "custom": false,
        "label": "",
        "nome": ""
      },
      "mist": {
        "value": 0,
        "atributo": "int",
        "outros": 0,
        "treinado": false,
        "st": false,
        "pda": false,
        "size": false,
        "condi": 0,
        "bonus": [],
        "custom": false,
        "label": "",
        "nome": ""
      },
      "nobr": {
        "value": 13,
        "atributo": "int",
        "outros": 0,
        "treinado": true,
        "st": false,
        "pda": false,
        "size": false,
        "condi": 0,
        "bonus": [],
        "custom": false,
        "label": "",
        "nome": ""
      },
      "ofi0": {
        "value": 0,
        "atributo": "int",
        "outros": 0,
        "treinado": false,
        "st": false,
        "pda": false,
        "size": false,
        "condi": 0,
        "bonus": [],
        "custom": false,
        "label": "",
        "nome": ""
      },
      "perc": {
        "value": 13,
        "atributo": "sab",
        "outros": 0,
        "treinado": true,
        "st": false,
        "pda": false,
        "size": false,
        "condi": 0,
        "bonus": [],
        "custom": false,
        "label": "",
        "nome": ""
      },
      "pilo": {
        "value": 0,
        "atributo": "des",
        "outros": 0,
        "treinado": false,
        "st": false,
        "pda": false,
        "size": false,
        "condi": 0,
        "bonus": [],
        "custom": false,
        "label": "",
        "nome": ""
      },
      "pont": {
        "value": 0,
        "atributo": "des",
        "outros": 0,
        "treinado": false,
        "st": false,
        "pda": false,
        "size": false,
        "condi": 0,
        "bonus": [],
        "custom": false,
        "label": "",
        "nome": ""
      },
      "refl": {
        "value": 26,
        "atributo": "des",
        "outros": 26,
        "treinado": false,
        "st": false,
        "pda": false,
        "size": false,
        "condi": 0,
        "bonus": [],
        "custom": false,
        "label": "",
        "nome": ""
      },
      "reli": {
        "value": 0,
        "atributo": "sab",
        "outros": 0,
        "treinado": false,
        "st": false,
        "pda": false,
        "size": false,
        "condi": 0,
        "bonus": [],
        "custom": false,
        "label": "",
        "nome": ""
      },
      "sobr": {
        "value": 0,
        "atributo": "sab",
        "outros": 0,
        "treinado": false,
        "st": false,
        "pda": false,
        "size": false,
        "condi": 0,
        "bonus": [],
        "custom": false,
        "label": "",
        "nome": ""
      },
      "vont": {
        "value": 20,
        "atributo": "sab",
        "outros": 20,
        "treinado": false,
        "st": false,
        "pda": false,
        "size": false,
        "condi": 0,
        "bonus": [],
        "custom": false,
        "label": "",
        "nome": ""
      },
      "_pc0": {
        "value": 0,
        "atributo": "for",
        "outros": 0,
        "treinado": false,
        "st": false,
        "pda": false,
        "size": false,
        "condi": 0,
        "bonus": [],
        "custom": false,
        "label": "",
        "nome": ""
      }
    },
    "modificadores": {
      "atributos": {
        "geral": [
          ""
        ],
        "fisicos": [
          ""
        ],
        "mentais": [
          ""
        ],
        "for": [
          ""
        ],
        "des": [
          ""
        ],
        "con": [
          ""
        ],
        "int": [
          ""
        ],
        "sab": [
          ""
        ],
        "car": [
          ""
        ]
      },
      "dano": {
        "geral": [
          ""
        ],
        "cac": [
          ""
        ],
        "ad": [
          ""
        ],
        "mag": [
          ""
        ],
        "alq": [
          ""
        ]
      },
      "custoPM": "0",
      "pericias": {
        "geral": [
          ""
        ],
        "semataque": [
          ""
        ],
        "ataque": [
          ""
        ],
        "resistencia": [
          ""
        ],
        "atr": {
          "for": [
            ""
          ],
          "des": [
            ""
          ],
          "con": [
            ""
          ],
          "int": [
            ""
          ],
          "sab": [
            ""
          ],
          "car": [
            ""
          ]
        }
      },
      "ataque": {
        "geral": [],
        "cac": [],
        "ad": []
      }
    },
    "builder": {
      "attributes": {
        "cr": "",
        "size": "",
        "attack": {
          "value": 0,
          "cr": ""
        },
        "damage": {
          "value": 0,
          "cr": ""
        },
        "defense": {
          "value": 0,
          "cr": ""
        },
        "fort": {
          "value": 0,
          "rank": 2,
          "cr": ""
        },
        "refl": {
          "value": 0,
          "rank": 1,
          "cr": ""
        },
        "vont": {
          "value": 0,
          "rank": 0,
          "cr": ""
        },
        "topsave": {
          "value": 0,
          "cr": ""
        },
        "midsave": {
          "value": 0,
          "cr": ""
        },
        "botsave": {
          "value": 0,
          "cr": ""
        },
        "hp": {
          "value": 0,
          "cr": ""
        },
        "mp": {
          "value": 0,
          "cr": ""
        },
        "dc": {
          "value": 0,
          "cr": ""
        }
      },
      "details": {
        "concept": "",
        "creatureType": "",
        "role": "",
        "treasure": ""
      }
    }
  },
  "ownership": {
    "default": 0
  },
  "prototypeToken": {
    "flags": {},
    "name": "Vampiro",
    "displayName": 0,
    "width": 1,
    "height": 1,
    "lockRotation": false,
    "rotation": 0,
    "actorLink": false,
    "disposition": -1,
    "displayBars": 0,
    "bar1": {
      "attribute": "attributes.pv"
    },
    "bar2": {
      "attribute": "attributes.pm"
    },
    "randomImg": false,
    "alpha": 1,
    "light": {
      "dim": 0,
      "bright": 0,
      "angle": 360,
      "color": null,
      "alpha": 1,
      "animation": {
        "speed": 5,
        "intensity": 5,
        "type": null,
        "reverse": false
      },
      "coloration": 1,
      "attenuation": 0.5,
      "luminosity": 0.5,
      "saturation": 0,
      "contrast": 0,
      "shadows": 0,
      "darkness": {
        "min": 0,
        "max": 1
      }
    },
    "texture": {
      "src": "systems/tormenta20/icons/ameacas/vampiro.png",
      "tint": null,
      "scaleX": 1.1,
      "scaleY": 1.1,
      "offsetX": 0,
      "offsetY": 0,
      "rotation": 0
    },
    "sight": {
      "angle": 360,
      "enabled": true,
      "range": 18,
      "brightness": 1,
      "visionMode": "basic",
      "color": null,
      "attenuation": 0.1,
      "saturation": 0,
      "contrast": 0
    },
    "detectionModes": [],
    "appendNumber": false,
    "prependAdjective": false
  },
  "_stats": {
    "systemId": "tormenta20",
    "systemVersion": "1.4.203d2",
    "coreVersion": "11.315",
    "createdTime": 1661997945988,
    "modifiedTime": 1700004021272,
    "lastModifiedBy": "5frcpPVF3cVfLwZA"
  },
  "_key": "!actors!d5Im71VWcxIz9xKM"
}
