{
  "name": "Óleo",
  "type": "consumivel",
  "img": "systems/tormenta20/icons/itens/gerais/oleo.webp",
  "effects": [],
  "flags": {
    "tormenta20": {
      "version": "1.3.0.0"
    },
    "importid": "bGI0tAGMs46TxiLF",
    "cf": null,
    "core": {
      "sourceId": "Compendium.moduloguilda.world-guildaitem-1646800495579.J8iXj6Mn4TCYPElN"
    }
  },
  "system": {
    "description": {
      "value": "<p>Um frasco com &oacute;leo inflam&aacute;vel para lampi&atilde;o. Voc&ecirc; pode atirar o frasco em uma criatura em alcance curto. Se ela sofrer dano de fogo at&eacute; o fim do seu pr&oacute;ximo turno, sofre 1d6 pontos de dano adicional e fica em chamas.</p>",
      "chat": "",
      "unidentified": ""
    },
    "source": "T20, pg. 155 (JdA)",
    "equipado": false,
    "equipado2": {
      "slot": 0,
      "type": ""
    },
    "carregado": true,
    "peso": 0,
    "espacos": 0.5,
    "qtd": 1,
    "preco": 0.1,
    "pv": {
      "value": 0,
      "min": 0,
      "max": 0
    },
    "rd": 0,
    "ativacao": {
      "execucao": "",
      "custo": 0,
      "qtd": "",
      "condicao": "",
      "special": ""
    },
    "duracao": {
      "value": 0,
      "units": "",
      "special": ""
    },
    "target": {
      "value": null,
      "width": null,
      "units": "",
      "type": ""
    },
    "range": {
      "value": null,
      "units": ""
    },
    "consume": {
      "type": "",
      "target": "",
      "amount": null,
      "mpMultiplier": false
    },
    "efeito": "",
    "alcance": "none",
    "alvo": "",
    "area": "",
    "resistencia": {
      "pericia": "",
      "atributo": "",
      "bonus": 0,
      "txt": ""
    },
    "rolls": [],
    "tipo": "material",
    "uses": {
      "autoDestroy": false
    },
    "chatFlavor": "",
    "origin": "",
    "tags": [],
    "chatGif": "",
    "upgrades": {
      "melhoria1": "",
      "melhoria2": "",
      "melhoria3": "",
      "melhoria4": "",
      "material": "",
      "encanto1": "",
      "encanto2": "",
      "encanto3": ""
    },
    "melhorias": {},
    "encantos": {},
    "subtipo": ""
  },
  "ownership": {
    "default": 0,
    "tIn9sSkrT3mDWirx": 3
  },
  "_stats": {
    "systemId": "tormenta20",
    "systemVersion": "1.4.116",
    "coreVersion": "11.298",
    "createdTime": 1664312772404,
    "modifiedTime": 1684617788913,
    "lastModifiedBy": "ZWR5Tn3AhSIFqwp6"
  },
  "folder": "0G5uMjOsWAFaPYAZ",
  "sort": 1563,
  "_id": "cfAj21utrVii8t7h",
  "_key": "!items!cfAj21utrVii8t7h"
}
