{
  "name": "Animal Comum",
  "type": "tesouro",
  "img": "systems/tormenta20/icons/itens/gerais/animal-comum.webp",
  "effects": [],
  "flags": {
    "tormenta20": {
      "version": "1.3.0.0"
    },
    "importid": "A8xzZwy3XejOALEf",
    "cf": null,
    "core": {
      "sourceId": "Compendium.moduloguilda.world-guildaitem-1646800495579.Yp5Hrpl2HPdH5voD"
    }
  },
  "system": {
    "description": {
      "value": "<p style=\"text-align: justify;\"><strong>[Item de Origem]</strong>&nbsp;</p>\n<p style=\"text-align: justify;\">um animal n&atilde;o combativo (como uma&nbsp; galinha, porco ou ovelha).</p>",
      "chat": "",
      "unidentified": ""
    },
    "source": "T20, pg. 90 (JdA)",
    "equipado": false,
    "equipado2": {
      "slot": 0,
      "type": ""
    },
    "carregado": true,
    "peso": 0,
    "espacos": 0,
    "qtd": 1,
    "preco": 0,
    "pv": {
      "value": 0,
      "min": 0,
      "max": 0
    },
    "rd": 0,
    "container": false,
    "rolls": [],
    "chatFlavor": "",
    "origin": "",
    "tags": [],
    "chatGif": "",
    "ativacao": {
      "custo": 0,
      "condicao": "",
      "execucao": "",
      "qtd": "",
      "special": ""
    },
    "consume": {
      "amount": 0,
      "mpMultiplier": false,
      "target": "",
      "type": ""
    },
    "duracao": {
      "units": "",
      "value": 0,
      "special": ""
    },
    "range": {
      "units": "",
      "value": 0
    },
    "target": {
      "type": "",
      "value": 0,
      "width": 0
    },
    "alcance": "",
    "alvo": "",
    "area": "",
    "efeito": "",
    "resistencia": {
      "txt": "",
      "pericia": "",
      "atributo": "",
      "bonus": 0
    }
  },
  "_stats": {
    "systemId": "tormenta20",
    "systemVersion": "1.4.116",
    "coreVersion": "11.298",
    "createdTime": 1664312772413,
    "modifiedTime": 1684616842019,
    "lastModifiedBy": "ZWR5Tn3AhSIFqwp6"
  },
  "_id": "YsZ9tRVQjPQOBdYx",
  "folder": "jMEkEeU9nUclA8No",
  "sort": 200000,
  "ownership": {
    "default": 0,
    "tIn9sSkrT3mDWirx": 3
  },
  "_key": "!items!YsZ9tRVQjPQOBdYx"
}
