{
  "_id": "Yz49Gs97dQw2emgU",
  "name": "Armadura de couro",
  "type": "equipamento",
  "img": "systems/tormenta20/icons/itens/equipamentos/armadura-couro.webp",
  "effects": [],
  "folder": "KTYYM7B9o8xVYRLQ",
  "sort": 150000,
  "flags": {
    "core": {
      "sourceId": "Compendium.tormenta20.equipamentos.Yz49Gs97dQw2emgU"
    }
  },
  "system": {
    "description": {
      "value": "<p style=\"text-align:justify;\">O peitoral desta armadura é feito de couro curtido em óleo fervente, para ficar mais rígido, enquanto as demais partes são feitas de couro flexível.</p>",
      "chat": "",
      "unidentified": ""
    },
    "source": "T20, pg. 154 (JdA)",
    "equipado": false,
    "equipado2": {
      "slot": 0,
      "type": "body"
    },
    "carregado": true,
    "peso": 7,
    "espacos": 2,
    "qtd": 1,
    "preco": 20,
    "pv": {
      "value": 0,
      "min": 0,
      "max": 0
    },
    "rd": 0,
    "tipo": "leve",
    "armadura": {
      "value": 2,
      "penalidade": 0,
      "maxAtr": 0
    },
    "rolls": [],
    "origin": "",
    "tags": [],
    "chatFlavor": "",
    "chatGif": "",
    "ativacao": {
      "custo": 0,
      "condicao": "",
      "execucao": "",
      "qtd": "",
      "special": ""
    },
    "upgrades": {
      "melhoria1": "",
      "melhoria2": "",
      "melhoria3": "",
      "melhoria4": "",
      "material": "",
      "encanto1": "",
      "encanto2": "",
      "encanto3": ""
    },
    "melhorias": {},
    "encantos": {}
  },
  "ownership": {
    "default": 0
  },
  "_stats": {
    "systemId": "tormenta20",
    "systemVersion": "1.4.116",
    "coreVersion": "11.298",
    "createdTime": 1664312772409,
    "modifiedTime": 1684809353177,
    "lastModifiedBy": "ZWR5Tn3AhSIFqwp6"
  },
  "_key": "!items!Yz49Gs97dQw2emgU"
}
