{
  "name": "Equipamento de Aventura",
  "sorting": "a",
  "folder": null,
  "type": "Item",
  "_id": "0G5uMjOsWAFaPYAZ",
  "sort": 0,
  "color": null,
  "flags": {},
  "_stats": {
    "systemId": null,
    "systemVersion": null,
    "coreVersion": null,
    "createdTime": null,
    "modifiedTime": null,
    "lastModifiedBy": null
  },
  "_key": "!folders!0G5uMjOsWAFaPYAZ"
}
