{
  "name": "Gelo eterno",
  "type": "consumivel",
  "img": "systems/tormenta20/icons/itens/gerais/gelo-eterno.webp",
  "system": {
    "description": {
      "value": "<p><strong style=\"text-align: justify;\">[Material Especial]</strong></p>\n<p><span style=\"text-align: justify;\">As g&eacute;lidas Montanhas Uivantes produzem gelo que nunca derrete. Expedi&ccedil;&otilde;es de aventureiros exploram essa regi&atilde;o glacial perigosa &agrave; ca&ccedil;a deste material fant&aacute;stico.<br><strong>Arma.</strong> Causa +2 pontos de dano por frio.<br><strong>Armadura e Escudo.</strong> Fornece redu&ccedil;&atilde;o de fogo: armaduras leves e escudos, resist&ecirc;ncia 5; armaduras pesadas, resist&ecirc;ncia 10.<br><strong>Es&oacute;terico.</strong> Quando causa dano com uma magia de frio, voc&ecirc; pode rolar novamente qualquer resultado 1.</span></p>\n<p>&nbsp;</p>\n<p><span class=\"fontstyle0\"><strong style=\"text-align: justify;\">Pre&ccedil;os:</strong></span></p>\n<p><span class=\"fontstyle0\"><span style=\"text-align: justify;\">Armas +T$ 600&nbsp;</span></span></p>\n<p><span class=\"fontstyle0\"><span style=\"text-align: justify;\">Armaduras pesadas e Esot&eacute;ricos +T$ 3000</span></span></p>\n<p><span class=\"fontstyle0\"><span style=\"text-align: justify;\">Armaduras leves e Escudo&nbsp; +T$ 1500</span></span></p>",
      "chat": "",
      "unidentified": ""
    },
    "source": "T20, pg. 166 (JdA)",
    "equipado": false,
    "equipado2": {
      "slot": 0,
      "type": ""
    },
    "carregado": true,
    "peso": 0,
    "espacos": 1,
    "qtd": 1,
    "preco": 3000,
    "pv": {
      "value": 0,
      "min": 0,
      "max": 0
    },
    "rd": 0,
    "ativacao": {
      "execucao": "",
      "custo": 0,
      "qtd": "",
      "condicao": "",
      "special": ""
    },
    "duracao": {
      "value": 0,
      "units": "",
      "special": ""
    },
    "target": {
      "value": null,
      "width": null,
      "units": "",
      "type": ""
    },
    "range": {
      "value": null,
      "units": ""
    },
    "consume": {
      "type": "",
      "target": "",
      "amount": null,
      "mpMultiplier": false
    },
    "efeito": "",
    "alcance": "none",
    "alvo": "",
    "area": "",
    "resistencia": {
      "pericia": "",
      "atributo": "",
      "bonus": 0,
      "txt": ""
    },
    "rolls": [],
    "tipo": "material",
    "uses": {
      "autoDestroy": false
    },
    "origin": "",
    "chatFlavor": "",
    "subtipo": "",
    "tags": [],
    "chatGif": "",
    "upgrades": {
      "melhoria1": "",
      "melhoria2": "",
      "melhoria3": "",
      "melhoria4": "",
      "material": "",
      "encanto1": "",
      "encanto2": "",
      "encanto3": ""
    },
    "melhorias": {},
    "encantos": {}
  },
  "effects": [],
  "flags": {},
  "_stats": {
    "systemId": "tormenta20",
    "systemVersion": "1.4.200",
    "coreVersion": "11.299",
    "createdTime": 1664672283730,
    "modifiedTime": 1685245421109,
    "lastModifiedBy": "ZWR5Tn3AhSIFqwp6"
  },
  "_id": "aiANlquiTcxxKaix",
  "folder": "xqMxYK1BhlZ6ktNc",
  "sort": 300000,
  "ownership": {
    "default": 0,
    "tIn9sSkrT3mDWirx": 3
  },
  "_key": "!items!aiANlquiTcxxKaix"
}
