{
  "name": "Itens de Origem",
  "sorting": "a",
  "folder": null,
  "type": "Item",
  "_id": "jMEkEeU9nUclA8No",
  "sort": 0,
  "color": null,
  "flags": {},
  "_stats": {
    "systemId": null,
    "systemVersion": null,
    "coreVersion": null,
    "createdTime": null,
    "modifiedTime": null,
    "lastModifiedBy": null
  },
  "_key": "!folders!jMEkEeU9nUclA8No"
}
