{
  "_id": "nFV1X6lQbAhbocA6",
  "name": "Meia armadura",
  "type": "equipamento",
  "img": "systems/tormenta20/icons/itens/equipamentos/meia-armadura.webp",
  "effects": [],
  "folder": "KTYYM7B9o8xVYRLQ",
  "sort": 100025,
  "flags": {
    "core": {
      "sourceId": "Compendium.tormenta20.equipamentos.nFV1X6lQbAhbocA6"
    }
  },
  "system": {
    "description": {
      "value": "<p style=\"text-align:justify;\">Uma cota de malha reforçada com placas de metal.</p>",
      "chat": "",
      "unidentified": ""
    },
    "source": "T20, pg. 154 (JdA)",
    "equipado": false,
    "equipado2": {
      "slot": 0,
      "type": "body"
    },
    "carregado": true,
    "peso": 22,
    "espacos": 5,
    "qtd": 1,
    "preco": 600,
    "pv": {
      "value": 0,
      "min": 0,
      "max": 0
    },
    "rd": 0,
    "tipo": "pesada",
    "armadura": {
      "value": 8,
      "penalidade": -4,
      "maxAtr": 0
    },
    "rolls": [],
    "origin": "",
    "tags": [],
    "chatFlavor": "",
    "chatGif": "",
    "ativacao": {
      "custo": 0,
      "condicao": "",
      "execucao": "",
      "qtd": "",
      "special": ""
    },
    "upgrades": {
      "melhoria1": "",
      "melhoria2": "",
      "melhoria3": "",
      "melhoria4": "",
      "material": "",
      "encanto1": "",
      "encanto2": "",
      "encanto3": ""
    },
    "melhorias": {},
    "encantos": {}
  },
  "ownership": {
    "default": 0
  },
  "_stats": {
    "systemId": "tormenta20",
    "systemVersion": "1.4.116",
    "coreVersion": "11.298",
    "createdTime": 1664312772419,
    "modifiedTime": 1684809353177,
    "lastModifiedBy": "ZWR5Tn3AhSIFqwp6"
  },
  "_key": "!items!nFV1X6lQbAhbocA6"
}
