{
  "name": "Névoa Tóxica",
  "type": "consumivel",
  "img": "systems/tormenta20/icons/itens/gerais/veneno.webp",
  "effects": [
    {
      "label": "Névoa Tóxica",
      "icon": "systems/tormenta20/icons/itens/gerais/veneno.webp",
      "origin": "Item.rVf3avjsoKoSn5q3",
      "tint": "#FFFFFF",
      "flags": {
        "tormenta20": {
          "onuse": false,
          "durationScene": false
        }
      },
      "duration": {
        "rounds": 3,
        "startTime": null,
        "seconds": null,
        "combat": null,
        "turns": null,
        "startRound": null,
        "startTurn": null
      },
      "disabled": false,
      "_id": "818io8Q3Dg7J9vDq",
      "changes": [],
      "transfer": false,
      "_key": "!items.effects!rVf3avjsoKoSn5q3.818io8Q3Dg7J9vDq"
    }
  ],
  "flags": {
    "scene-packer": {
      "sourceId": "Item.PuaDbsue2OWjoeF2",
      "defaultPermission": 2,
      "hash": "a2492a20e347fb99a44df7fadc02da9be3e8a6e0"
    },
    "cf": null,
    "core": {
      "sourceId": "Compendium.world.world-arielton-1663050699947.NMYCIIIfCmn7KRbD"
    }
  },
  "system": {
    "description": {
      "value": "<p style=\"text-align: justify;\">Este g&aacute;s verde queima e corr&oacute;i a pele e os pulm&otilde;es.</p>\n<p style=\"text-align: justify;\"><strong>Tipo: </strong><em>Inala&ccedil;&atilde;o.</em></p>\n<p style=\"text-align: justify;\"><strong>Efeito:</strong><em> Perde 1d12 PV por rodada </em><em>durante 3 rodadas (perde 1d12 PV).</em></p>",
      "chat": "",
      "unidentified": ""
    },
    "source": "T20, pg. 161 (JdA)",
    "equipado": false,
    "equipado2": {
      "slot": 0,
      "type": ""
    },
    "carregado": true,
    "peso": 0.5,
    "espacos": 0.5,
    "qtd": 1,
    "preco": 30,
    "pv": {
      "value": 0,
      "min": 0,
      "max": 0
    },
    "rd": 0,
    "ativacao": {
      "execucao": "",
      "custo": 0,
      "qtd": "",
      "condicao": "",
      "special": ""
    },
    "duracao": {
      "value": 0,
      "units": "",
      "special": ""
    },
    "target": {
      "value": null,
      "width": null,
      "units": "",
      "type": ""
    },
    "range": {
      "value": null,
      "units": ""
    },
    "consume": {
      "type": "",
      "target": "",
      "amount": null,
      "mpMultiplier": false
    },
    "efeito": "",
    "alcance": "none",
    "alvo": "",
    "area": "",
    "resistencia": {
      "pericia": "",
      "atributo": "",
      "bonus": 0,
      "txt": ""
    },
    "rolls": [
      {
        "name": "Dano",
        "key": "dano0",
        "type": "dano",
        "parts": [
          [
            "1d12",
            "perda",
            ""
          ]
        ],
        "versatil": ""
      }
    ],
    "tipo": "alchemy",
    "uses": {
      "autoDestroy": false
    },
    "chatFlavor": "",
    "origin": "",
    "tags": [],
    "subtipo": "",
    "chatGif": "",
    "upgrades": {
      "melhoria1": "",
      "melhoria2": "",
      "melhoria3": "",
      "melhoria4": "",
      "material": "",
      "encanto1": "",
      "encanto2": "",
      "encanto3": ""
    },
    "melhorias": {},
    "encantos": {}
  },
  "_stats": {
    "systemId": "tormenta20",
    "systemVersion": "1.4.116",
    "coreVersion": "11.298",
    "createdTime": 1663051719419,
    "modifiedTime": 1684617800730,
    "lastModifiedBy": "ZWR5Tn3AhSIFqwp6"
  },
  "_id": "rVf3avjsoKoSn5q3",
  "folder": "bxpHxgHjOuykr5Rh",
  "sort": 500000,
  "ownership": {
    "default": 0,
    "tIn9sSkrT3mDWirx": 3
  },
  "_key": "!items!rVf3avjsoKoSn5q3"
}
