{
  "name": "Organizador de Pergaminhos",
  "type": "equipamento",
  "img": "systems/tormenta20/icons/itens/gerais/organizador-de-pergaminhos.webp",
  "system": {
    "description": {
      "value": "<p>Um estojo de madeira ou couro r&iacute;gido. Se voc&ecirc; estiver vestindo um organizador de pergaminhos, pode sacar pergaminhos como uma a&ccedil;&atilde;o livre.</p>",
      "chat": "",
      "unidentified": ""
    },
    "source": "T20, pg. 155 (JdA)",
    "equipado": false,
    "equipado2": {
      "slot": 0,
      "type": "body"
    },
    "carregado": true,
    "peso": 0,
    "espacos": 1,
    "qtd": 1,
    "preco": 25,
    "pv": {
      "value": 0,
      "min": 0,
      "max": 0
    },
    "rd": 0,
    "tipo": "traje",
    "armadura": {
      "value": 0,
      "penalidade": 0,
      "maxAtr": 0
    },
    "origin": "",
    "tags": [],
    "chatFlavor": "",
    "ativacao": {
      "custo": null,
      "condicao": "",
      "execucao": "",
      "qtd": "",
      "special": ""
    },
    "rolls": [],
    "chatGif": "",
    "upgrades": {
      "melhoria1": "",
      "melhoria2": "",
      "melhoria3": "",
      "melhoria4": "",
      "material": "",
      "encanto1": "",
      "encanto2": "",
      "encanto3": ""
    },
    "melhorias": {},
    "encantos": {}
  },
  "effects": [],
  "flags": {},
  "_stats": {
    "systemId": "tormenta20",
    "systemVersion": "1.4.116",
    "coreVersion": "11.298",
    "createdTime": 1665712638924,
    "modifiedTime": 1684809353177,
    "lastModifiedBy": "ZWR5Tn3AhSIFqwp6"
  },
  "_id": "xSbZylg3KpduPDBE",
  "folder": "3kNyXnAknru6qWyM",
  "sort": 300000,
  "ownership": {
    "default": 0,
    "tIn9sSkrT3mDWirx": 3
  },
  "_key": "!items!xSbZylg3KpduPDBE"
}
