{
  "name": "Uniforme militar",
  "type": "tesouro",
  "img": "systems/tormenta20/icons/itens/gerais/uniforme-militar.webp",
  "system": {
    "description": {
      "value": "<p style=\"text-align:justify;\"><strong>[Item de Origem]</strong>&nbsp;<br /><br /><br /><br /><br /><br /><br /><br /><br /><br /></p>",
      "chat": "",
      "unidentified": ""
    },
    "source": "T20, pg. 94 (JdA)",
    "equipado": false,
    "equipado2": {
      "slot": 0,
      "type": ""
    },
    "carregado": true,
    "peso": 2,
    "espacos": 0,
    "qtd": 1,
    "preco": 0,
    "pv": {
      "value": 0,
      "min": 0,
      "max": 0
    },
    "rd": 0,
    "container": false,
    "rolls": [],
    "origin": "",
    "chatFlavor": "",
    "tags": [],
    "chatGif": "",
    "ativacao": {
      "custo": 0,
      "condicao": "",
      "execucao": "",
      "qtd": "",
      "special": ""
    },
    "consume": {
      "amount": 0,
      "mpMultiplier": false,
      "target": "",
      "type": ""
    },
    "duracao": {
      "units": "",
      "value": 0,
      "special": ""
    },
    "range": {
      "units": "",
      "value": 0
    },
    "target": {
      "type": "",
      "value": 0,
      "width": 0
    },
    "alcance": "",
    "alvo": "",
    "area": "",
    "efeito": "",
    "resistencia": {
      "txt": "",
      "pericia": "",
      "atributo": "",
      "bonus": 0
    }
  },
  "effects": [],
  "flags": {
    "tormenta20": {
      "version": "1.3.0.0"
    },
    "core": {
      "sourceId": "Compendium.world.equipamentos-extra.GjsAOSoHzq4Mp5Dk"
    },
    "exportSource": {
      "world": "tormentaverse",
      "system": "tormenta20",
      "coreVersion": "10.286",
      "systemVersion": "1.4.006"
    }
  },
  "_stats": {
    "systemId": "tormenta20",
    "systemVersion": "1.4.116",
    "coreVersion": "11.298",
    "createdTime": null,
    "modifiedTime": 1684618115781,
    "lastModifiedBy": "ZWR5Tn3AhSIFqwp6"
  },
  "_id": "PWrI3tRiTMYo7Qs7",
  "folder": "jMEkEeU9nUclA8No",
  "sort": 500000,
  "ownership": {
    "default": 0,
    "tIn9sSkrT3mDWirx": 3
  },
  "_key": "!items!PWrI3tRiTMYo7Qs7"
}
