{
  "folder": null,
  "name": "Cavaleiro do Corvo",
  "sorting": "a",
  "type": "Item",
  "_id": "HmYZ3wnVn66EAlGT",
  "sort": 0,
  "flags": {},
  "_stats": {
    "systemId": null,
    "systemVersion": null,
    "coreVersion": null,
    "createdTime": null,
    "modifiedTime": null,
    "lastModifiedBy": null
  },
  "_key": "!folders!HmYZ3wnVn66EAlGT"
}
