{
  "name": "Combate Aéreo",
  "type": "poder",
  "img": "systems/tormenta20/icons/poderes/distincao.webp",
  "system": {
    "description": {
      "value": "<blockquote>\n<p>O aeronauta goblin sabe se virar contra inimigos nas alturas.</p>\n</blockquote>\n<p style=\"text-align: justify;\">Voc&ecirc; pode conduzir aeronaves com uma a&ccedil;&atilde;o livre e n&atilde;o sofre penalidades para atacar &agrave; dist&acirc;ncia ou lan&ccedil;ar magias por estar a bordo de uma aeronave. Por fim, quando est&aacute; a bordo de uma aeronave, voc&ecirc; recebe +1 em testes de ataque, em rolagens de dano e na CD para resistir &agrave;s suas habilidades e itens. Este b&ocirc;nus aumenta em +1 para cada dois outros poderes de aeronauta goblin que voc&ecirc; possui. <em>Pr&eacute;-requisito:</em> treinado em Pilotagem.</p>",
      "chat": "",
      "unidentified": ""
    },
    "source": "Distinções, pg 7",
    "ativacao": {
      "execucao": "passive",
      "custo": 0,
      "qtd": "",
      "condicao": "",
      "special": ""
    },
    "duracao": {
      "value": 0,
      "units": "",
      "special": ""
    },
    "target": {
      "value": null,
      "width": null,
      "units": "",
      "type": ""
    },
    "range": {
      "value": null,
      "units": ""
    },
    "consume": {
      "type": "",
      "target": "",
      "amount": null,
      "mpMultiplier": false
    },
    "efeito": "",
    "alcance": "none",
    "alvo": "",
    "area": "",
    "resistencia": {
      "pericia": "",
      "atributo": "",
      "bonus": 0,
      "txt": ""
    },
    "rolls": [],
    "tipo": "distincao",
    "subtipo": "Aeronauta Goblin",
    "origin": "",
    "tags": [
      "AeronautaGoblin"
    ],
    "chatFlavor": "",
    "chatGif": ""
  },
  "effects": [
    {
      "label": "Combate Aéreo",
      "icon": "systems/tormenta20/icons/poderes/distincao.webp",
      "origin": "Item.NiBtzR8F6NehyAuo",
      "tint": "#FFFFFF",
      "flags": {
        "tormenta20": {
          "onuse": false,
          "durationScene": false
        }
      },
      "duration": {
        "startTime": null,
        "seconds": null,
        "combat": null,
        "rounds": null,
        "turns": null,
        "startRound": null,
        "startTurn": null
      },
      "disabled": true,
      "_id": "a1goSxL8r7EwOIKT",
      "changes": [
        {
          "key": "system.modificadores.ataque.cac",
          "mode": 2,
          "value": "(@AeronautaGoblin2*1)",
          "priority": null
        },
        {
          "key": "dano",
          "mode": 2,
          "value": "(@AeronautaGoblin2*1)",
          "priority": null
        },
        {
          "key": "cd",
          "mode": 2,
          "value": "(@AeronautaGoblin2*1)",
          "priority": null
        },
        {
          "key": "system.modificadores.ataque.ad",
          "mode": 2,
          "value": "(@AeronautaGoblin2*1)",
          "priority": null
        }
      ],
      "transfer": true,
      "_key": "!items.effects!NiBtzR8F6NehyAuo.a1goSxL8r7EwOIKT"
    }
  ],
  "flags": {},
  "_stats": {
    "systemId": "tormenta20",
    "systemVersion": "1.4.116",
    "coreVersion": "11.298",
    "createdTime": 1665846714973,
    "modifiedTime": 1684614605298,
    "lastModifiedBy": "ZWR5Tn3AhSIFqwp6"
  },
  "_id": "NiBtzR8F6NehyAuo",
  "folder": "62pUBDtKHHsJNktu",
  "sort": 0,
  "ownership": {
    "default": 0,
    "tIn9sSkrT3mDWirx": 3
  },
  "_key": "!items!NiBtzR8F6NehyAuo"
}
