{
  "name": "Congelar o Inferno",
  "type": "poder",
  "img": "systems/tormenta20/icons/poderes/distincao.webp",
  "system": {
    "description": {
      "value": "<blockquote>\n<p style=\"text-align: justify;\">Quando surge um bandido realmente assustador, o tempo esfria, o sol empalidece, os animais fogem, e at&eacute; as pedras tremem de medo. Os mais infames chap&eacute;us pretos podem fazer uma est&aacute;tua baixar os olhos.</p>\n</blockquote>\n<p style=\"text-align: justify;\">Quando usa uma habilidade que gera um efeito de medo, voc&ecirc; pode gastar 2 PM para ignorar quaisquer imunidades a medo e efeitos mentais dos alvos da habilidade.</p>\n<p style=\"text-align: justify;\">Pr&eacute;-requisitos: Cora&ccedil;&atilde;o duro, dois outros poderes de chap&eacute;u preto.</p>",
      "chat": "",
      "unidentified": ""
    },
    "source": "Distinções, pg. 20",
    "ativacao": {
      "execucao": "",
      "custo": 2,
      "qtd": "",
      "condicao": "",
      "special": ""
    },
    "duracao": {
      "value": 0,
      "units": "",
      "special": ""
    },
    "target": {
      "value": null,
      "width": null,
      "units": "",
      "type": ""
    },
    "range": {
      "value": null,
      "units": ""
    },
    "consume": {
      "type": "",
      "target": "",
      "amount": null,
      "mpMultiplier": false
    },
    "efeito": "",
    "alcance": "none",
    "alvo": "",
    "area": "",
    "resistencia": {
      "pericia": "",
      "atributo": "",
      "bonus": 0,
      "txt": ""
    },
    "rolls": [],
    "tipo": "distincao",
    "subtipo": "Chapeu Preto",
    "origin": "",
    "tags": [
      "ChapeuPreto"
    ],
    "chatFlavor": "",
    "chatGif": ""
  },
  "effects": [],
  "flags": {},
  "_stats": {
    "systemId": "tormenta20",
    "systemVersion": "1.4.116",
    "coreVersion": "11.298",
    "createdTime": 1667074226526,
    "modifiedTime": 1684614605298,
    "lastModifiedBy": "ZWR5Tn3AhSIFqwp6"
  },
  "_id": "6RLsPFNakBWlqUow",
  "folder": "ELRx5oblpz3uQpB7",
  "sort": 0,
  "ownership": {
    "default": 0,
    "tIn9sSkrT3mDWirx": 3
  },
  "_key": "!items!6RLsPFNakBWlqUow"
}
