{
  "name": "Domínio de Terreno: Pântano",
  "type": "poder",
  "img": "systems/tormenta20/icons/poderes/distincao.webp",
  "system": {
    "description": {
      "value": "<blockquote>\n<p>Outros exploradores conhecem determinados tipos de terreno. O andarilho do horizonte os domina.</p>\n</blockquote>\n<p style=\"text-align: justify;\">Escolha dois tipos de terreno entre os tipos a seguir. Voc&ecirc; recebe os benef&iacute;cios dos tipos escolhidos mesmo que n&atilde;o esteja neste terreno. Voc&ecirc; pode escolher este poder outras vezes para terrenos diferentes. <em>Pr&eacute;-requisitos:</em> treinado em Conhecimento, Fortitude e Sobreviv&ecirc;ncia.</p>\n<p style=\"text-align: justify;\"><strong>P&acirc;ntano.</strong> Voc&ecirc; recebe resist&ecirc;ncia a &aacute;cido e veneno 5.</p>",
      "chat": "",
      "unidentified": ""
    },
    "source": "Distinções, pg. 12",
    "ativacao": {
      "execucao": "passive",
      "custo": 0,
      "qtd": "",
      "condicao": "",
      "special": ""
    },
    "duracao": {
      "value": 0,
      "units": "",
      "special": ""
    },
    "target": {
      "value": null,
      "width": null,
      "units": "",
      "type": ""
    },
    "range": {
      "value": null,
      "units": ""
    },
    "consume": {
      "type": "",
      "target": "",
      "amount": null,
      "mpMultiplier": false
    },
    "efeito": "",
    "alcance": "none",
    "alvo": "",
    "area": "",
    "resistencia": {
      "pericia": "",
      "atributo": "",
      "bonus": 0,
      "txt": ""
    },
    "rolls": [],
    "tipo": "distincao",
    "subtipo": "Andarilho do Horizonte",
    "origin": "",
    "tags": [
      "AndarilhodoHorizonte"
    ],
    "chatFlavor": "",
    "chatGif": ""
  },
  "effects": [
    {
      "label": "Resistência a ácido e veneno",
      "icon": "systems/tormenta20/icons/poderes/distincao.webp",
      "origin": "Item.utXmMO8WkXcxfvQH",
      "tint": "#FFFFFF",
      "flags": {
        "tormenta20": {
          "onuse": false,
          "durationScene": false
        }
      },
      "duration": {
        "startTime": null,
        "seconds": null,
        "combat": null,
        "rounds": null,
        "turns": null,
        "startRound": null,
        "startTurn": null
      },
      "disabled": false,
      "_id": "3OsyB0xqiv4f8RRH",
      "changes": [
        {
          "key": "system.tracos.resistencias.acido.value",
          "mode": 2,
          "value": "5",
          "priority": null
        },
        {
          "key": "system.tracos.resistencias.veneno.value",
          "mode": 2,
          "value": "5",
          "priority": null
        }
      ],
      "transfer": true,
      "_key": "!items.effects!utXmMO8WkXcxfvQH.3OsyB0xqiv4f8RRH"
    }
  ],
  "flags": {},
  "_stats": {
    "systemId": "tormenta20",
    "systemVersion": "1.4.116",
    "coreVersion": "11.298",
    "createdTime": 1665850170299,
    "modifiedTime": 1684614605298,
    "lastModifiedBy": "ZWR5Tn3AhSIFqwp6"
  },
  "_id": "utXmMO8WkXcxfvQH",
  "folder": "CivN4iqFKpA5ogfm",
  "sort": 0,
  "ownership": {
    "default": 0,
    "tIn9sSkrT3mDWirx": 3
  },
  "_key": "!items!utXmMO8WkXcxfvQH"
}
