{
  "name": "Ferramenta de Morte",
  "type": "poder",
  "img": "systems/tormenta20/icons/poderes/distincao.webp",
  "system": {
    "description": {
      "value": "<blockquote>\n<p>O Cavaleiro do Corvo aprende a empregar seu treinamento para coordenar os ataques de seus aliados.</p>\n</blockquote>\n<p style=\"text-align: justify;\">Voc&ecirc; pode gastar uma a&ccedil;&atilde;o de movimento e uma quantidade de PM limitada por seu b&ocirc;nus de Intelig&ecirc;ncia para liderar um ataque coordenado contra um inimigo em alcance curto. At&eacute; o in&iacute;cio de seu pr&oacute;ximo turno, voc&ecirc; e seus aliados recebem um b&ocirc;nus igual ao total de PM gastos em testes de ataque, rolagens de dano e na margem de amea&ccedil;a contra o inimigo escolhido. Este poder s&oacute; pode ser usado uma vez contra a mesma criatura em cada cena.</p>\n<p style=\"text-align: justify;\"><em>Pr&eacute;-requisitos:</em> A Qualquer Custo, deve ter liderado um grupo de aventureiros em pelo menos tr&ecirc;s combates vitoriosos (para efeitos deste requisito, liderar um grupo significa participar do combate apenas executando a&ccedil;&otilde;es de prestar ajuda a seus aliados).</p>",
      "chat": "",
      "unidentified": ""
    },
    "source": "Distinções, pg. 18",
    "ativacao": {
      "execucao": "move",
      "custo": 0,
      "qtd": "",
      "condicao": "",
      "special": ""
    },
    "duracao": {
      "value": 0,
      "units": "",
      "special": ""
    },
    "target": {
      "value": null,
      "width": null,
      "units": "",
      "type": ""
    },
    "range": {
      "value": null,
      "units": ""
    },
    "consume": {
      "type": "",
      "target": "",
      "amount": null,
      "mpMultiplier": false
    },
    "efeito": "",
    "alcance": "short",
    "alvo": "",
    "area": "",
    "resistencia": {
      "pericia": "",
      "atributo": "",
      "bonus": 0,
      "txt": ""
    },
    "rolls": [],
    "tipo": "distincao",
    "subtipo": "Cavaleiro do Corvo",
    "origin": "",
    "tags": [
      "CavaleirodoCorvo"
    ],
    "chatFlavor": "",
    "chatGif": ""
  },
  "effects": [
    {
      "label": "Novo Efeito",
      "icon": "icons/svg/upgrade.svg",
      "origin": "Item.qYvKvpkpBfzMBF24",
      "tint": "#FFFFFF",
      "flags": {
        "tormenta20": {
          "onuse": true,
          "durationScene": false,
          "self": true,
          "attack": false,
          "skill": false,
          "ability": false,
          "power": false,
          "equipment": false,
          "spell": false,
          "consumable": false,
          "items": "",
          "aumenta": true,
          "custo": "1"
        }
      },
      "duration": {
        "startTime": null,
        "seconds": null,
        "combat": null,
        "rounds": null,
        "turns": null,
        "startRound": null,
        "startTurn": null
      },
      "disabled": false,
      "_id": "VTbyT2f3Wg8fAylo",
      "changes": [
        {
          "key": "ataque",
          "mode": 2,
          "value": "1",
          "priority": 0
        },
        {
          "key": "dano",
          "mode": 2,
          "value": "1",
          "priority": 0
        },
        {
          "key": "criticoM",
          "mode": 2,
          "value": "-1",
          "priority": 0
        }
      ],
      "transfer": false,
      "_key": "!items.effects!qYvKvpkpBfzMBF24.VTbyT2f3Wg8fAylo"
    },
    {
      "label": "Ferramenta de Morte",
      "icon": "systems/tormenta20/icons/poderes/distincao.webp",
      "origin": "Item.qYvKvpkpBfzMBF24",
      "tint": "#FFFFFF",
      "flags": {
        "tormenta20": {
          "onuse": false,
          "durationScene": false
        }
      },
      "duration": {
        "rounds": 1,
        "startTime": null,
        "seconds": null,
        "combat": null,
        "turns": null,
        "startRound": null,
        "startTurn": null
      },
      "disabled": false,
      "_id": "wz53fACopaDt9y6K",
      "changes": [
        {
          "key": "ataque",
          "mode": 2,
          "value": "0",
          "priority": null
        },
        {
          "key": "dano",
          "mode": 2,
          "value": "0",
          "priority": null
        },
        {
          "key": "criticoM",
          "mode": 2,
          "value": "0",
          "priority": null
        }
      ],
      "transfer": true,
      "_key": "!items.effects!qYvKvpkpBfzMBF24.wz53fACopaDt9y6K"
    }
  ],
  "flags": {
    "core": {
      "sourceId": "Item.FJsShM7OC6TWqQqq"
    }
  },
  "_stats": {
    "systemId": "tormenta20",
    "systemVersion": "1.4.116",
    "coreVersion": "11.298",
    "createdTime": 1666312768880,
    "modifiedTime": 1684614605298,
    "lastModifiedBy": "ZWR5Tn3AhSIFqwp6"
  },
  "_id": "qYvKvpkpBfzMBF24",
  "folder": "HmYZ3wnVn66EAlGT",
  "sort": 0,
  "ownership": {
    "default": 0,
    "tIn9sSkrT3mDWirx": 3
  },
  "_key": "!items!qYvKvpkpBfzMBF24"
}
