{
  "name": "Flecha Explosiva",
  "type": "poder",
  "img": "systems/tormenta20/icons/poderes/distincao.webp",
  "system": {
    "description": {
      "value": "<blockquote>\n<p style=\"text-align: justify;\">Aprofundando seu treinamento, o arqueiro arcano aprende a lan&ccedil;ar magias mais potentes com suas flechas.</p>\n</blockquote>\n<p style=\"text-align: justify;\">Uma vez por rodada, quando voc&ecirc; lan&ccedil;a uma magia de &aacute;rea, pode lan&ccedil;&aacute;-la por meio de seu arco arcano. Fa&ccedil;a um ataque com seu arco; o alcance da magia se torna o alcance do arco e o centro de sua &aacute;rea &eacute; o ponto atingido pela flecha. Se atingir uma criatura ou objeto, a flecha causa seu dano normal (al&eacute;m do efeito da magia).</p>\n<p style=\"text-align: justify;\"><em>Pr&eacute;-requisito:</em> Flecha de Toque.</p>",
      "chat": "",
      "unidentified": ""
    },
    "source": "Distinções, pg. 16",
    "ativacao": {
      "execucao": "reaction",
      "custo": null,
      "qtd": "",
      "condicao": "",
      "special": ""
    },
    "duracao": {
      "value": 0,
      "units": "inst",
      "special": ""
    },
    "target": {
      "value": null,
      "width": null,
      "units": "",
      "type": ""
    },
    "range": {
      "value": null,
      "units": ""
    },
    "consume": {
      "type": "",
      "target": "",
      "amount": null,
      "mpMultiplier": false
    },
    "efeito": "",
    "alcance": "none",
    "alvo": "",
    "area": "",
    "resistencia": {
      "pericia": "",
      "atributo": "",
      "bonus": 0,
      "txt": ""
    },
    "rolls": [],
    "tipo": "distincao",
    "subtipo": "Arqueiro Arcano",
    "origin": "",
    "tags": [
      "Magico",
      "ArqueiroArcano"
    ],
    "chatFlavor": "",
    "chatGif": ""
  },
  "effects": [],
  "flags": {},
  "_stats": {
    "systemId": "tormenta20",
    "systemVersion": "1.4.116",
    "coreVersion": "11.298",
    "createdTime": 1665856654745,
    "modifiedTime": 1684614605298,
    "lastModifiedBy": "ZWR5Tn3AhSIFqwp6"
  },
  "_id": "XYrJPs81VeVXqGIG",
  "folder": "Rj1a3BRGbCJZHIUT",
  "sort": 0,
  "ownership": {
    "default": 0,
    "tIn9sSkrT3mDWirx": 3
  },
  "_key": "!items!XYrJPs81VeVXqGIG"
}
