{
  "name": "Flecha Fantasma",
  "type": "poder",
  "img": "systems/tormenta20/icons/poderes/distincao.webp",
  "system": {
    "description": {
      "value": "<blockquote>\n<p style=\"text-align: justify;\">Com um sussurro arcano, o arqueiro faz com que sua flecha alterne entre os planos.</p>\n</blockquote>\n<p style=\"text-align: justify;\">Quando faz um ataque com um arco, voc&ecirc; pode gastar 4 PM para deixar sua flecha et&eacute;rea. Voc&ecirc; recebe +4 em seu teste de ataque com esta flecha e ignora a resist&ecirc;ncia a dano e os b&ocirc;nus na Defesa por cobertura do alvo.</p>\n<p style=\"text-align: justify;\"><em>Pr&eacute;-requisitos: </em>Forma Et&eacute;rea, Arco Arcano.&nbsp;</p>",
      "chat": "",
      "unidentified": ""
    },
    "source": "Distinções, pg. 16",
    "ativacao": {
      "execucao": "reaction",
      "custo": null,
      "qtd": "",
      "condicao": "",
      "special": ""
    },
    "duracao": {
      "value": 0,
      "units": "inst",
      "special": ""
    },
    "target": {
      "value": null,
      "width": null,
      "units": "",
      "type": ""
    },
    "range": {
      "value": null,
      "units": ""
    },
    "consume": {
      "type": "",
      "target": "",
      "amount": null,
      "mpMultiplier": false
    },
    "efeito": "",
    "alcance": "none",
    "alvo": "",
    "area": "",
    "resistencia": {
      "pericia": "",
      "atributo": "",
      "bonus": 0,
      "txt": ""
    },
    "rolls": [],
    "tipo": "distincao",
    "subtipo": "Arqueiro Arcano",
    "origin": "",
    "tags": [
      "Magico",
      "ArqueiroArcano"
    ],
    "chatFlavor": "",
    "chatGif": ""
  },
  "effects": [
    {
      "label": "Deixa sua flecha etérea. Você recebe +4 em seu teste de ataque com esta flecha e ignora a resistência a dano e os bônus na Defesa por cobertura do alvo.",
      "icon": "icons/svg/upgrade.svg",
      "origin": "Item.8UqeHr4hv6EzcWIH",
      "tint": "#FFFFFF",
      "flags": {
        "tormenta20": {
          "onuse": true,
          "durationScene": false,
          "self": false,
          "attack": true,
          "skill": false,
          "ability": false,
          "power": false,
          "equipment": false,
          "spell": false,
          "consumable": false,
          "items": "",
          "aumenta": false,
          "custo": "4"
        }
      },
      "duration": {
        "startTime": null,
        "seconds": null,
        "combat": null,
        "rounds": null,
        "turns": null,
        "startRound": null,
        "startTurn": null
      },
      "disabled": true,
      "_id": "ex6ZylW6MbPGWCym",
      "changes": [
        {
          "key": "ataque",
          "mode": 2,
          "value": "4",
          "priority": 0
        }
      ],
      "transfer": true,
      "_key": "!items.effects!8UqeHr4hv6EzcWIH.ex6ZylW6MbPGWCym"
    }
  ],
  "flags": {},
  "_stats": {
    "systemId": "tormenta20",
    "systemVersion": "1.4.116",
    "coreVersion": "11.298",
    "createdTime": 1665856654745,
    "modifiedTime": 1684614605298,
    "lastModifiedBy": "ZWR5Tn3AhSIFqwp6"
  },
  "_id": "8UqeHr4hv6EzcWIH",
  "folder": "Rj1a3BRGbCJZHIUT",
  "sort": 0,
  "ownership": {
    "default": 0,
    "tIn9sSkrT3mDWirx": 3
  },
  "_key": "!items!8UqeHr4hv6EzcWIH"
}
