{
  "name": "Medicina Avançada",
  "type": "poder",
  "img": "systems/tormenta20/icons/poderes/distincao.webp",
  "system": {
    "description": {
      "value": "<blockquote>\n<p style=\"text-align: justify;\">Para aqueles formados no Col&eacute;gio Real, a medicina &eacute; mais do que instinto, &eacute; uma ci&ecirc;ncia fundamentada na l&oacute;gica e raz&atilde;o.</p>\n</blockquote>\n<p class=\"MsoNormal\" style=\"text-align: justify;\">Voc&ecirc; pode usar o modificador de Intelig&ecirc;ncia para Cura (em vez de Sabedoria). Al&eacute;m disso, os dados de cura de seu poder Medicina mudam para 1d10 (em vez de 1d6).</p>\n<p class=\"MsoNormal\" style=\"text-align: justify;\"><em>Pr&eacute;-requisitos:</em> Foco em Per&iacute;cia (Cura), Medicina.</p>",
      "chat": "",
      "unidentified": ""
    },
    "source": "Distinções, pg. 28-29",
    "ativacao": {
      "execucao": "",
      "custo": 0,
      "qtd": "",
      "condicao": "",
      "special": ""
    },
    "duracao": {
      "value": 0,
      "units": "",
      "special": ""
    },
    "target": {
      "value": null,
      "width": null,
      "units": "",
      "type": ""
    },
    "range": {
      "value": null,
      "units": ""
    },
    "consume": {
      "type": "",
      "target": "",
      "amount": null,
      "mpMultiplier": false
    },
    "efeito": "",
    "alcance": "none",
    "alvo": "",
    "area": "",
    "resistencia": {
      "pericia": "",
      "atributo": "",
      "bonus": 0,
      "txt": ""
    },
    "rolls": [],
    "tipo": "distincao",
    "subtipo": "Médico Ateu",
    "origin": "",
    "tags": [
      "MedicoAteu"
    ],
    "chatFlavor": "",
    "chatGif": ""
  },
  "effects": [
    {
      "label": "Medicina Avançada",
      "icon": "systems/tormenta20/icons/poderes/distincao.webp",
      "origin": "Item.eezJmGx7hyiRmlf5",
      "tint": "#FFFFFF",
      "flags": {
        "tormenta20": {
          "onuse": false,
          "durationScene": false
        }
      },
      "duration": {
        "startTime": null,
        "seconds": null,
        "combat": null,
        "rounds": null,
        "turns": null,
        "startRound": null,
        "startTurn": null
      },
      "disabled": false,
      "_id": "QOnubMCsjKlAhMnI",
      "changes": [
        {
          "key": "system.pericia.atributo",
          "mode": 0,
          "value": "@int",
          "priority": null
        }
      ],
      "transfer": true,
      "_key": "!items.effects!eezJmGx7hyiRmlf5.QOnubMCsjKlAhMnI"
    }
  ],
  "flags": {},
  "_stats": {
    "systemId": "tormenta20",
    "systemVersion": "1.4.116",
    "coreVersion": "11.298",
    "createdTime": 1667083101946,
    "modifiedTime": 1684614605298,
    "lastModifiedBy": "ZWR5Tn3AhSIFqwp6"
  },
  "_id": "eezJmGx7hyiRmlf5",
  "folder": "EckmJGi0doueXy41",
  "sort": 0,
  "ownership": {
    "default": 0,
    "tIn9sSkrT3mDWirx": 3
  },
  "_key": "!items!eezJmGx7hyiRmlf5"
}
