{
  "name": "Sopro do Dragão Rei",
  "type": "poder",
  "img": "systems/tormenta20/icons/poderes/distincao.webp",
  "system": {
    "description": {
      "value": "<blockquote>\n<p style=\"text-align: justify;\">Um Presa de Coral pode invocar a c&oacute;lera do pr&oacute;prio Drag&atilde;o Rei e soprar uma nuvem de &aacute;cido superaquecido contra seus inimigos</p>\n</blockquote>\n<p class=\"MsoNormal\" style=\"text-align: justify;\">Voc&ecirc; pode gastar uma a&ccedil;&atilde;o padr&atilde;o e 5 PM para soprar &aacute;cido superaquecido em um cone de alcance curto. Criaturas nesta &aacute;rea sofrem 4d6 pontos de dano de &aacute;cido e 4d6 pontos de dano de fogo (Reflexos CD Con reduz o dano &agrave; metade). Para cada dois outros poderes de Presa de Coral que possuir, voc&ecirc; pode gastar +2 PM para aumentar o dano de &aacute;cido em +1d6 e o dano de fogo em +1d6.</p>\n<p class=\"MsoNormal\" style=\"text-align: justify;\"><em>Pr&eacute;-requisitos</em>: dois poderes de Presa de Coral, ter presenciado o sopro do pr&oacute;prio Drag&atilde;o Rei.</p>",
      "chat": "",
      "unidentified": ""
    },
    "source": "Distinções, pg. 40-41",
    "ativacao": {
      "execucao": "action",
      "custo": 5,
      "qtd": "",
      "condicao": "",
      "special": ""
    },
    "duracao": {
      "value": 0,
      "units": "",
      "special": ""
    },
    "target": {
      "value": null,
      "width": null,
      "units": "",
      "type": ""
    },
    "range": {
      "value": null,
      "units": ""
    },
    "consume": {
      "type": "",
      "target": "",
      "amount": null,
      "mpMultiplier": false
    },
    "efeito": "",
    "alcance": "none",
    "alvo": "",
    "area": "cone de 9m",
    "resistencia": {
      "pericia": "",
      "atributo": "con",
      "bonus": 0,
      "txt": "reflexos"
    },
    "rolls": [
      {
        "name": "Sopro de Fogo",
        "key": "dano0",
        "type": "dano",
        "parts": [
          [
            "4d6",
            "fogo",
            ""
          ]
        ],
        "versatil": ""
      },
      {
        "name": "Sopro de Ácido",
        "key": "dano1",
        "type": "dano",
        "parts": [
          [
            "4d6",
            "acido",
            ""
          ]
        ],
        "versatil": ""
      }
    ],
    "tipo": "distincao",
    "subtipo": "Presa de Coral",
    "origin": "",
    "tags": [
      "PresadeCoral"
    ],
    "chatFlavor": "",
    "chatGif": ""
  },
  "effects": [],
  "flags": {
    "core": {
      "sourceId": "Item.HkVDWzvGSMxF3Yx8"
    }
  },
  "_stats": {
    "systemId": "tormenta20",
    "systemVersion": "1.4.116",
    "coreVersion": "11.298",
    "createdTime": 1667083101946,
    "modifiedTime": 1684614605298,
    "lastModifiedBy": "ZWR5Tn3AhSIFqwp6"
  },
  "_id": "O2NxRfSMkFUsKQGV",
  "folder": "vsGbYK3LgW5Oreol",
  "sort": 0,
  "ownership": {
    "default": 0,
    "tIn9sSkrT3mDWirx": 3
  },
  "_key": "!items!O2NxRfSMkFUsKQGV"
}
