{
  "folder": null,
  "name": "Vigilante Mascarado",
  "sorting": "a",
  "type": "Item",
  "_id": "NxFKO0AHIR0pQgBN",
  "sort": 0,
  "flags": {},
  "_stats": {
    "systemId": null,
    "systemVersion": null,
    "coreVersion": null,
    "createdTime": null,
    "modifiedTime": null,
    "lastModifiedBy": null
  },
  "_key": "!folders!NxFKO0AHIR0pQgBN"
}
